# Blender v2.68 (sub 0) OBJ File: 'cuscinoSwap.blend'
# www.blender.org
mtllib cushion.mtl
o cushion_Cube
v -0.270674 0.126022 -0.266431
v -0.276356 0.127351 -0.238574
v -0.266460 0.132172 -0.207883
v -0.244327 0.145784 -0.144013
v -0.246428 0.151650 -0.055695
v -0.251949 0.155890 0.005561
v -0.241055 0.157968 0.050536
v -0.259470 0.134198 0.193778
v 0.211162 0.131493 0.266691
v 0.122255 0.141872 0.270528
v -0.020384 0.153350 0.238628
v -0.061628 0.166669 0.244588
v -0.081171 0.151543 0.254138
v -0.140220 0.135553 0.272231
v -0.162841 0.132035 0.267760
v -0.207250 0.137660 0.261421
v -0.240145 0.127779 0.266960
v 0.170681 0.142891 -0.247484
v 0.126087 0.115053 -0.264188
v 0.084860 0.149159 -0.253002
v 0.057490 0.153340 -0.255611
v 0.018170 0.149130 -0.260607
v -0.017905 0.157431 -0.260929
v -0.054433 0.160454 -0.241228
v -0.088960 0.154365 -0.254836
v -0.164798 0.129573 -0.258762
v -0.198524 0.133767 -0.264487
v -0.236253 0.132188 -0.260116
v 0.206118 0.142453 -0.239020
v 0.144782 0.156089 -0.235219
v 0.131762 0.156985 -0.230547
v 0.074524 0.171354 -0.228283
v 0.053994 0.180152 -0.225012
v 0.015002 0.168056 -0.242179
v -0.019506 0.175167 -0.237517
v -0.095912 0.170943 -0.220145
v -0.137335 0.164872 -0.230932
v 0.267706 0.129592 -0.212422
v 0.064788 0.197905 -0.191692
v -0.102249 0.198919 -0.171977
v 0.252890 0.136748 -0.159927
v 0.235898 0.145978 -0.175016
v 0.156816 0.182412 -0.169278
v 0.125938 0.196188 -0.170048
v 0.083662 0.206229 -0.169158
v -0.129099 0.200399 -0.163910
v -0.238149 0.157698 -0.171419
v 0.200920 0.179019 -0.125133
v 0.077576 0.209626 -0.145712
v -0.049621 0.213607 -0.099320
v 0.244073 0.150776 -0.093941
v 0.219268 0.168267 -0.085180
v 0.184126 0.191584 -0.105930
v 0.163210 0.201878 -0.103087
v 0.150192 0.208482 -0.082978
v -0.102535 0.211389 -0.114114
v -0.149179 0.209585 -0.082307
v -0.171086 0.206186 -0.087108
v -0.215318 0.176415 -0.097135
v 0.220756 0.180818 -0.050020
v 0.074691 0.215261 -0.042722
v 0.027238 0.216796 -0.056735
v -0.107079 0.214087 -0.043747
v -0.206750 0.190389 -0.067375
v 0.204403 0.190120 -0.015079
v 0.164132 0.203792 -0.014615
v -0.048972 0.218004 -0.009862
v -0.195465 0.196499 0.007430
v 0.248732 0.157433 0.009009
v 0.213546 0.185396 0.001454
v 0.164507 0.208873 0.020439
v 0.117677 0.216275 0.017282
v -0.208471 0.190717 0.031232
v -0.230232 0.174703 0.020996
v 0.165480 0.207436 0.049921
v -0.147512 0.207696 0.043511
v -0.226442 0.178651 0.057414
v 0.264986 0.154962 0.090952
v 0.188218 0.201758 0.092721
v 0.169475 0.205428 0.100923
v 0.103418 0.213910 0.102367
v -0.043496 0.216646 0.061825
v -0.084448 0.214487 0.067029
v -0.167273 0.204308 0.093940
v 0.236390 0.150893 0.130659
v 0.114737 0.207818 0.136901
v -0.048769 0.212780 0.107085
v -0.071597 0.208041 0.151188
v -0.103827 0.211527 0.120035
v -0.170319 0.198987 0.121868
v 0.253813 0.140752 0.163207
v 0.223026 0.166671 0.161495
v 0.206115 0.171547 0.181824
v 0.163434 0.189815 0.169079
v -0.066779 0.201001 0.177073
v -0.235232 0.150205 0.181565
v 0.262086 0.138922 0.199221
v 0.242061 0.150634 0.202881
v -0.020101 0.193930 0.211014
v -0.059029 0.192850 0.202549
v -0.106880 0.190528 0.188934
v -0.128845 0.187116 0.195508
v -0.171697 0.166705 0.213685
v -0.205487 0.155683 0.201497
v -0.246931 0.140414 0.204190
v 0.264458 0.134341 0.222420
v 0.246818 0.135162 0.242772
v 0.185557 0.147083 0.233568
v 0.151277 0.158630 0.225339
v 0.127087 0.164988 0.229201
v 0.079873 0.155724 0.242834
v 0.037845 0.175596 0.226063
v 0.033482 0.154919 0.247123
v -0.054471 0.183096 0.224892
v -0.129668 0.168380 0.223136
v -0.185972 0.152473 0.240254
v -0.274407 0.115859 0.277478
v -0.251967 0.111490 0.280606
v -0.287434 0.119274 -0.268905
v -0.287146 0.111465 -0.268709
v 0.267283 0.111422 -0.284374
v 0.281801 0.121929 0.268523
v 0.284710 0.112346 0.269095
v -0.275203 0.122576 0.263782
v -0.285019 0.117005 0.263206
v -0.282285 0.111515 0.273962
v -0.279959 0.125032 0.224674
v -0.285109 0.120670 0.226970
v -0.282068 0.117720 0.187102
v -0.280630 0.111347 0.211139
v -0.275384 0.120234 0.149042
v -0.261320 0.137369 0.125409
v -0.263368 0.122633 0.120777
v -0.260565 0.110634 0.118576
v -0.257057 0.114642 0.049216
v -0.249247 0.111315 0.071469
v -0.265578 0.111240 0.014887
v -0.260405 0.140160 -0.015305
v -0.265283 0.111300 -0.015309
v -0.256933 0.132840 -0.048094
v -0.259254 0.113072 -0.059206
v -0.261939 0.136535 -0.085693
v -0.271404 0.121822 -0.096624
v -0.269156 0.110790 -0.092286
v -0.269013 0.129406 -0.115078
v -0.272469 0.117058 -0.137084
v 0.283195 0.124432 -0.261291
v 0.289195 0.118832 -0.270769
v 0.288277 0.111663 -0.269772
v 0.280743 0.124934 -0.230358
v 0.269282 0.125132 -0.196895
v 0.274000 0.127937 -0.153530
v 0.274416 0.110667 -0.160966
v 0.258286 0.134601 -0.101264
v 0.267130 0.113565 -0.111963
v 0.254912 0.112268 -0.089284
v 0.257661 0.113203 0.007615
v 0.267638 0.138263 0.109560
v 0.271084 0.110559 0.105386
v 0.266686 0.119474 0.123875
v 0.265359 0.111164 0.128706
v 0.278641 0.120548 0.164291
v 0.276864 0.110583 0.162870
v 0.274105 0.124873 0.214077
v 0.274380 0.112792 0.215124
v 0.279547 0.123253 0.241609
v 0.253047 0.127033 0.267522
v 0.207617 0.126549 0.272707
v 0.223114 0.111816 0.273872
v 0.162879 0.131440 0.278298
v 0.176453 0.110513 0.270340
v 0.131251 0.129609 0.276528
v 0.091213 0.140284 0.255527
v 0.093382 0.111489 0.257350
v 0.053437 0.130879 0.263533
v 0.047611 0.110913 0.260152
v -0.001599 0.125448 0.248239
v 0.017382 0.111118 0.250354
v -0.020461 0.122230 0.252431
v -0.003867 0.110889 0.246085
v -0.054903 0.130988 0.269048
v -0.093231 0.140196 0.257206
v -0.120048 0.110669 0.267148
v -0.175567 0.122818 0.279068
v -0.202635 0.130333 0.270605
v -0.208614 0.118131 0.274006
v -0.246406 0.117743 0.280310
v -0.259916 0.124126 -0.277428
v -0.270555 0.118536 -0.287337
v -0.230647 0.125868 -0.273715
v -0.230881 0.118279 -0.278470
v -0.198925 0.117300 -0.279995
v -0.154087 0.118849 -0.275909
v -0.125364 0.136759 -0.267681
v -0.129235 0.119911 -0.270724
v -0.100854 0.114533 -0.258441
v -0.053968 0.130021 -0.260571
v -0.050914 0.111835 -0.260472
v -0.017109 0.109743 -0.267852
v 0.019828 0.113068 -0.264312
v 0.056426 0.124894 -0.269003
v 0.054759 0.111481 -0.268971
v 0.078420 0.136718 -0.263000
v 0.170973 0.129756 -0.270642
v 0.224386 0.126259 -0.273239
v 0.274655 0.129050 0.221874
v 0.274949 0.126758 0.253991
v -0.170996 0.164008 -0.220212
v 0.156140 0.161859 -0.223029
v 0.192712 0.153543 -0.222140
v -0.256359 0.129673 -0.179532
v 0.183099 0.167442 -0.177721
v 0.106532 0.214382 0.063064
v 0.236979 0.179960 0.076012
v 0.215331 0.183760 0.106741
v -0.248091 0.139037 0.163176
v -0.238394 0.151564 0.146508
v -0.217826 0.169439 0.152543
v -0.023045 0.202242 0.192443
v 0.001610 0.182148 0.214875
v 0.236222 0.146192 0.219081
v -0.148518 0.154252 0.247894
v 0.159263 0.146984 0.255939
v 0.167266 0.140930 0.266916
v -0.002117 0.153747 0.235884
v -0.108995 0.146688 0.253332
v -0.180686 0.145046 0.256898
v 0.236608 0.131243 -0.259040
v 0.202074 0.135496 -0.260568
v 0.110570 0.135108 -0.249078
v 0.000399 0.152502 -0.256844
v -0.073782 0.151267 -0.258336
v -0.116064 0.147051 -0.253951
v 0.251484 0.131132 -0.241171
v 0.109360 0.158513 -0.227041
v -0.040950 0.173026 -0.234619
v -0.073245 0.169094 -0.238565
v -0.109423 0.161060 -0.231121
v -0.185476 0.151820 -0.234870
v 0.216277 0.146258 -0.200691
v 0.177561 0.163968 -0.206062
v 0.140705 0.178520 -0.204633
v 0.113772 0.181015 -0.211439
v -0.037237 0.192820 -0.201973
v -0.152537 0.174793 -0.210219
v -0.236147 0.151968 -0.198088
v 0.222678 0.155861 -0.162894
v 0.036831 0.200041 -0.181299
v -0.077260 0.201412 -0.174641
v -0.147012 0.192422 -0.173604
v -0.218535 0.168486 -0.170357
v -0.248512 0.147841 -0.173618
v 0.230408 0.161491 -0.127709
v 0.109888 0.205201 -0.142664
v 0.017887 0.209622 -0.134190
v -0.084892 0.208384 -0.144795
v -0.231197 0.170429 -0.124859
v 0.123692 0.212088 -0.077249
v -0.242371 0.156020 -0.078204
v 0.140810 0.211023 -0.056663
v -0.032822 0.215996 -0.074803
v 0.188824 0.197077 -0.002856
v 0.139985 0.208294 -0.025960
v 0.108579 0.212644 -0.027125
v 0.010130 0.219870 -0.019818
v -0.185547 0.198793 -0.046872
v -0.223305 0.180320 -0.021340
v 0.045133 0.220318 0.007116
v -0.119908 0.212108 -0.015842
v 0.220265 0.190442 0.037814
v 0.191800 0.201389 0.023436
v -0.189577 0.195913 0.067459
v 0.239474 0.174641 0.094595
v -0.223418 0.169513 0.099573
v 0.203578 0.184188 0.136704
v 0.187865 0.199503 0.114005
v 0.003371 0.207642 0.149451
v -0.118553 0.206974 0.145508
v -0.246348 0.158265 0.120690
v -0.257519 0.145224 0.129219
v 0.185206 0.183798 0.169234
v 0.097125 0.202694 0.160981
v 0.054594 0.203466 0.160518
v 0.017643 0.199797 0.183387
v -0.012913 0.205896 0.178216
v -0.037691 0.205387 0.153732
v -0.137718 0.194566 0.175479
v -0.190196 0.187757 0.135083
v 0.218988 0.157437 0.202865
v 0.138770 0.174514 0.195769
v 0.023349 0.192593 0.198177
v -0.037896 0.195532 0.207473
v -0.037809 0.183968 0.225207
v -0.110742 0.163599 0.223480
v -0.234227 0.134687 0.247837
v 0.275160 0.121495 0.279327
v -0.283992 0.118464 -0.282496
v -0.266731 0.131085 0.145538
v -0.265257 0.115040 -0.183655
v 0.289678 0.119346 -0.245821
v 0.283313 0.117797 -0.216566
v 0.280394 0.121190 -0.175647
v 0.255453 0.132280 -0.068288
v 0.274920 0.127267 0.037387
v 0.245512 0.130877 0.147417
v 0.278829 0.112620 0.243385
v 0.233917 0.121366 0.275436
v 0.202344 0.121847 0.274877
v 0.131224 0.112240 0.275048
v 0.071841 0.110619 0.263492
v -0.037798 0.149443 0.253913
v -0.037471 0.124560 0.263678
v -0.089061 0.121720 0.265767
v -0.120653 0.129904 0.271965
v -0.147169 0.125124 0.276997
v -0.254068 0.122337 0.275108
v -0.145232 0.130868 -0.267639
v -0.110818 0.131756 -0.264110
v -0.072387 0.125883 -0.266866
v -0.019800 0.137438 -0.273299
v 0.038570 0.131368 -0.259212
v 0.107806 0.114264 -0.262748
v 0.193188 0.120889 -0.278179
v 0.278949 0.117084 -0.284203
v -0.251726 0.120649 0.074782
v 0.272419 0.123070 0.109858
v 0.263729 0.128634 -0.178718
v 0.262426 0.136030 -0.139712
v 0.246846 0.152896 -0.048277
v 0.263975 0.139916 0.015243
v 0.267330 0.150049 0.037949
v 0.272425 0.145627 0.085045
v 0.054989 0.147297 0.254768
v -0.091058 0.141207 -0.263403
v 0.269334 0.123314 -0.274636
v -0.254577 0.134604 -0.241841
v -0.190899 0.140295 -0.254598
v -0.155746 0.142916 -0.247710
v 0.038906 0.156149 -0.248704
v -0.252726 0.142585 -0.204113
v -0.235530 0.145461 -0.215688
v -0.068706 0.187282 -0.210879
v 0.005426 0.184456 -0.218501
v 0.107723 0.196717 -0.183114
v 0.139057 0.185971 -0.189103
v 0.254071 0.136107 -0.192163
v -0.226348 0.170103 -0.150033
v -0.195634 0.186227 -0.146220
v -0.168063 0.200826 -0.129621
v -0.112988 0.207071 -0.147308
v -0.052950 0.201208 -0.171458
v -0.012932 0.202219 -0.174355
v 0.148056 0.193092 -0.147479
v -0.192984 0.193062 -0.124905
v -0.166640 0.206169 -0.107571
v 0.053388 0.213016 -0.110835
v 0.187809 0.194427 -0.072219
v 0.181636 0.201614 -0.052377
v -0.155196 0.206008 -0.031484
v 0.082874 0.218683 0.000227
v 0.242807 0.175245 0.037695
v -0.241526 0.158669 0.076333
v 0.069301 0.215905 0.084849
v 0.032827 0.215665 0.083240
v 0.141963 0.208157 0.114140
v 0.145887 0.199960 0.150238
v 0.235054 0.152311 0.148140
v -0.220443 0.160668 0.175290
v 0.095001 0.193779 0.185493
v 0.138195 0.191734 0.168975
v 0.180863 0.175727 0.184251
v 0.224206 0.162748 0.186281
v 0.239581 0.153570 0.182119
v -0.260970 0.131880 0.225959
v -0.227053 0.141408 0.223312
v -0.145080 0.176448 0.209969
v 0.061342 0.190490 0.191112
v 0.100343 0.175896 0.208226
v 0.176578 0.157476 0.212889
v 0.132856 0.155081 0.249500
v -0.263400 0.127126 0.175942
v -0.260939 0.137178 0.024078
v -0.257063 0.128736 -0.149271
v 0.275806 0.121702 -0.206986
v 0.262502 0.134024 -0.008913
v 0.273900 0.130200 0.182556
v 0.108356 0.140209 0.266419
v 0.030941 0.136578 0.258961
v -0.180884 0.123413 -0.266817
v 0.144272 0.132050 -0.261658
v -0.248378 0.073350 -0.174727
v -0.235008 0.058732 0.035021
v 0.167305 0.080857 0.268368
v -0.087823 0.065822 -0.257656
v -0.231545 0.094836 -0.270548
v 0.204789 0.076830 -0.241111
v 0.051710 0.048534 -0.240986
v -0.137815 0.052956 -0.230789
v 0.051341 0.027224 -0.201344
v 0.130525 0.026197 -0.159849
v 0.071801 0.012343 -0.166892
v -0.147301 0.025340 -0.173455
v 0.212051 0.039436 -0.129364
v 0.130619 0.011875 -0.129298
v -0.223439 0.043353 -0.128469
v 0.181735 0.020977 -0.089406
v 0.045832 0.006899 -0.111255
v 0.081711 0.003266 -0.061302
v -0.014300 0.001714 -0.060809
v 0.256414 0.077387 -0.026168
v 0.106195 0.004632 0.033677
v -0.226095 0.037429 0.051637
v 0.245338 0.058967 0.093629
v 0.164820 0.012417 0.096364
v 0.246470 0.085319 0.129500
v 0.053798 0.042003 0.234469
v -0.078898 0.049114 0.226906
v -0.287088 0.104831 -0.267142
v -0.288026 0.102078 0.273399
v -0.256736 0.092514 0.108222
v -0.271648 0.100804 -0.135488
v 0.284279 0.105458 -0.222079
v 0.273642 0.091323 -0.143618
v 0.256014 0.079725 -0.110845
v 0.268413 0.109074 0.035338
v 0.278303 0.101797 0.164465
v 0.198522 0.097422 0.276165
v 0.106557 0.089253 0.268796
v -0.003646 0.090255 0.258830
v -0.035338 0.111316 0.260792
v -0.075239 0.109239 0.269294
v -0.234341 0.095951 0.275907
v -0.281053 0.100195 -0.264248
v 0.273881 0.099653 -0.274904
v -0.281448 0.098924 0.274257
v -0.268405 0.089860 0.204023
v -0.264701 0.092404 0.164186
v -0.262556 0.079193 0.130315
v -0.254268 0.067799 0.099168
v -0.264281 0.074822 0.018531
v -0.272139 0.094112 -0.234979
v 0.270489 0.088821 -0.157938
v 0.247917 0.078218 -0.055574
v 0.268929 0.074490 0.019213
v 0.269457 0.091937 -0.219376
v 0.258197 0.084226 -0.166291
v 0.265922 0.080264 -0.143179
v 0.252391 0.068586 -0.095386
v 0.252525 0.063027 -0.041057
v 0.250514 0.063938 0.013290
v 0.262163 0.075487 0.074857
v 0.246077 0.085338 0.147647
v 0.272685 0.091427 0.184512
v 0.271289 0.093610 0.245414
v 0.278651 0.100165 0.273440
v 0.229612 0.095124 0.271562
v 0.170243 0.089172 0.278601
v 0.043527 0.077055 0.261788
v -0.049452 0.064444 0.263453
v -0.120089 0.082833 0.270387
v -0.162864 0.089389 0.268499
v -0.198623 0.089651 -0.265798
v -0.164751 0.091535 -0.259099
v -0.056902 0.072424 -0.254730
v -0.028809 0.077462 -0.256885
v 0.128134 0.084606 -0.248047
v -0.267808 0.096028 -0.260957
v -0.155936 0.076213 -0.247362
v -0.115470 0.071795 -0.254738
v -0.091752 0.057777 -0.244772
v 0.092806 0.070105 -0.249603
v 0.126481 0.068430 -0.225361
v 0.201482 0.085213 -0.259183
v -0.240307 0.074537 -0.207540
v -0.185793 0.068904 -0.235233
v -0.153430 0.045476 -0.213549
v -0.090539 0.046335 -0.222575
v -0.059621 0.032578 -0.216741
v -0.003326 0.033897 -0.219590
v 0.095696 0.040917 -0.215500
v 0.124161 0.051388 -0.203960
v -0.252690 0.078731 -0.194425
v -0.238227 0.063094 -0.172201
v -0.129146 0.018462 -0.167196
v -0.109660 0.017372 -0.166296
v -0.036583 0.020343 -0.183926
v 0.053283 0.023007 -0.181523
v 0.094219 0.018006 -0.166018
v 0.127665 0.040535 -0.174509
v 0.165900 0.047105 -0.200704
v 0.236855 0.068630 -0.180142
v -0.119187 0.011351 -0.145705
v -0.091391 0.012231 -0.158851
v -0.050373 0.014152 -0.162669
v -0.006982 0.012738 -0.159990
v 0.026878 0.014780 -0.164554
v 0.055138 0.008316 -0.140797
v 0.093732 0.014791 -0.140663
v 0.140634 0.018293 -0.144466
v 0.166977 0.029381 -0.158300
v -0.256032 0.071008 -0.082893
v -0.242346 0.060725 -0.090251
v -0.194337 0.025575 -0.123193
v -0.167976 0.012814 -0.113861
v -0.007926 0.003724 -0.101047
v 0.144756 0.010101 -0.110715
v 0.177250 0.019764 -0.117740
v -0.224121 0.038985 -0.074890
v -0.200807 0.024886 -0.070834
v -0.107121 0.003889 -0.043782
v 0.014645 0.006128 -0.056655
v 0.196868 0.023906 -0.071971
v 0.242803 0.053865 -0.075309
v -0.229087 0.038264 -0.045691
v -0.014759 -0.000208 -0.030865
v 0.026824 0.006564 -0.043373
v 0.044667 0.000104 -0.019713
v 0.174604 0.016726 -0.041722
v 0.202582 0.024194 -0.001849
v 0.238401 0.045835 -0.050443
v -0.249922 0.057807 -0.001713
v -0.200581 0.023551 0.004059
v -0.000691 -0.001528 0.006021
v 0.243275 0.051467 0.010062
v -0.151123 0.011118 0.035360
v 0.043943 0.002028 0.070012
v 0.073791 0.001534 0.022440
v 0.233241 0.041495 0.040518
v -0.240575 0.063281 0.052429
v -0.226442 0.038614 0.070923
v -0.160012 0.011938 0.070850
v -0.016005 0.000479 0.060394
v 0.107580 0.005478 0.079942
v -0.088286 0.004168 0.079654
v -0.059472 0.004763 0.100312
v 0.166715 0.015472 0.117345
v 0.204763 0.027583 0.104135
v 0.225476 0.060210 0.128814
v -0.247940 0.078288 0.163031
v -0.194291 0.032106 0.147343
v -0.083592 0.009067 0.154142
v -0.046015 0.010736 0.144861
v 0.065026 0.010878 0.141155
v 0.107641 0.013927 0.149625
v 0.142921 0.017929 0.149345
v 0.185045 0.026424 0.141910
v 0.203838 0.035782 0.145951
v 0.229931 0.058885 0.158189
v -0.254960 0.081556 0.188245
v -0.235353 0.067396 0.188045
v -0.205561 0.061614 0.202400
v -0.157002 0.034642 0.192676
v -0.130040 0.020207 0.180669
v -0.092211 0.022310 0.184215
v -0.038171 0.017472 0.163632
v -0.012102 0.029396 0.183652
v 0.023342 0.016450 0.173712
v 0.109597 0.028160 0.166755
v 0.133120 0.042551 0.176788
v 0.151292 0.054509 0.194734
v 0.241889 0.069553 0.181699
v -0.226991 0.077960 0.223171
v -0.130862 0.038768 0.210122
v -0.059419 0.040550 0.213103
v 0.097666 0.050613 0.224520
v 0.119111 0.055439 0.227553
v 0.223431 0.066249 0.199973
v 0.241155 0.076562 0.210123
v -0.280578 0.096938 0.236234
v -0.093042 0.067290 0.249662
v -0.007037 0.045640 0.238414
v 0.024120 0.059181 0.246636
v 0.072629 0.045460 0.237822
v 0.087538 0.064966 0.261453
v 0.130584 0.068287 0.256817
v 0.162315 0.072048 0.249181
v 0.196787 0.078638 0.239147
v 0.236030 0.091562 0.261336
v 0.075039 0.069389 0.265988
v -0.154898 0.069877 0.252575
v -0.199508 0.085266 0.267993
v -0.243743 0.093546 0.270513
v 0.143727 0.073732 -0.245236
v -0.185950 0.080627 -0.254219
v 0.168224 0.064650 -0.232424
v 0.155794 0.055259 -0.213721
v 0.182427 0.051375 -0.197064
v 0.084032 0.031187 -0.196513
v -0.023974 0.024427 -0.201460
v -0.222422 0.060658 -0.188735
v 0.245620 0.073536 -0.162162
v -0.217881 0.045568 -0.156511
v 0.260342 0.072929 -0.124841
v 0.159099 0.016616 -0.129808
v 0.021979 0.006670 -0.116233
v -0.055960 0.004177 -0.099077
v -0.100348 0.006538 -0.115445
v 0.210502 0.039698 -0.098158
v 0.151331 0.009225 -0.078819
v -0.149176 0.008387 -0.082307
v -0.171064 0.011780 -0.087168
v -0.209727 0.036297 -0.092605
v 0.220189 0.033237 -0.048985
v 0.117919 0.005792 -0.034446
v -0.181199 0.017591 -0.042832
v 0.185686 0.018739 0.009745
v 0.012217 0.000026 -0.017058
v -0.154429 0.011807 -0.031714
v -0.213369 0.035404 0.007110
v -0.244356 0.050799 -0.021042
v -0.075522 0.001868 0.029756
v -0.117503 0.005520 -0.013278
v -0.193629 0.022058 0.063061
v -0.228575 0.050600 0.014783
v 0.186721 0.018417 0.106933
v 0.002779 0.003944 0.103376
v -0.111364 0.006829 0.111720
v -0.168415 0.013863 0.105571
v -0.176400 0.019893 0.129519
v -0.221690 0.043198 0.137856
v -0.241118 0.054639 0.127761
v 0.246590 0.074859 0.163695
v 0.198492 0.041537 0.166848
v 0.156912 0.030259 0.166110
v 0.083300 0.021861 0.170240
v -0.002980 0.010775 0.149832
v -0.220326 0.054286 0.175443
v 0.265334 0.086282 0.209770
v 0.114968 0.046812 0.191047
v 0.074478 0.030269 0.199749
v -0.037098 0.035575 0.198858
v -0.110657 0.040784 0.206733
v -0.145122 0.039579 0.209762
v -0.186084 0.064268 0.234721
v 0.144074 0.065863 0.247509
v -0.031141 0.044816 0.233185
v -0.153427 0.056587 0.237966
v -0.209808 0.080115 0.256180
v -0.234839 0.087958 0.254390
v 0.280698 0.111321 0.280968
v -0.283009 0.111499 -0.281677
v 0.281412 0.110120 -0.281441
v -0.286339 0.111388 0.247673
v -0.261716 0.092777 -0.035441
v -0.260552 0.112755 -0.034276
v -0.279246 0.117633 -0.215745
v 0.281373 0.102553 -0.186172
v 0.263101 0.111134 -0.103841
v 0.253659 0.110240 -0.067068
v 0.258101 0.113524 -0.017956
v 0.264557 0.080577 -0.002340
v 0.270719 0.098257 0.111095
v 0.263919 0.104438 0.146794
v 0.265256 0.113739 0.146780
v 0.274785 0.100682 0.219122
v 0.285828 0.101217 0.252745
v 0.267852 0.110233 0.284924
v 0.113442 0.111171 0.267416
v 0.076186 0.092608 0.270132
v -0.111632 0.088028 0.271108
v -0.165267 0.110923 0.277679
v -0.230799 0.103160 -0.277560
v -0.229047 0.111099 -0.276641
v -0.181383 0.115710 -0.275652
v -0.111103 0.086937 -0.263992
v -0.072632 0.109459 -0.264422
v -0.048236 0.095847 -0.261689
v 0.000328 0.115481 -0.263034
v 0.040050 0.086810 -0.263391
v 0.037687 0.111168 -0.258094
v 0.079811 0.115868 -0.269923
v 0.108904 0.102736 -0.261534
v 0.147171 0.116097 -0.273624
v 0.180125 0.112019 -0.272661
v 0.224979 0.096207 -0.272899
v -0.264675 0.102755 0.284883
v 0.265391 0.106522 -0.285221
v 0.286960 0.103255 0.268165
v -0.286077 0.104755 0.232383
v -0.283782 0.102979 0.198999
v -0.274323 0.099367 0.147171
v -0.251704 0.087033 0.055659
v -0.267876 0.090611 0.021281
v -0.269025 0.090816 -0.007872
v -0.260637 0.092686 -0.055396
v -0.269085 0.090858 -0.092365
v -0.267396 0.091595 -0.117841
v -0.263687 0.103146 -0.184003
v 0.288206 0.104776 -0.233462
v 0.258525 0.095323 -0.079006
v 0.255325 0.088925 -0.059635
v 0.263161 0.086559 -0.019357
v 0.269551 0.089368 0.032252
v 0.264669 0.102879 0.127297
v 0.263433 0.102418 0.279804
v 0.133072 0.089299 0.276124
v 0.024199 0.088191 0.260719
v -0.153562 0.097559 0.277054
v -0.271607 0.105902 -0.287494
v -0.198685 0.104876 -0.279693
v -0.127564 0.091661 -0.270590
v -0.094020 0.087354 -0.261201
v -0.017583 0.094856 -0.267421
v 0.012751 0.093282 -0.263604
v 0.058214 0.088146 -0.267794
v 0.074292 0.084788 -0.263862
v 0.127597 0.102827 -0.263563
v 0.169399 0.097524 -0.275362
v 0.189397 0.100040 -0.276866
v 0.217764 0.104618 -0.280538
v -0.281796 0.101204 0.283546
v -0.281081 0.102866 -0.279889
v -0.278856 0.104150 0.181830
v -0.266596 0.087402 0.145517
v -0.250483 0.084005 0.074018
v -0.247789 0.071986 0.037724
v -0.266086 0.073604 0.000423
v -0.252621 0.061573 -0.025273
v -0.255226 0.070711 -0.061529
v -0.257584 0.092057 -0.151750
v -0.266981 0.091211 -0.208616
v 0.284162 0.099757 -0.264114
v 0.278925 0.097156 -0.227410
v 0.269320 0.094653 -0.193286
v 0.248429 0.076194 -0.087155
v 0.281635 0.097647 0.243654
v 0.128787 0.079606 0.271242
v 0.018322 0.075144 0.258601
v -0.075092 0.077196 0.268885
v -0.145384 0.087717 0.274105
v -0.178233 0.097988 0.278243
v -0.265258 0.100601 -0.282725
v -0.183420 0.104121 -0.273086
v -0.145262 0.089367 -0.267644
v -0.122192 0.081127 -0.267533
v -0.086332 0.076974 -0.261114
v 0.005626 0.071298 -0.252977
v 0.111027 0.078842 -0.244209
v 0.146214 0.097434 -0.271229
v 0.168040 0.089793 -0.268269
v -0.246640 0.091274 -0.255735
v -0.204081 0.082475 -0.252742
v -0.109084 0.055802 -0.230140
v -0.073377 0.051677 -0.244126
v -0.026684 0.049418 -0.234231
v 0.060180 0.063931 -0.256270
v 0.108289 0.061356 -0.219703
v 0.236682 0.091200 -0.259530
v 0.244966 0.089614 -0.245763
v -0.256802 0.086113 -0.226467
v -0.107181 0.041723 -0.211230
v 0.056022 0.033119 -0.216915
v 0.187782 0.063351 -0.223092
v 0.217725 0.067706 -0.196517
v 0.253763 0.080564 -0.194375
v 0.106396 0.023443 -0.165175
v -0.186143 0.023334 -0.131643
v 0.073607 0.009671 -0.138333
v 0.105892 0.014414 -0.133681
v 0.215779 0.047174 -0.151584
v -0.231442 0.053902 -0.139840
v 0.086873 0.009603 -0.109345
v 0.101892 0.005745 -0.098731
v 0.238395 0.060075 -0.109101
v -0.245927 0.051014 -0.046550
v -0.043585 -0.000075 -0.023218
v 0.167915 0.014135 0.033424
v 0.218791 0.032644 0.049783
v 0.262952 0.070756 0.044368
v 0.171607 0.012146 0.072998
v 0.226163 0.044026 0.076006
v -0.246039 0.056261 0.089180
v -0.223948 0.045048 0.102430
v -0.130216 0.011851 0.143790
v 0.096822 0.008201 0.127041
v 0.125214 0.010717 0.130895
v 0.213336 0.044022 0.127364
v 0.256541 0.075822 0.110012
v -0.238186 0.063847 0.146417
v -0.113468 0.010043 0.151805
v 0.222138 0.051403 0.158558
v -0.075552 0.021135 0.188799
v 0.050770 0.024608 0.195579
v 0.196000 0.054522 0.192737
v -0.251806 0.080978 0.205550
v -0.077714 0.038519 0.210273
v 0.010718 0.034602 0.216070
v 0.160092 0.062880 0.217024
v -0.181042 0.075239 0.257601
v -0.109097 0.081135 0.262814
v -0.072640 0.062055 0.256909
v -0.052584 0.053165 0.248691
v 0.109370 0.071135 0.259991
v -0.277643 0.104741 -0.213854
v 0.290141 0.105613 -0.270504
v 0.265463 0.093801 -0.111728
v 0.226882 0.103514 0.276006
v -0.206419 0.103585 0.273756
v -0.264996 0.108664 -0.286749
v -0.150814 0.100906 -0.274780
v -0.073033 0.094165 -0.265425
v 0.074103 0.095852 -0.271943
vt 0.461721 0.564428
vt 0.463057 0.538642
vt 0.471863 0.528444
vt 0.472268 0.559177
vt 0.603646 0.583282
vt 0.619234 0.595746
vt 0.634304 0.573729
vt 0.608534 0.565081
vt 0.541801 0.615273
vt 0.561896 0.631240
vt 0.557371 0.579487
vt 0.543932 0.588175
vt 0.633282 0.635213
vt 0.627063 0.612380
vt 0.633708 0.610408
vt 0.607716 0.549358
vt 0.581602 0.589287
vt 0.590703 0.579134
vt 0.596923 0.466463
vt 0.572260 0.599835
vt 0.574388 0.579020
vt 0.435717 0.599988
vt 0.439176 0.589653
vt 0.427397 0.582158
vt 0.418384 0.592791
vt 0.526693 0.606012
vt 0.529751 0.560945
vt 0.548252 0.570753
vt 0.547000 0.555650
vt 0.387538 0.629572
vt 0.409353 0.603450
vt 0.367425 0.622925
vt 0.378209 0.618352
vt 0.496618 0.612984
vt 0.487693 0.588178
vt 0.477915 0.615341
vt 0.481210 0.606135
vt 0.481745 0.638278
vt 0.455213 0.611476
vt 0.463328 0.569246
vt 0.477378 0.559979
vt 0.464477 0.552116
vt 0.440197 0.570399
vt 0.440970 0.550961
vt 0.388161 0.582321
vt 0.387374 0.568394
vt 0.369103 0.564339
vt 0.418495 0.594391
vt 0.426596 0.588012
vt 0.426404 0.608801
vt 0.425747 0.568316
vt 0.410137 0.580919
vt 0.408712 0.610363
vt 0.400732 0.591997
vt 0.405552 0.586121
vt 0.391751 0.638102
vt 0.389467 0.592103
vt 0.379851 0.376428
vt 0.383412 0.407125
vt 0.413766 0.582696
vt 0.374328 0.389793
vt 0.370662 0.467382
vt 0.362650 0.400349
vt 0.419071 0.582749
vt 0.389237 0.467869
vt 0.430929 0.578863
vt 0.390205 0.600189
vt 0.406811 0.584006
vt 0.626854 0.570603
vt 0.622254 0.565338
vt 0.604905 0.564023
vt 0.381781 0.485198
vt 0.370213 0.456930
vt 0.437453 0.596718
vt 0.414588 0.544793
vt 0.457245 0.615858
vt 0.453936 0.593550
vt 0.426403 0.561567
vt 0.467479 0.656630
vt 0.483351 0.612135
vt 0.500857 0.610663
vt 0.500680 0.575385
vt 0.485589 0.587978
vt 0.590145 0.599688
vt 0.586349 0.591538
vt 0.602718 0.579331
vt 0.587384 0.572845
vt 0.539354 0.607975
vt 0.550379 0.655817
vt 0.555285 0.623149
vt 0.533155 0.624134
vt 0.527648 0.581997
vt 0.518812 0.605193
vt 0.569656 0.587136
vt 0.563818 0.629063
vt 0.574784 0.610475
vt 0.581310 0.583362
vt 0.554667 0.601963
vt 0.389922 0.613809
vt 0.358018 0.557534
vt 0.360740 0.565466
vt 0.635610 0.566783
vt 0.636195 0.558574
vt 0.641593 0.574574
vt 0.634669 0.566472
vt 0.632081 0.555107
vt 0.642224 0.556822
vt 0.616438 0.581861
vt 0.619234 0.582899
vt 0.608913 0.627472
vt 0.621191 0.627358
vt 0.464160 0.531924
vt 0.388629 0.575635
vt 0.414135 0.580641
vt 0.415126 0.596844
vt 0.591229 0.580582
vt 0.587272 0.603235
vt 0.602134 0.596086
vt 0.428155 0.583283
vt 0.436181 0.562458
vt 0.444742 0.587242
vt 0.444786 0.616720
vt 0.435876 0.614720
vt 0.426268 0.613913
vt 0.480962 0.582597
vt 0.471970 0.574447
vt 0.481079 0.556300
vt 0.525715 0.582430
vt 0.510305 0.589022
vt 0.508785 0.546449
vt 0.525191 0.553950
vt 0.536346 0.543919
vt 0.536386 0.575696
vt 0.490122 0.604716
vt 0.492294 0.627556
vt 0.480852 0.613575
vt 0.499653 0.609078
vt 0.508881 0.615373
vt 0.508817 0.637469
vt 0.536427 0.607489
vt 0.536653 0.629937
vt 0.527194 0.619050
vt 0.554567 0.583086
vt 0.545831 0.595409
vt 0.550610 0.564991
vt 0.545659 0.611004
vt 0.556940 0.603027
vt 0.554680 0.619896
vt 0.630824 0.408401
vt 0.621362 0.373344
vt 0.611351 0.511864
vt 0.614808 0.530057
vt 0.563631 0.589174
vt 0.572791 0.581872
vt 0.575369 0.598834
vt 0.581652 0.580473
vt 0.589864 0.574182
vt 0.593437 0.593435
vt 0.482720 0.573017
vt 0.606672 0.449438
vt 0.581487 0.548951
vt 0.521964 0.633537
vt 0.534336 0.652723
vt 0.618219 0.395870
vt 0.472908 0.640817
vt 0.471439 0.609984
vt 0.457776 0.605553
vt 0.458530 0.632838
vt 0.569625 0.625125
vt 0.596505 0.607601
vt 0.622773 0.618217
vt 0.614479 0.627750
vt 0.600303 0.603200
vt 0.629778 0.615855
vt 0.612257 0.617024
vt 0.585595 0.624180
vt 0.591590 0.615175
vt 0.600634 0.612363
vt 0.586690 0.625691
vt 0.415712 0.630695
vt 0.429360 0.641979
vt 0.593270 0.533247
vt 0.591891 0.627004
vt 0.612301 0.616447
vt 0.588519 0.625052
vt 0.586431 0.616069
vt 0.572931 0.631213
vt 0.600618 0.421454
vt 0.583282 0.522222
vt 0.588114 0.455825
vt 0.591797 0.398965
vt 0.442484 0.643882
vt 0.593085 0.443906
vt 0.593270 0.429918
vt 0.490312 0.660521
vt 0.598381 0.520320
vt 0.587685 0.506020
vt 0.591125 0.482198
vt 0.496218 0.646855
vt 0.472417 0.657662
vt 0.586298 0.524991
vt 0.527586 0.659053
vt 0.589089 0.536958
vt 0.600478 0.607274
vt 0.548636 0.632532
vt 0.552104 0.666583
vt 0.566806 0.647146
vt 0.576167 0.636905
vt 0.579852 0.604360
vt 0.607363 0.604961
vt 0.602364 0.618062
vt 0.569097 0.462055
vt 0.583745 0.457773
vt 0.569930 0.490412
vt 0.569842 0.588092
vt 0.581614 0.366445
vt 0.562415 0.641705
vt 0.583390 0.535322
vt 0.583945 0.604503
vt 0.583945 0.436669
vt 0.571462 0.443893
vt 0.574271 0.425919
vt 0.446290 0.664078
vt 0.592608 0.462635
vt 0.583419 0.651277
vt 0.571764 0.541298
vt 0.559816 0.623299
vt 0.573983 0.556324
vt 0.592051 0.632245
vt 0.565232 0.583634
vt 0.583356 0.654492
vt 0.573784 0.620992
vt 0.554367 0.486965
vt 0.541588 0.425515
vt 0.563890 0.620239
vt 0.548021 0.608549
vt 0.550812 0.585579
vt 0.562172 0.559795
vt 0.574151 0.416158
vt 0.574292 0.666250
vt 0.538151 0.438200
vt 0.552750 0.472605
vt 0.527813 0.485772
vt 0.523813 0.462859
vt 0.537404 0.515276
vt 0.555609 0.524740
vt 0.557478 0.551472
vt 0.522634 0.553216
vt 0.555893 0.583297
vt 0.542431 0.572896
vt 0.561679 0.635593
vt 0.574006 0.655743
vt 0.561679 0.659241
vt 0.545651 0.590417
vt 0.546854 0.639014
vt 0.535776 0.650400
vt 0.488414 0.461992
vt 0.474751 0.419776
vt 0.450374 0.415633
vt 0.454256 0.641848
vt 0.535773 0.655383
vt 0.512167 0.645229
vt 0.490638 0.418406
vt 0.542973 0.628493
vt 0.552480 0.657025
vt 0.507126 0.561564
vt 0.524201 0.643382
vt 0.527570 0.610812
vt 0.536891 0.661571
vt 0.527753 0.429655
vt 0.526738 0.566836
vt 0.537126 0.415755
vt 0.507901 0.416102
vt 0.513762 0.429216
vt 0.496617 0.615261
vt 0.511262 0.655513
vt 0.490705 0.442087
vt 0.510322 0.494874
vt 0.503539 0.527660
vt 0.496574 0.478647
vt 0.497763 0.647184
vt 0.494518 0.592582
vt 0.502047 0.477343
vt 0.526323 0.406799
vt 0.514116 0.445900
vt 0.501139 0.458299
vt 0.416250 0.406053
vt 0.443416 0.405858
vt 0.416492 0.626799
vt 0.469819 0.519033
vt 0.458424 0.488124
vt 0.516578 0.579107
vt 0.523812 0.592373
vt 0.498464 0.623041
vt 0.518638 0.660037
vt 0.490618 0.671456
vt 0.481505 0.616575
vt 0.460435 0.616287
vt 0.442371 0.617684
vt 0.484843 0.637204
vt 0.492336 0.637695
vt 0.458800 0.465874
vt 0.474672 0.569579
vt 0.466827 0.543247
vt 0.465512 0.642785
vt 0.443705 0.602834
vt 0.386779 0.636834
vt 0.415928 0.605732
vt 0.471163 0.641339
vt 0.461916 0.643457
vt 0.410105 0.637090
vt 0.457734 0.597307
vt 0.462471 0.671247
vt 0.426639 0.607877
vt 0.444595 0.524350
vt 0.452957 0.665802
vt 0.443720 0.593283
vt 0.428174 0.559227
vt 0.450783 0.630166
vt 0.440025 0.636633
vt 0.425856 0.630728
vt 0.445935 0.571711
vt 0.436336 0.566216
vt 0.436448 0.555056
vt 0.447315 0.550973
vt 0.467609 0.447103
vt 0.449256 0.447757
vt 0.445057 0.429583
vt 0.386548 0.425909
vt 0.441365 0.550570
vt 0.425805 0.534536
vt 0.453548 0.584478
vt 0.392498 0.560667
vt 0.417971 0.567803
vt 0.418360 0.553363
vt 0.435702 0.607333
vt 0.374110 0.582520
vt 0.432571 0.592114
vt 0.429353 0.647114
vt 0.418162 0.627083
vt 0.425972 0.497776
vt 0.420177 0.471859
vt 0.425129 0.426876
vt 0.432427 0.442977
vt 0.423449 0.518630
vt 0.422951 0.540006
vt 0.520304 0.650532
vt 0.405420 0.511507
vt 0.452302 0.661127
vt 0.421670 0.466067
vt 0.456779 0.602632
vt 0.407504 0.537325
vt 0.459219 0.605724
vt 0.564406 0.652313
vt 0.403585 0.582963
vt 0.367829 0.583683
vt 0.409722 0.476247
vt 0.406009 0.647159
vt 0.428568 0.656989
vt 0.423701 0.443779
vt 0.419587 0.509907
vt 0.477820 0.634156
vt 0.396661 0.518830
vt 0.528272 0.647132
vt 0.518877 0.648577
vt 0.415012 0.506384
vt 0.413438 0.569449
vt 0.431755 0.652097
vt 0.437981 0.615075
vt 0.494672 0.621995
vt 0.389186 0.519847
vt 0.378851 0.606786
vt 0.390239 0.379667
vt 0.389119 0.600422
vt 0.459156 0.621188
vt 0.601391 0.631934
vt 0.409756 0.606046
vt 0.497981 0.618601
vt 0.398957 0.606786
vt 0.407258 0.387778
vt 0.390782 0.614599
vt 0.391253 0.556576
vt 0.380040 0.572235
vt 0.377517 0.557639
vt 0.389469 0.579867
vt 0.380883 0.570312
vt 0.387699 0.554468
vt 0.366390 0.557348
vt 0.403094 0.553382
vt 0.416021 0.618971
vt 0.411574 0.518175
vt 0.435338 0.637914
vt 0.407258 0.621996
vt 0.436313 0.623742
vt 0.499767 0.646182
vt 0.509484 0.660790
vt 0.510091 0.610152
vt 0.480544 0.637955
vt 0.518830 0.663161
vt 0.406179 0.500013
vt 0.407378 0.614984
vt 0.399400 0.600650
vt 0.609334 0.606196
vt 0.415749 0.600432
vt 0.398573 0.605477
vt 0.382347 0.600189
vt 0.463940 0.561825
vt 0.472893 0.581963
vt 0.475415 0.556608
vt 0.517934 0.559801
vt 0.518652 0.574040
vt 0.535819 0.552203
vt 0.490971 0.557918
vt 0.509837 0.571089
vt 0.501226 0.557266
vt 0.573192 0.638896
vt 0.543974 0.569541
vt 0.560015 0.559778
vt 0.633101 0.572196
vt 0.572224 0.574800
vt 0.583090 0.553344
vt 0.368881 0.613231
vt 0.636603 0.563469
vt 0.627226 0.561279
vt 0.496695 0.562724
vt 0.504273 0.521034
vt 0.511899 0.527192
vt 0.509270 0.565702
vt 0.635568 0.556660
vt 0.639933 0.569289
vt 0.631901 0.570408
vt 0.549764 0.430315
vt 0.633484 0.572478
vt 0.366525 0.536807
vt 0.361566 0.569991
vt 0.359674 0.560306
vt 0.365156 0.563385
vt 0.445455 0.541021
vt 0.482439 0.532120
vt 0.481652 0.542493
vt 0.493949 0.535178
vt 0.508769 0.537494
vt 0.499501 0.568079
vt 0.508239 0.593165
vt 0.506942 0.558075
vt 0.490947 0.557598
vt 0.394117 0.555711
vt 0.375386 0.558772
vt 0.406312 0.565680
vt 0.412843 0.576341
vt 0.623302 0.566846
vt 0.610171 0.551135
vt 0.524349 0.584090
vt 0.518354 0.556568
vt 0.568615 0.564437
vt 0.592669 0.561476
vt 0.532021 0.584519
vt 0.506491 0.584089
vt 0.587595 0.569163
vt 0.559508 0.560724
vt 0.581517 0.551574
vt 0.428096 0.540855
vt 0.436179 0.547519
vt 0.425372 0.563026
vt 0.546166 0.564682
vt 0.535630 0.550122
vt 0.481245 0.578257
vt 0.372950 0.572831
vt 0.426876 0.567673
vt 0.373497 0.571460
vt 0.390645 0.549500
vt 0.404886 0.546487
vt 0.409155 0.553741
vt 0.383373 0.363109
vt 0.414646 0.540543
vt 0.393449 0.575021
vt 0.536400 0.536427
vt 0.545399 0.527467
vt 0.481793 0.526624
vt 0.490183 0.559228
vt 0.391996 0.549984
vt 0.395901 0.578176
vt 0.554572 0.526863
vt 0.563353 0.532848
vt 0.563694 0.566876
vt 0.575991 0.543795
vt 0.577139 0.567559
vt 0.590758 0.564060
vt 0.590775 0.548982
vt 0.599611 0.550006
vt 0.599623 0.564949
vt 0.433773 0.560154
vt 0.410992 0.553610
vt 0.472298 0.603794
vt 0.400553 0.570246
vt 0.445179 0.593707
vt 0.453465 0.559924
vt 0.590432 0.541132
vt 0.577207 0.539431
vt 0.554993 0.528553
vt 0.444715 0.555334
vt 0.445038 0.530075
vt 0.434390 0.529582
vt 0.503134 0.533037
vt 0.487760 0.529477
vt 0.559637 0.580440
vt 0.399504 0.540979
vt 0.415543 0.530858
vt 0.427105 0.549532
vt 0.436310 0.547589
vt 0.531095 0.528638
vt 0.540626 0.537726
vt 0.552329 0.553859
vt 0.593535 0.544835
vt 0.556087 0.535299
vt 0.592356 0.547907
vt 0.568136 0.545008
vt 0.545681 0.532275
vt 0.518233 0.534572
vt 0.504141 0.532937
vt 0.489857 0.532493
vt 0.473077 0.527421
vt 0.460344 0.589180
vt 0.409761 0.548918
vt 0.399355 0.547086
vt 0.420413 0.622454
vt 0.445371 0.560640
vt 0.401638 0.568980
vt 0.364508 0.640612
vt 0.495083 0.578406
vt 0.599609 0.543710
vt 0.365467 0.558762
vt 0.491918 0.524378
vt 0.604377 0.570368
vt 0.608682 0.565558
vt 0.577517 0.492056
vt 0.546728 0.593594
vt 0.378405 0.638218
vt 0.374304 0.597788
vt 0.634884 0.573493
vt 0.630838 0.633877
vt 0.632184 0.553873
vt 0.639990 0.570387
vt 0.366229 0.547638
vt 0.373890 0.544764
vt 0.634075 0.541898
vt 0.548534 0.576690
vt 0.367286 0.552008
vt 0.431897 0.555990
vt 0.578256 0.402574
vt 0.613949 0.580180
vt 0.617306 0.535917
vt 0.628557 0.622989
vt 0.603937 0.532615
vt 0.598575 0.517759
vt 0.621542 0.373865
vt 0.468692 0.472634
vt 0.586867 0.408639
vt 0.617432 0.634290
vt 0.587622 0.509613
vt 0.576137 0.532370
vt 0.537715 0.485643
vt 0.524580 0.475551
vt 0.524886 0.458807
vt 0.537007 0.422974
vt 0.590501 0.503769
vt 0.389715 0.485855
vt 0.417117 0.501343
vt 0.541534 0.505198
vt 0.571245 0.487409
vt 0.528142 0.534503
vt 0.510855 0.498294
vt 0.530464 0.505724
vt 0.523555 0.483290
vt 0.498144 0.480976
vt 0.545842 0.488242
vt 0.500092 0.490423
vt 0.483097 0.490766
vt 0.490769 0.511752
vt 0.500396 0.510432
vt 0.509324 0.481409
vt 0.471169 0.497026
vt 0.481970 0.508019
vt 0.462636 0.473031
vt 0.453299 0.491846
vt 0.447690 0.453844
vt 0.418433 0.515347
vt 0.436190 0.517114
vt 0.435348 0.486602
vt 0.426628 0.497906
vt 0.446206 0.534803
vt 0.418355 0.533653
vt 0.427379 0.527473
vt 0.451529 0.503306
vt 0.455826 0.487701
vt 0.426837 0.542977
vt 0.409116 0.505115
vt 0.399656 0.380069
vt 0.396828 0.501034
vt 0.395086 0.444904
vt 0.370500 0.385021
vt 0.385392 0.485450
vt 0.398816 0.530988
vt 0.397947 0.539176
vt 0.374399 0.622448
vt 0.384071 0.550023
vt 0.374751 0.427005
vt 0.376142 0.417694
vt 0.408311 0.498286
vt 0.436255 0.517197
vt 0.377306 0.415018
vt 0.377946 0.541460
vt 0.363410 0.416919
vt 0.384989 0.536837
vt 0.366716 0.399566
vt 0.390324 0.530780
vt 0.386547 0.448263
vt 0.461613 0.504824
vt 0.368947 0.500729
vt 0.445291 0.507026
vt 0.489593 0.491992
vt 0.459460 0.475315
vt 0.477950 0.514259
vt 0.490600 0.511427
vt 0.461267 0.534299
vt 0.537225 0.496102
vt 0.536754 0.514496
vt 0.553591 0.518606
vt 0.545883 0.502138
vt 0.524273 0.499041
vt 0.502872 0.475346
vt 0.572411 0.527809
vt 0.563340 0.521899
vt 0.578937 0.507116
vt 0.577524 0.491737
vt 0.602886 0.548761
vt 0.359450 0.560306
vt 0.581331 0.529963
vt 0.608851 0.521970
vt 0.603492 0.527943
vt 0.365310 0.617476
vt 0.590126 0.512189
vt 0.491923 0.560087
vt 0.478562 0.472680
vt 0.610401 0.483107
vt 0.632606 0.452098
vt 0.445350 0.547428
vt 0.399651 0.534047
vt 0.399467 0.524948
vt 0.416565 0.500482
vt 0.424789 0.487504
vt 0.427897 0.510403
vt 0.602417 0.506713
vt 0.597536 0.502510
vt 0.413763 0.528838
vt 0.619282 0.399435
vt 0.473234 0.496184
vt 0.599889 0.474204
vt 0.499617 0.449047
vt 0.496670 0.461336
vt 0.565593 0.516864
vt 0.453049 0.505723
vt 0.470147 0.498508
vt 0.461407 0.522861
vt 0.435771 0.523984
vt 0.436480 0.503494
vt 0.614054 0.502393
vt 0.445143 0.516864
vt 0.446240 0.472861
vt 0.445897 0.488914
vt 0.441555 0.481217
vt 0.524004 0.539490
vt 0.561859 0.519127
vt 0.543735 0.515349
vt 0.543577 0.501109
vt 0.556457 0.506965
vt 0.496289 0.505495
vt 0.526995 0.508807
vt 0.514709 0.516280
vt 0.569558 0.483951
vt 0.564906 0.440803
vt 0.576003 0.475502
vt 0.514371 0.479653
vt 0.545758 0.490195
vt 0.545416 0.480447
vt 0.554686 0.487710
vt 0.536437 0.482638
vt 0.590344 0.519001
vt 0.575619 0.511646
vt 0.594554 0.503230
vt 0.614872 0.548130
vt 0.615203 0.553879
vt 0.622784 0.490195
vt 0.617806 0.549848
vt 0.635618 0.550805
vt 0.584080 0.522287
vt 0.581358 0.510145
vt 0.599093 0.530343
vt 0.609771 0.555355
vt 0.581647 0.532456
vt 0.575527 0.475749
vt 0.613695 0.539965
vt 0.604545 0.557272
vt 0.626642 0.541087
vt 0.482824 0.446574
vt 0.582808 0.490279
vt 0.525810 0.459622
vt 0.592052 0.517995
vt 0.559309 0.532318
vt 0.596885 0.454624
vt 0.491905 0.451233
vt 0.583505 0.471870
vt 0.485630 0.438485
vt 0.473234 0.468721
vt 0.598689 0.482426
vt 0.591665 0.491725
vt 0.587619 0.455072
vt 0.434920 0.465855
vt 0.580161 0.503204
vt 0.580539 0.522786
vt 0.539022 0.465226
vt 0.540637 0.494505
vt 0.453863 0.478009
vt 0.619218 0.493012
vt 0.586867 0.496451
vt 0.579901 0.528317
vt 0.578547 0.474853
vt 0.529252 0.459482
vt 0.576544 0.534657
vt 0.596057 0.475928
vt 0.546158 0.445295
vt 0.554776 0.470082
vt 0.602937 0.416437
vt 0.416427 0.454721
vt 0.434953 0.451153
vt 0.610502 0.493530
vt 0.601487 0.407612
vt 0.414968 0.477288
vt 0.608773 0.531907
vt 0.597086 0.536534
vt 0.566563 0.477566
vt 0.563720 0.509349
vt 0.567291 0.444441
vt 0.445514 0.445305
vt 0.511661 0.432551
vt 0.548708 0.447794
vt 0.557953 0.452719
vt 0.569867 0.459647
vt 0.590466 0.471762
vt 0.462841 0.454015
vt 0.569564 0.462602
vt 0.570817 0.453784
vt 0.516814 0.460398
vt 0.471728 0.458906
vt 0.570680 0.471820
vt 0.526206 0.458210
vt 0.601183 0.518310
vt 0.558803 0.450339
vt 0.563745 0.472270
vt 0.574090 0.559115
vt 0.558064 0.583447
vt 0.548145 0.503435
vt 0.554919 0.492945
vt 0.560333 0.482140
vt 0.582005 0.438639
vt 0.601441 0.493674
vt 0.591702 0.492553
vt 0.600416 0.619308
vt 0.581580 0.529532
vt 0.495313 0.518597
vt 0.572601 0.518597
vt 0.565047 0.434572
vt 0.554119 0.476405
vt 0.521973 0.484853
vt 0.528023 0.490780
vt 0.559040 0.431382
vt 0.564023 0.467327
vt 0.550004 0.467558
vt 0.548793 0.447664
vt 0.555791 0.427634
vt 0.555613 0.437311
vt 0.546198 0.412899
vt 0.540535 0.424559
vt 0.553837 0.455655
vt 0.562208 0.487436
vt 0.558309 0.447167
vt 0.520882 0.498717
vt 0.578955 0.476178
vt 0.554977 0.518487
vt 0.564983 0.420582
vt 0.482198 0.440940
vt 0.549918 0.527557
vt 0.551324 0.505533
vt 0.530388 0.506596
vt 0.512710 0.523622
vt 0.537185 0.466707
vt 0.522909 0.464434
vt 0.514064 0.514275
vt 0.557874 0.550513
vt 0.526871 0.515828
vt 0.566228 0.469486
vt 0.546147 0.463070
vt 0.535773 0.449638
vt 0.518641 0.601036
vt 0.505466 0.448528
vt 0.497414 0.462831
vt 0.543916 0.513488
vt 0.513988 0.437928
vt 0.520659 0.413583
vt 0.527699 0.449671
vt 0.518401 0.398534
vt 0.530708 0.460549
vt 0.509629 0.478203
vt 0.515220 0.507576
vt 0.474901 0.463936
vt 0.522653 0.553235
vt 0.542432 0.572895
vt 0.542296 0.560761
vt 0.521694 0.592228
vt 0.516380 0.578678
vt 0.490039 0.464799
vt 0.497113 0.500485
vt 0.506530 0.561403
vt 0.483554 0.576024
vt 0.473020 0.498320
vt 0.487441 0.536589
vt 0.513120 0.420378
vt 0.495536 0.407102
vt 0.493582 0.500234
vt 0.476117 0.456631
vt 0.480229 0.470357
vt 0.481746 0.416074
vt 0.471267 0.507868
vt 0.459079 0.542963
vt 0.508970 0.493770
vt 0.466799 0.580329
vt 0.466273 0.478327
vt 0.492984 0.480432
vt 0.490443 0.511265
vt 0.480192 0.506105
vt 0.462705 0.466766
vt 0.483599 0.447282
vt 0.451410 0.472987
vt 0.444749 0.512742
vt 0.435944 0.523142
vt 0.436403 0.493690
vt 0.484418 0.448671
vt 0.466665 0.413137
vt 0.409011 0.520118
vt 0.463558 0.511063
vt 0.436823 0.473099
vt 0.422247 0.496155
vt 0.420694 0.481732
vt 0.449552 0.530542
vt 0.428155 0.523615
vt 0.423380 0.540579
vt 0.429939 0.467008
vt 0.448219 0.498614
vt 0.452883 0.441082
vt 0.427406 0.566595
vt 0.378632 0.542970
vt 0.372441 0.535279
vt 0.446959 0.417056
vt 0.465859 0.423376
vt 0.432622 0.495644
vt 0.439656 0.460586
vt 0.418459 0.484982
vt 0.466524 0.471331
vt 0.498976 0.458860
vt 0.442026 0.416851
vt 0.452702 0.417396
vt 0.425235 0.422169
vt 0.425260 0.425125
vt 0.466850 0.592451
vt 0.458601 0.443630
vt 0.436170 0.436707
vt 0.434504 0.437666
vt 0.425576 0.443941
vt 0.444571 0.556060
vt 0.444054 0.441483
vt 0.427685 0.462892
vt 0.426736 0.524775
vt 0.547252 0.444905
vt 0.538474 0.465826
vt 0.555425 0.468734
vt 0.407712 0.555351
vt 0.425155 0.440327
vt 0.421821 0.456426
vt 0.425651 0.485036
vt 0.432733 0.469846
vt 0.439772 0.439535
vt 0.437919 0.455360
vt 0.445827 0.452426
vt 0.484714 0.483808
vt 0.537338 0.444375
vt 0.502945 0.495849
vt 0.564037 0.466277
vt 0.573201 0.467647
vt 0.490725 0.462718
vt 0.434377 0.526590
vt 0.428301 0.471040
vt 0.521839 0.469320
vt 0.478804 0.499134
vt 0.588064 0.490479
vt 0.431129 0.550247
vt 0.447579 0.577490
vt 0.418006 0.545637
vt 0.407792 0.533578
vt 0.418239 0.511573
vt 0.388723 0.492451
vt 0.401565 0.487826
vt 0.412723 0.470563
vt 0.401211 0.470563
vt 0.511253 0.485752
vt 0.406945 0.502969
vt 0.396161 0.437354
vt 0.427326 0.456602
vt 0.386940 0.440959
vt 0.388665 0.469086
vt 0.400138 0.463145
vt 0.463017 0.472885
vt 0.490586 0.453134
vt 0.449311 0.477754
vt 0.538757 0.479656
vt 0.424405 0.555952
vt 0.383041 0.574119
vt 0.364315 0.545675
vt 0.618420 0.509137
vt 0.389925 0.570624
vt 0.437057 0.479623
vt 0.403869 0.427448
vt 0.526175 0.484258
vt 0.404393 0.446227
vt 0.401261 0.517826
vt 0.472996 0.470817
vt 0.408219 0.546438
vt 0.478804 0.525613
vt 0.630226 0.547323
vt 0.377306 0.365033
vt 0.396804 0.507437
vt 0.454208 0.499483
vt 0.454373 0.481564
vt 0.445256 0.487103
vt 0.415880 0.483084
vt 0.436244 0.503651
vt 0.383584 0.509381
vt 0.493481 0.558189
vt 0.517320 0.514902
vt 0.397947 0.519836
vt 0.391407 0.544612
vt 0.389432 0.540542
vt 0.633415 0.550763
vt 0.463298 0.523471
vt 0.634451 0.357620
vt 0.573352 0.532404
vt 0.367854 0.545375
vt 0.409476 0.532391
vt 0.635513 0.551375
vt 0.619630 0.561960
vt 0.626225 0.543092
vt 0.572791 0.529950
vt 0.614936 0.566431
vt 0.629704 0.381416
vt 0.359461 0.359934
vt 0.385724 0.575321
vt 0.612873 0.576019
vt 0.599024 0.584624
vt 0.433591 0.611075
vt 0.583337 0.422273
vt 0.374968 0.575850
vt 0.636998 0.625393
vt 0.506473 0.482971
vt 0.611053 0.610468
vt 0.400220 0.592114
vt 0.585385 0.560573
vt 0.599540 0.567000
vt 0.542506 0.526798
vt 0.602052 0.623837
vt 0.609885 0.595980
vt 0.601146 0.499618
vt 0.371950 0.564682
vt 0.542354 0.650131
vt 0.481239 0.657049
vt 0.443829 0.668418
vt 0.453340 0.410504
vt 0.471947 0.600516
vt 0.384886 0.628586
vt 0.452776 0.638009
vt 0.448216 0.647811
vt 0.592270 0.640575
vt 0.431840 0.636704
vt 0.389922 0.609663
vt 0.385026 0.580519
vt 0.555734 0.669389
vt 0.416155 0.538150
vt 0.392181 0.630381
vt 0.447582 0.638547
vt 0.368346 0.573712
vt 0.634722 0.356447
vt 0.577517 0.578679
vt 0.368371 0.544915
vt 0.426535 0.560718
vt 0.521740 0.593356
vt 0.610568 0.622057
vt 0.625765 0.638306
vt 0.592748 0.381427
vt 0.386782 0.547886
vt 0.443813 0.499483
vt 0.405189 0.519091
vt 0.486907 0.511547
vt 0.561338 0.480022
vt 0.510056 0.468742
vt 0.473906 0.478399
vt 0.609349 0.609785
vt 0.608913 0.627471
vt 0.608827 0.510559
vt 0.613852 0.536869
vt 0.627063 0.390938
vt 0.428241 0.477155
vt 0.429992 0.442234
vt 0.577686 0.543111
vt 0.583331 0.583356
vt 0.398965 0.487357
vt 0.407419 0.467606
vt 0.564733 0.592716
vt 0.546191 0.444333
vt 0.545642 0.433317
vt 0.537097 0.592454
vt 0.509251 0.449505
vt 0.481193 0.601227
vt 0.489933 0.591279
vt 0.498692 0.497942
vt 0.379851 0.496514
vt 0.453310 0.434540
vt 0.546456 0.437813
vt 0.408816 0.461714
vt 0.427729 0.590780
vt 0.525541 0.458501
vt 0.493999 0.471246
vt 0.526976 0.439200
vt 0.406945 0.531687
vt 0.434581 0.592725
vt 0.591851 0.474322
vt 0.429127 0.455606
vt 0.416195 0.464510
vt 0.389688 0.608912
vt 0.530751 0.494217
vt 0.404393 0.472925
vt 0.426432 0.503018
vt 0.379851 0.400982
vt 0.518559 0.474203
vt 0.364110 0.373507
vt 0.366481 0.510217
vt 0.500258 0.468631
vt 0.371063 0.571668
usemtl velvet_cushion
s 1
f 671/1 802/2 705/3 202/4
f 3/5 2/6 119/7 646/8
f 259/9 257/10 145/11 142/12
f 1/13 28/14 188/15
f 646/8 119/7 794/16
f 41/17 327/18 346/19
f 4/20 383/21 145/11
f 280/22 132/23 298/24 216/25
f 259/9 142/12 5/26
f 141/27 143/28 144/29
f 374/30 124/31 17/32 295/33
f 6/34 382/35 7/36
f 331/37 361/38 78/39
f 325/40 135/41 136/42
f 133/43 136/42 134/44
f 127/45 128/46 125/47 124/31
f 91/48 305/49 367/50
f 133/43 134/44 131/51
f 386/52 373/53 97/54
f 8/55 127/56 374/57
f 374/30 127/45 124/31
f 107/58 108/59 224/60
f 207/61 107/58 167/62 296/63
f 170/64 224/60 223/65 172/66
f 221/67 379/68 108/59
f 316/69 187/70 186/71
f 107/58 9/72 167/73
f 10/74 380/75 111/76 173/77
f 378/78 377/79 111/76
f 113/80 225/81 177/82 388/83
f 227/84 16/85 185/86 184/87
f 13/88 101/89 294/90
f 12/91 181/92 311/93
f 14/94 115/95 222/96
f 227/84 184/87 15/97
f 15/97 222/96 227/84
f 115/95 14/94 226/98
f 295/33 375/99 374/30
f 316/69 17/32 124/31
f 642/100 324/101 148/102 149/103
f 297/104 189/105 799/106 641/107
f 295/33 17/108 16/85
f 2/109 3/5 340/110 336/111
f 229/112 205/113 204/114
f 204/114 18/115 229/112
f 3/5 211/116 252/117 340/118
f 18/115 204/114 390/119
f 19/120 230/121 235/122 31/123
f 390/119 30/124 18/115
f 390/119 19/120 31/123 30/124
f 321/125 201/126 202/4 670/127
f 197/128 320/129 199/130 198/131
f 666/132 319/133 197/128 198/131
f 22/134 34/135 339/136
f 231/137 23/138 35/139 34/135
f 232/140 237/141 24/142
f 320/129 23/138 231/137
f 23/138 320/129 197/128 24/142
f 318/143 334/144 196/145
f 25/146 233/147 238/148
f 147/149 234/150 38/151 150/152
f 194/153 317/154 338/155
f 232/140 334/144 25/146
f 26/156 389/157 337/158
f 234/150 29/159 346/19
f 234/150 346/19 38/160
f 244/161 35/139 236/162 342/163
f 29/164 229/112 18/115
f 33/165 21/166 339/136
f 20/167 32/168 235/122
f 21/166 33/165 32/168
f 37/169 338/155 337/158 239/170
f 236/162 237/141 342/163
f 233/147 338/155 37/169
f 237/141 25/171 36/172
f 239/173 337/158 28/174 341/175
f 238/148 233/147 37/169
f 37/169 239/170 208/176
f 208/177 239/178 251/179
f 241/180 242/181 345/182 212/183
f 336/111 341/184 28/174
f 341/184 336/111 340/118
f 251/185 47/186 347/187
f 240/188 247/189 42/190
f 240/188 212/191 247/189
f 29/159 42/190 346/19
f 242/181 243/192 344/193 345/194
f 39/195 244/196 352/197 248/198
f 33/165 343/199 39/200
f 351/201 244/202 342/163 249/203
f 47/186 246/204 340/118 252/117
f 342/163 36/205 40/206
f 46/207 245/208 250/209
f 36/205 37/169 46/207
f 239/210 341/175 246/211
f 239/178 246/204 251/185
f 340/118 246/211 341/184
f 49/212 45/213 248/198 255/214
f 41/17 42/190 328/215
f 327/18 41/17 152/216
f 212/183 48/217 247/189
f 43/218 212/183 345/182
f 44/219 345/194 344/193
f 44/220 254/221 353/222
f 45/213 344/223 39/224
f 345/194 44/219 43/225
f 344/223 45/213 44/220
f 256/226 249/227 40/206 350/228
f 249/227 256/226 351/201
f 250/209 245/208 208/229 251/179
f 46/207 250/209 349/230
f 349/230 250/231 251/179 348/232
f 347/187 47/186 252/117 4/20
f 54/233 254/221 49/212 55/234
f 253/235 48/217 51/236
f 253/235 42/190 247/189
f 328/215 51/236 154/237
f 54/238 43/239 353/222
f 247/189 48/217 253/235
f 54/233 353/240 254/221
f 43/239 54/233 48/217
f 258/241 356/242 62/243 61/244
f 261/245 50/246 56/247 63/248
f 45/213 49/212 254/221
f 49/212 255/214 356/242
f 352/197 351/201 50/246
f 350/228 46/207 349/230 355/249
f 256/226 350/228 56/247
f 56/247 57/250 63/248
f 354/251 348/232 347/187 257/10
f 349/230 348/252 354/253
f 58/254 59/255 64/256
f 271/257 75/258 80/259 79/260
f 354/251 257/10 59/255
f 4/20 257/10 347/187
f 64/261 5/26 267/262
f 271/257 71/263 75/258
f 52/264 51/236 48/217
f 48/217 53/265 52/264
f 258/241 49/212 356/242
f 356/242 50/246 261/245
f 63/248 57/250 269/266
f 350/228 355/249 57/250
f 355/249 354/251 58/254
f 56/247 350/228 57/250
f 259/9 59/255 257/10
f 51/236 52/264 60/267 329/268
f 60/267 52/264 357/269
f 260/270 358/271 54/272 55/234
f 66/273 358/271 260/270 263/274
f 69/275 329/268 60/267 65/276
f 263/274 72/277 71/263
f 258/241 61/244 260/270
f 261/245 265/278 62/243
f 265/278 67/279 268/280
f 65/276 70/281 69/275
f 64/261 259/9 5/26
f 329/268 69/275 330/282
f 65/276 262/283 70/281
f 65/276 358/284 262/283
f 263/274 264/285 360/286 72/277
f 263/274 71/263 66/273
f 281/287 276/288 80/259 94/289
f 360/286 265/278 268/280
f 268/280 82/290 364/291
f 359/292 266/293 68/294
f 266/293 64/295 68/294
f 69/275 361/38 331/37
f 262/283 66/273 71/263 271/296
f 70/281 270/297 361/38
f 362/298 132/23 279/299
f 262/283 271/257 70/281
f 73/300 68/294 267/262 74/301
f 72/277 268/280 363/302
f 268/280 364/291 363/302
f 269/266 76/303 83/304
f 76/303 359/292 68/294
f 68/294 272/305 76/303
f 158/306 78/39 273/307 85/308
f 74/301 7/36 77/309
f 78/39 361/38 214/310
f 281/287 94/289 371/311
f 361/38 270/297 214/310
f 78/39 332/312 331/37
f 270/297 271/257 79/313
f 280/22 216/25 217/314
f 364/291 82/290 87/315
f 84/316 90/317 278/318
f 84/316 274/319 90/320
f 7/36 362/298 77/309
f 279/299 217/314 218/321
f 326/322 160/323 161/324 159/325
f 75/258 213/326 81/327 365/328
f 78/39 214/310 273/307
f 224/60 108/59 109/329 223/65
f 87/315 82/290 83/304
f 89/330 278/318 88/331
f 76/303 84/332 89/330
f 274/319 77/309 362/298
f 362/298 279/299 274/319
f 654/333 162/334 163/335
f 85/336 160/337 158/338
f 367/50 85/336 275/339 92/340
f 277/341 283/342 81/327 364/291
f 275/339 276/288 281/287
f 80/259 365/328 366/343
f 365/328 81/327 86/344
f 286/345 95/346 100/347 219/348
f 87/315 286/345 277/341
f 369/349 282/350 283/351 377/79
f 87/315 89/330 88/331
f 95/346 101/89 100/352
f 287/353 102/354 101/89
f 91/48 92/340 373/53
f 305/355 91/48 162/356
f 93/357 281/358 371/311
f 94/289 366/343 370/359
f 92/340 275/339 93/357
f 370/359 282/360 369/349
f 377/79 283/342 284/361 291/362
f 292/363 100/347 114/364 293/365
f 285/366 277/341 286/345
f 283/342 277/341 284/361
f 101/89 102/354 115/95 294/90
f 286/345 88/331 95/346
f 287/367 288/368 104/369 103/370
f 287/353 278/318 90/320
f 106/371 97/54 98/372 221/373
f 104/369 116/374 103/375
f 218/321 368/376 288/368
f 216/25 8/55 96/377
f 218/321 217/314 96/377 368/378
f 98/379 373/53 372/380 289/381
f 165/382 166/383 306/384
f 97/54 206/385 386/52
f 307/386 169/387 657/388
f 98/379 289/381 221/67
f 289/381 93/389 371/311 379/390
f 379/390 371/311 370/359 290/391
f 290/392 370/359 369/349 378/78
f 372/393 93/389 289/381
f 379/390 290/391 109/329
f 109/329 110/394 380/75
f 225/81 220/395 99/396 11/397
f 377/79 291/362 112/398
f 311/93 293/365 114/364 12/91
f 99/396 292/399 293/365
f 291/362 284/400 219/348 99/396
f 368/401 96/377 105/402 104/403
f 116/404 16/85 227/84
f 104/405 375/99 116/404
f 105/402 96/377 8/55
f 105/402 374/30 375/99
f 11/397 99/396 293/365 311/93
f 106/371 221/406 107/58
f 220/395 225/81 113/80
f 310/407 175/408 176/409
f 220/395 113/80 112/398
f 430/410 312/411 181/92 431/412
f 177/82 178/413 176/409
f 177/82 179/414 180/415
f 294/90 226/98 13/88
f 114/364 101/89 13/88 12/91
f 376/416 103/375 116/404 222/96
f 313/417 183/418 431/412
f 116/404 227/84 222/96
f 188/419 189/105 297/104 1/13
f 315/420 184/87 661/421
f 124/422 117/423 316/69
f 186/71 187/70 118/424
f 157/425 651/426 692/427 650/428
f 187/70 117/423 118/424
f 316/69 117/423 187/70
f 120/429 119/7 297/104 641/107
f 1/13 297/430 119/7
f 1/13 119/431 2/6
f 335/432 147/433 148/102 324/101
f 122/434 296/435 640/436 123/437
f 159/325 652/438 693/439 425/440
f 306/384 166/383 122/434 123/437
f 704/441 703/442 199/130 668/443
f 382/35 138/444 139/445 137/446
f 117/423 124/31 125/47
f 128/46 130/447 643/448
f 127/45 8/55 129/449
f 381/450 298/24 131/51
f 132/23 362/298 325/40
f 6/34 138/444 382/35
f 362/298 7/36 135/41
f 148/102 300/451 422/452 149/103
f 140/453 141/27 645/454
f 145/11 146/455 143/28
f 3/5 646/8 299/456
f 303/457 329/268 330/282 385/458
f 302/459 155/460 153/461
f 154/237 329/268 303/457
f 739/462 707/463 19/120 673/464
f 156/465 303/457 649/466
f 330/282 331/37 304/467
f 304/467 331/37 332/312
f 157/425 304/467 425/440
f 305/468 654/469 160/470
f 710/471 709/472 674/473
f 166/383 206/474 207/61
f 674/473 709/472 708/475 673/464
f 206/385 164/476 386/52
f 206/385 166/383 164/476
f 801/477 702/478 196/145 666/132
f 670/127 669/479 704/441 200/480
f 167/73 9/481 168/482
f 665/483 701/484 195/485 196/145
f 800/486 193/487 195/485
f 664/488 733/489 700/490 192/491
f 170/64 309/492 171/493
f 173/77 333/494 175/408
f 308/495 170/64 171/493
f 175/408 333/494 113/80 388/83
f 387/496 173/77 174/497 309/492
f 731/498 698/499 661/421
f 173/77 175/408 310/407
f 698/499 660/500 183/418 661/421
f 658/501 174/497 310/407
f 180/415 179/414 312/411 430/410
f 177/82 180/415 178/413
f 388/83 177/82 176/409
f 179/414 311/93 312/411
f 177/82 11/397 179/414
f 658/501 428/502 696/503 309/492
f 180/415 429/504 697/505 178/413
f 183/418 314/506 315/420 661/421
f 181/92 313/417 431/412
f 427/507 169/387 171/493
f 313/417 314/506 183/418
f 14/94 315/420 314/506
f 457/508 171/493 309/492
f 654/333 653/509 694/510 161/324
f 692/427 691/511 649/466 650/428
f 316/69 186/71 185/86
f 185/86 186/71 184/87
f 690/512 648/513 649/466
f 647/514 153/461 155/460
f 389/157 26/156 317/154 193/487
f 194/153 334/144 318/143
f 196/145 334/144 319/133 666/132
f 796/515 155/460 648/513
f 334/144 232/140 319/133
f 318/143 196/145 195/485
f 688/516 421/517 299/456
f 794/16 688/516 299/456 646/8
f 421/517 686/518 144/29
f 645/454 644/519 684/520 139/445
f 683/521 682/522 136/42 135/41
f 231/137 668/443 320/129
f 201/126 21/166 203/523
f 339/136 21/166 201/126 321/125
f 321/125 670/127 200/480
f 203/523 20/167 230/121
f 139/445 684/520 683/521 137/446
f 129/449 713/524 680/525 130/447
f 35/139 244/161 343/199
f 30/124 31/123 243/192 209/526
f 230/121 322/527 203/523
f 33/165 34/135 343/199
f 673/464 323/528 674/473
f 435/529 582/530 432/531
f 645/454 139/445 138/444 140/453
f 674/473 323/528 710/471
f 323/528 324/101 121/532
f 140/453 142/12 141/27
f 18/115 30/124 209/526 210/533
f 300/451 150/152 384/534 301/535
f 152/536 154/237 155/460
f 299/456 146/455 383/21 211/116
f 313/417 182/537 314/506
f 192/491 389/157 664/488
f 673/464 204/114 323/528
f 19/120 390/119 673/464
f 671/1 203/523 322/527
f 326/322 304/467 332/312 158/338
f 175/408 388/83 176/409
f 435/529 569/538 639/539 582/530
f 146/455 145/11 383/21
f 732/540 467/541 433/542 712/543
f 123/437 678/544 656/545 306/384
f 435/529 432/546 711/547
f 677/548 642/549 434/550
f 750/551 441/552 467/541 741/553
f 721/554 482/555 688/516
f 749/556 396/557 748/558
f 721/554 441/559 750/551
f 688/516 482/555 391/560 720/561
f 513/562 520/563 603/564 512/565
f 491/566 760/567 754/568
f 501/569 720/561 761/570
f 686/518 685/571 141/27 144/29
f 141/27 685/571 644/519 645/454
f 718/572 719/573 765/574
f 520/563 524/575 603/564
f 765/574 719/573 501/569 502/576
f 521/577 392/578 440/579 717/580
f 717/580 440/579 683/521 684/520
f 718/572 610/581 521/577
f 529/582 682/522 716/583
f 644/519 717/580 684/520
f 683/521 135/41 137/446
f 771/584 413/585 537/586
f 539/587 438/588 621/589 779/590
f 529/582 716/583 392/578
f 420/591 134/44 136/42
f 539/587 437/592 714/593
f 438/588 439/594 772/595 621/589
f 681/596 713/524 129/449 131/51
f 561/597 568/598 567/599
f 438/588 681/596 420/591
f 567/599 568/600 578/601 577/602
f 569/538 436/603 785/604 639/605
f 680/525 679/606 130/447
f 436/603 680/525 713/524
f 635/607 576/608 393/609 727/610
f 454/611 726/612 455/613
f 456/614 578/601 455/613
f 456/614 393/615 578/616
f 727/610 393/609 457/508 696/503
f 393/609 456/614 457/508
f 393/609 576/608 577/617
f 727/610 579/618 574/619 793/620
f 572/621 573/622 458/623 728/624
f 659/625 428/502 658/501 310/407
f 176/409 697/505 659/625 310/407
f 728/624 458/623 697/505 429/504
f 579/618 458/623 573/622
f 791/626 729/627 790/628 570/629
f 429/504 180/415 430/410
f 459/630 571/631 572/621
f 698/499 730/632 460/633 660/500
f 460/633 580/634 637/635
f 186/71 798/636 731/498 661/421
f 678/544 640/637 455/613
f 731/498 461/638 698/499
f 638/639 581/640 582/641 639/539
f 789/642 581/640 638/643
f 432/531 581/640 798/636
f 748/644 434/550 445/645 749/556
f 445/645 434/550 722/646
f 707/463 672/647 322/527 19/120
f 675/648 708/475 709/472
f 748/644 473/649 675/648
f 585/650 586/651 583/652
f 754/653 396/557 749/556 755/654
f 322/527 672/647 802/2 671/1
f 740/655 583/652 739/462
f 705/3 669/479 670/127 202/4
f 585/650 396/656 753/657
f 399/658 589/659 479/660
f 738/661 471/662 746/663 706/664
f 466/665 707/463 739/462
f 583/652 472/666 466/665
f 583/652 740/655 585/650
f 747/667 738/668 466/665 472/666
f 480/669 747/670 472/666 481/671
f 703/442 667/672 198/131 199/130
f 198/131 667/672 801/477 666/132
f 735/673 736/674 394/675 469/676
f 737/677 464/678 465/679
f 398/680 484/681 476/682
f 465/679 703/442 704/441
f 479/660 745/683 737/677
f 470/684 477/685 743/686
f 745/683 744/687 464/678
f 464/678 737/677 745/683
f 800/486 733/489 664/488 193/487
f 584/688 468/689 398/680 475/690
f 192/491 700/490 662/691 663/692
f 469/676 394/675 470/693 743/686
f 422/452 689/694 795/695 149/103
f 446/696 591/697 755/654
f 735/673 469/676 468/689
f 462/698 700/490 733/489
f 742/699 462/698 584/688
f 463/700 468/689 584/688
f 398/680 476/701 475/690
f 723/702 689/694 422/452
f 741/553 474/703 750/551
f 445/645 722/704 723/702
f 473/649 396/557 585/650 740/655
f 487/705 496/706 495/707 486/708
f 720/561 501/569 687/709
f 481/671 588/710 480/669
f 754/653 753/657 396/557
f 487/711 401/712 496/713
f 753/714 586/651 585/650
f 587/715 753/714 754/716
f 756/717 588/710 481/671 489/718
f 586/651 481/671 472/666
f 486/708 495/719 494/720
f 486/708 589/721 399/658 487/705
f 747/722 480/723 471/724
f 482/555 474/703 483/725 391/560
f 476/701 402/726 592/727
f 745/683 478/728 744/687
f 478/728 486/708 493/729
f 477/685 470/684 744/687
f 477/730 485/731 751/732
f 398/680 469/676 743/686
f 475/690 742/699 584/688
f 474/703 741/553 742/699
f 490/733 500/734 400/735 489/718
f 753/736 587/737 490/738 586/651
f 445/739 723/702 724/740
f 755/654 445/739 446/696
f 760/741 491/566 593/742
f 759/743 756/744 400/735 499/745
f 756/746 488/747 588/710
f 401/748 487/749 399/658 588/750
f 758/751 401/748 488/747 498/752
f 493/729 485/731 477/730 478/728
f 588/753 399/658 752/754
f 401/712 497/755 496/713
f 486/708 478/756 589/757
f 592/727 503/758 405/759
f 402/726 484/681 492/760 504/761
f 448/762 513/562 764/763
f 484/681 398/680 751/764
f 756/746 759/743 498/752 488/765
f 590/766 475/767 476/701
f 483/725 474/768 590/766
f 446/696 442/769 447/770
f 446/696 724/740 442/769
f 591/697 593/742 491/566
f 647/514 302/459 153/461
f 591/697 446/696 447/771
f 499/745 404/772 759/743
f 407/773 516/774 511/775
f 507/776 403/777 598/778
f 587/715 500/734 490/733
f 763/779 759/743 404/772 506/780
f 507/781 406/782 599/783 506/780
f 758/751 498/752 762/784
f 595/785 497/755 407/773
f 492/760 484/681 485/786
f 449/787 520/563 513/562
f 592/727 590/766 476/701
f 761/570 483/725 592/788
f 424/789 690/512 691/511
f 405/759 502/576 761/570
f 760/741 507/776 594/790 500/791
f 403/777 507/776 760/741
f 718/572 521/577 717/580
f 764/763 598/778 403/777
f 596/792 505/793 409/794 766/795
f 763/779 762/784 498/752 759/743
f 594/790 404/772 499/745
f 762/784 407/773 497/755 758/751
f 505/793 407/773 511/775 409/794
f 502/576 508/796 514/797 765/574
f 595/785 505/793 495/707
f 520/563 449/787 410/798 524/575
f 596/792 597/799 493/729
f 410/798 443/800 691/511 692/427
f 503/758 592/727 757/801
f 602/802 509/803 508/796
f 509/804 522/805 609/806 514/797
f 405/759 761/570 592/788
f 448/762 424/789 725/807
f 513/562 448/762 449/787
f 440/579 392/578 716/583
f 599/783 604/808 763/779
f 513/562 598/778 764/763
f 512/565 599/783 406/782
f 518/809 512/810 519/811
f 599/783 763/779 506/780
f 762/784 516/774 407/773
f 408/812 517/813 516/774
f 409/794 515/814 766/795
f 392/578 609/806 412/815 529/582
f 510/816 597/799 596/792
f 765/574 514/797 610/581
f 510/816 600/817 597/799
f 600/817 492/760 597/799
f 509/803 602/802 601/818
f 605/819 601/818 608/820
f 508/796 502/576 602/802
f 449/787 725/807 443/800
f 603/564 519/811 512/810
f 517/813 527/821 523/822
f 518/809 599/783 512/565
f 604/808 408/812 763/779
f 612/823 525/824 608/820
f 525/824 613/825 605/819
f 515/814 523/822 766/795
f 612/823 600/817 510/816
f 612/823 510/816 611/826
f 519/827 606/828 518/809
f 410/798 450/829 524/575
f 768/830 524/575 528/831
f 606/828 767/832 518/809
f 532/833 534/834 611/826
f 527/821 408/812 604/808
f 517/813 523/822 607/835
f 525/824 534/834 531/836
f 523/822 515/814 607/835
f 523/822 526/837 532/833
f 525/824 531/836 613/825
f 693/439 651/426 157/425 425/440
f 522/805 509/804 605/819
f 609/806 614/838 610/581
f 609/806 610/581 514/797
f 450/829 444/839 769/840
f 614/838 609/806 392/578
f 769/840 528/831 524/575
f 772/595 529/582 412/815 530/841
f 524/575 450/829 769/840
f 411/842 604/808 767/832
f 523/822 611/826 766/795
f 772/595 530/841 773/843
f 778/844 415/845 538/846
f 412/815 613/825 530/841
f 519/847 768/830 770/848 606/828
f 771/584 528/831 769/840
f 713/524 437/592 539/587 549/849
f 769/840 451/850 771/584
f 537/586 413/585 538/846 777/851
f 777/851 538/846 548/852 781/853
f 535/854 542/855 541/856
f 526/837 543/857 616/858
f 618/859 531/836 774/860
f 653/861 415/862 694/510
f 778/844 413/585 451/850
f 537/586 615/863 770/864
f 626/865 543/857 783/866 557/867
f 542/855 626/865 556/868 555/869
f 536/870 414/871 615/863
f 615/863 414/871 770/864
f 536/870 546/872 545/873
f 613/874 618/859 773/843 530/841
f 414/871 533/875 770/864
f 776/876 545/877 544/878
f 542/855 555/869 541/856
f 616/858 532/833 526/837
f 616/858 535/854 534/834
f 617/879 774/860 531/836
f 161/324 694/510 652/438 159/325
f 615/880 537/586 547/881 546/872
f 538/846 415/845 452/882 548/852
f 781/853 548/852 561/597 567/599
f 554/883 786/884 632/885 553/886
f 547/881 537/586 777/851
f 545/887 776/876 536/870
f 624/888 560/889 559/890
f 544/891 775/892 776/876
f 545/887 559/890 558/893
f 555/869 564/894 782/895
f 553/896 563/897 633/898 552/899
f 618/859 619/900 620/901 773/843
f 552/902 634/903 551/904
f 626/865 542/855 616/858
f 617/879 780/905 774/860
f 774/860 619/900 618/906
f 773/843 620/901 621/589 772/595
f 620/901 779/590 621/589
f 426/907 653/509 654/333 163/335
f 453/908 622/909 426/907
f 561/597 548/852 622/909
f 567/910 784/911 623/912 781/853
f 622/909 453/908 561/597
f 784/911 560/889 624/888 623/913
f 623/913 547/881 781/853
f 620/901 627/914 550/915 779/590
f 784/911 567/599 788/916
f 559/890 545/887 624/888
f 629/917 566/918 565/919
f 630/920 565/919 573/921
f 556/868 557/922 787/923
f 632/885 786/884 417/924
f 780/925 553/896 774/860
f 553/896 552/899 619/900
f 634/903 552/902 637/635
f 569/926 419/927 679/606 680/525
f 785/604 550/928 562/929
f 788/916 566/918 629/930 560/931
f 788/916 560/889 784/911
f 791/626 417/924 564/894 792/932
f 565/919 630/920 629/933
f 787/923 631/934 556/868
f 571/631 416/935 572/621
f 790/628 632/885 417/924 570/629
f 782/895 786/884 554/936
f 789/642 634/937 637/635 580/634
f 632/885 563/897 553/896
f 633/898 637/635 552/902
f 637/635 563/897 460/633
f 676/938 798/636 186/71 118/424
f 726/612 454/939 628/940 453/908
f 454/939 578/601 568/600 628/940
f 793/620 574/941 565/942 566/943
f 788/916 576/608 635/944
f 575/945 566/918 635/944
f 787/923 571/631 636/946 631/934
f 416/935 571/631 787/923
f 416/935 783/866 573/622
f 564/894 417/924 786/884
f 632/885 790/628 460/633 563/897
f 791/626 570/629 417/924
f 563/897 637/635 633/898
f 643/448 679/606 419/927 126/947
f 634/937 638/643 562/948
f 789/642 638/643 634/937
f 785/949 562/929 639/605
f 638/643 639/605 562/948
f 726/612 655/950 165/382 306/384
f 434/550 675/951 677/548
f 678/544 455/613 726/612 656/545
f 718/572 644/519 685/571 719/573
f 418/952 794/16 120/429
f 711/547 419/927 435/529
f 680/525 436/603 569/926
f 681/596 437/592 713/524
f 681/596 438/588 714/593
f 715/953 439/594 420/591
f 683/521 440/579 682/522
f 717/580 644/519 718/572
f 795/695 689/694 723/702 722/646
f 686/518 421/517 687/709
f 719/573 686/518 501/569
f 433/542 441/552 418/952
f 721/554 418/952 441/552
f 434/550 795/695 722/954
f 422/452 647/514 724/740 723/702
f 647/514 423/955 442/769 724/740
f 640/637 657/388 695/956 455/613
f 593/742 423/955 424/789
f 423/955 593/742 447/770
f 725/807 424/789 691/511
f 692/427 651/426 410/798
f 444/839 693/439 769/840
f 693/439 444/839 651/426
f 415/957 653/861 452/882
f 652/438 694/510 415/862
f 655/950 453/908 426/907
f 456/614 695/956 427/507
f 665/483 702/478 736/674 735/673
f 456/614 427/507 457/508
f 727/610 696/503 428/502
f 579/618 428/502 659/625
f 428/502 579/618 727/610
f 697/505 458/623 659/625
f 728/624 429/504 431/412
f 728/624 729/627 459/630
f 729/627 660/500 790/628
f 660/500 729/627 431/412
f 731/498 798/636 581/640
f 699/958 732/540 712/543
f 662/691 395/959 732/960
f 700/490 462/698 662/691
f 800/486 463/700 733/489
f 735/673 701/484 665/483
f 701/484 735/673 734/961
f 527/821 411/842 533/875 526/837
f 667/672 464/678 801/477
f 704/441 669/479 465/679
f 706/664 672/647 738/661
f 672/647 707/463 466/665
f 739/462 708/475 740/655
f 709/472 710/471 675/648
f 740/655 708/475 675/648
f 533/875 775/892 526/837
f 711/547 676/938 118/424 126/947
f 732/540 699/958 799/106
f 712/543 418/952 120/429 641/107
f 189/105 191/962 663/692 799/106
f 677/548 121/532 642/549
f 640/637 678/544 123/437
f 132/23 133/43 131/51 298/24
f 117/423 125/47 126/947
f 147/149 228/963 234/150
f 296/63 657/388 640/964
f 129/449 128/46 127/45
f 14/94 15/97 184/87 315/420
f 135/41 325/40 362/298
f 3/5 299/456 211/116
f 150/152 300/451 147/149
f 162/965 654/469 305/468
f 308/495 307/386 168/482
f 170/64 308/495 168/482
f 181/92 312/411 311/93
f 190/966 191/962 189/105 188/15
f 27/967 192/491 191/962 190/966
f 194/153 195/485 193/487 317/154
f 231/137 22/134 200/480 668/443
f 799/106 699/958 712/543 641/107
f 28/14 1/13 336/111
f 1/13 2/109 336/111
f 252/117 211/116 383/21
f 4/20 252/117 383/21
f 253/235 328/215 42/190
f 257/10 4/20 145/11
f 144/29 143/28 146/455
f 6/34 5/26 138/444
f 279/299 132/23 280/22
f 381/450 216/25 298/24
f 216/25 381/450 8/55
f 128/46 129/449 130/447
f 9/481 107/58 224/60
f 9/481 224/60 170/64
f 173/77 111/76 333/494
f 223/65 380/968 10/74
f 172/66 223/65 10/74
f 333/494 111/76 113/80
f 387/496 10/74 173/77
f 12/91 13/88 181/92
f 177/82 225/81 11/397
f 13/88 226/98 182/537
f 222/96 115/95 376/416
f 295/33 116/404 375/99
f 226/98 14/94 182/537
f 222/96 15/97 14/94
f 16/85 17/32 185/86
f 212/183 43/969 48/217
f 229/112 228/963 205/113
f 335/970 205/113 228/963
f 230/121 20/167 235/122
f 22/134 231/137 34/135
f 203/523 21/166 20/167
f 20/167 21/166 32/168
f 35/139 23/138 236/162
f 24/142 197/128 232/140
f 25/146 334/144 233/147
f 236/162 23/138 24/142
f 233/147 194/153 338/155
f 237/141 232/140 25/146
f 338/155 26/156 337/158
f 233/147 334/144 194/153
f 191/962 192/491 663/692
f 337/158 27/967 28/174
f 338/155 317/154 26/156
f 188/971 28/14 190/966
f 337/158 389/157 27/967
f 27/967 190/966 28/14
f 48/217 54/233 53/265
f 29/164 234/150 228/972
f 29/159 18/115 210/973
f 228/972 229/974 29/164
f 31/123 235/122 243/192
f 243/192 32/168 344/223
f 339/136 34/135 33/165
f 236/162 24/142 237/141
f 34/135 35/139 343/199
f 249/203 342/163 40/975
f 36/172 25/171 238/148
f 38/160 346/19 327/18
f 150/152 38/160 151/976
f 53/265 54/977 357/269
f 240/188 42/190 29/159
f 241/978 240/188 210/533
f 151/976 38/160 327/18
f 240/188 241/978 212/183
f 242/181 241/978 209/526
f 29/979 210/973 240/188
f 43/225 44/219 353/222
f 210/533 209/526 241/978
f 44/220 45/213 254/221
f 209/526 243/192 242/181
f 32/168 39/200 344/223
f 39/195 343/199 244/980
f 32/168 33/165 39/200
f 352/197 244/161 351/201
f 350/228 40/206 46/207
f 46/207 37/169 245/208
f 152/216 41/17 328/215
f 346/19 42/190 41/17
f 45/213 39/200 248/198
f 248/198 352/197 255/214
f 50/246 256/226 56/247
f 40/206 36/205 46/207
f 348/232 251/179 347/187
f 64/261 59/255 259/9
f 328/215 253/235 51/236
f 648/513 155/460 156/981
f 356/242 255/214 50/246
f 255/214 352/197 50/246
f 351/201 256/226 50/246
f 355/249 349/230 354/251
f 52/264 53/265 357/269
f 154/237 51/236 329/268
f 258/241 55/234 49/212
f 260/270 61/244 264/285
f 356/242 261/245 62/243
f 265/278 261/245 67/279
f 67/279 261/245 63/248
f 269/266 58/982 359/292
f 57/250 355/249 58/254
f 58/254 354/251 59/255
f 303/457 385/458 650/428
f 358/271 60/267 357/269
f 60/267 358/284 65/276
f 74/301 6/34 7/36
f 357/269 54/272 358/271
f 263/274 260/270 264/285
f 55/234 258/241 260/270
f 58/982 266/293 359/292
f 57/250 58/982 269/266
f 58/982 64/256 266/293
f 73/983 74/301 77/309
f 276/984 79/985 80/259
f 75/258 71/263 72/277
f 262/283 358/284 66/273
f 360/286 264/285 61/244
f 265/278 360/286 61/244
f 61/244 62/243 265/278
f 63/248 269/266 83/304
f 68/294 73/300 272/305
f 68/294 64/295 267/262
f 5/26 6/34 267/262
f 74/301 267/262 6/34
f 69/275 70/281 361/38
f 425/440 304/467 159/325
f 70/281 271/257 270/297
f 330/282 69/275 331/37
f 268/280 72/277 360/286
f 82/290 268/280 67/279
f 83/304 67/279 63/248
f 67/279 83/304 82/290
f 76/303 269/266 359/292
f 214/310 270/297 79/313
f 75/258 72/277 213/326
f 213/326 72/277 363/302
f 81/327 213/326 363/302
f 87/315 83/304 89/330
f 84/332 76/303 272/305
f 77/309 272/986 73/983
f 85/336 273/307 215/987
f 273/988 214/310 215/989
f 78/39 158/338 332/312
f 215/989 79/313 276/984
f 365/328 80/259 75/258
f 215/989 214/310 79/313
f 363/302 364/291 81/327
f 286/345 87/315 88/331
f 89/330 83/304 76/303
f 274/319 84/316 77/309
f 272/305 77/309 84/316
f 305/49 85/336 367/50
f 85/336 215/989 275/339
f 275/339 215/989 276/288
f 85/336 305/355 160/337
f 105/402 8/55 374/30
f 94/289 80/259 366/343
f 366/343 86/344 282/350
f 283/342 86/344 81/327
f 366/343 365/328 86/344
f 284/400 285/366 219/348
f 277/341 364/291 87/315
f 89/330 84/332 278/318
f 288/990 368/378 104/369
f 279/299 288/991 274/319
f 288/991 279/299 218/321
f 90/320 274/319 288/991
f 279/299 280/22 217/314
f 104/403 105/402 375/992
f 386/52 91/48 373/53
f 163/335 162/334 165/382
f 373/53 92/340 372/393
f 372/393 92/340 93/389
f 93/357 275/339 281/287
f 91/48 386/52 162/993
f 91/48 367/50 92/340
f 371/311 94/289 370/359
f 109/329 290/391 110/394
f 370/359 366/343 282/360
f 282/350 86/344 283/351
f 112/398 291/362 220/395
f 284/361 277/341 285/366
f 220/395 291/362 99/396
f 285/366 286/345 219/348
f 287/994 95/995 278/318
f 95/995 287/994 101/89
f 88/331 278/318 95/346
f 90/320 288/991 287/367
f 216/25 96/377 217/314
f 97/54 106/371 206/385
f 97/54 373/53 98/379
f 221/67 289/381 379/68
f 125/47 128/46 643/448
f 110/996 290/392 378/78
f 380/75 110/394 111/76
f 378/78 369/349 377/79
f 292/399 99/396 219/348
f 219/348 100/347 292/399
f 294/90 115/95 226/98
f 376/416 102/354 287/353
f 100/352 101/89 114/364
f 102/354 376/416 115/95
f 287/367 103/370 376/416
f 106/371 107/58 207/61
f 206/385 106/371 207/61
f 107/58 221/67 108/59
f 223/65 109/329 380/968
f 108/59 379/68 109/329
f 170/64 172/66 309/492
f 110/394 378/997 111/76
f 111/76 112/398 113/80
f 309/492 174/497 658/501
f 111/76 377/79 112/398
f 116/404 295/33 16/85
f 184/87 186/71 661/421
f 118/424 117/423 126/947
f 121/532 324/101 642/100
f 205/113 335/432 324/101
f 207/61 296/63 122/998
f 207/61 122/434 166/383
f 126/947 125/47 643/448
f 129/449 8/55 381/450
f 129/449 381/450 131/51
f 135/41 7/36 382/35
f 133/43 325/40 136/42
f 132/23 325/40 133/43
f 140/453 138/444 5/26
f 142/12 140/453 5/26
f 135/41 382/35 137/446
f 142/12 145/11 143/28
f 141/27 142/12 143/28
f 794/16 119/7 120/429
f 148/999 147/149 300/451
f 300/451 301/535 422/452
f 384/534 151/976 302/459
f 384/534 150/152 151/976
f 301/535 302/459 422/452
f 151/976 327/18 152/1000
f 152/536 328/215 154/237
f 302/459 152/536 155/460
f 155/460 154/237 156/465
f 648/1001 156/465 649/466
f 649/466 303/457 650/428
f 385/458 157/425 650/428
f 385/458 330/282 157/425
f 304/467 326/322 159/325
f 160/323 654/1002 161/324
f 677/548 710/471 121/532
f 386/52 164/476 162/334
f 164/476 166/383 165/382
f 296/63 307/386 657/388
f 307/386 308/495 169/387
f 169/387 308/495 171/493
f 168/482 9/481 170/64
f 172/66 10/74 387/496
f 183/418 660/500 431/412
f 179/414 11/397 311/93
f 431/412 429/504 430/410
f 313/417 181/92 13/88
f 13/88 182/537 313/417
f 182/537 14/94 314/506
f 655/950 426/907 165/382
f 656/545 726/612 306/384
f 185/86 17/1003 316/69
f 192/491 27/967 389/157
f 251/1004 246/204 47/186
f 664/488 389/157 193/487
f 195/485 194/153 318/143
f 647/514 422/452 302/459
f 245/208 37/169 208/177
f 319/133 232/140 197/128
f 36/205 238/148 37/169
f 321/125 22/134 339/136
f 320/129 668/443 199/130
f 342/163 237/141 36/205
f 22/134 321/125 200/480
f 420/591 681/596 134/44
f 201/126 671/1 202/4
f 715/953 420/591 136/42
f 235/122 32/168 243/192
f 390/119 204/114 673/464
f 433/542 418/952 712/543
f 419/927 711/547 126/947
f 675/951 434/550 748/644
f 710/471 323/528 121/532
f 157/425 330/282 304/467
f 309/492 172/66 387/496
f 156/465 154/237 303/457
f 296/63 167/73 307/386
f 301/535 384/534 302/459
f 165/382 162/334 164/476
f 671/1 201/126 203/523
f 174/497 173/77 310/407
f 433/1005 467/541 441/552
f 741/553 467/541 732/540
f 755/654 491/1006 754/653
f 708/475 739/462 673/464
f 482/555 721/554 750/551
f 761/570 720/561 391/560
f 593/742 403/777 760/741
f 794/16 721/554 688/516
f 299/456 421/517 146/455
f 146/455 421/517 144/29
f 502/576 501/569 761/570
f 686/518 719/573 685/571
f 610/581 718/572 765/574
f 392/578 521/577 614/838
f 529/582 439/594 715/953
f 682/522 715/953 136/42
f 439/594 438/588 420/591
f 439/594 529/582 772/595
f 134/44 681/596 131/51
f 549/849 436/603 713/524
f 714/593 437/592 681/596
f 436/603 549/849 785/604
f 169/387 797/1007 657/388
f 455/613 578/601 454/939
f 427/507 695/956 797/1007
f 427/507 797/1007 169/387
f 578/616 393/615 577/617
f 457/508 427/507 171/493
f 573/622 574/1008 579/618
f 696/503 457/508 309/492
f 727/610 575/945 635/944
f 793/620 575/945 727/610
f 792/1009 571/631 459/630
f 178/413 697/505 176/409
f 728/624 459/630 572/621
f 792/932 459/630 791/1010
f 729/627 791/626 459/630
f 580/634 461/638 789/642
f 580/634 730/632 461/638
f 730/632 580/634 460/633
f 789/642 731/498 581/640
f 731/498 789/642 461/638
f 581/640 432/531 582/530
f 677/548 675/951 710/471
f 795/695 642/549 149/103
f 675/648 473/649 740/655
f 471/724 480/723 746/663
f 479/660 589/1011 478/728
f 200/480 704/441 668/443
f 739/462 583/652 466/665
f 738/668 747/667 471/662
f 705/3 746/663 737/677
f 802/2 706/664 705/3
f 752/754 746/663 480/1012
f 706/664 746/663 705/3
f 397/1013 479/660 746/663
f 702/478 665/483 196/145
f 737/677 746/663 479/660
f 736/674 464/678 394/675
f 701/484 800/486 195/485
f 478/728 745/683 479/660
f 474/1014 475/767 590/766
f 468/689 469/676 398/680
f 736/674 702/478 801/477
f 744/687 470/693 394/675
f 394/675 464/678 744/687
f 734/961 735/673 468/689
f 750/1015 474/1016 482/555
f 743/686 477/730 751/764
f 733/489 463/700 584/688
f 663/692 662/691 799/106
f 734/961 463/700 800/486
f 468/689 463/700 734/961
f 732/960 395/959 741/553
f 584/688 462/698 733/489
f 742/699 741/553 395/1017
f 395/1017 462/698 742/699
f 742/699 475/690 474/1014
f 755/654 749/556 445/739
f 748/1018 396/557 473/649
f 489/718 586/651 490/733
f 583/652 586/651 472/666
f 486/708 494/720 493/729
f 746/663 752/754 397/1013
f 401/748 588/753 488/747
f 752/754 479/660 397/1013
f 751/764 398/680 743/686
f 447/771 593/742 591/697
f 476/682 484/681 402/726
f 446/696 445/739 724/740
f 489/718 400/735 756/746
f 496/713 497/755 595/785
f 496/713 595/785 495/707
f 586/1019 489/718 481/671
f 499/1020 400/735 500/791
f 494/720 596/792 493/729
f 492/760 493/729 597/799
f 752/754 399/658 479/660
f 478/728 477/730 744/687
f 485/786 493/1021 492/760
f 592/727 402/1022 757/801
f 424/789 423/955 796/515
f 391/560 483/725 761/570
f 500/791 594/790 499/1020
f 754/1023 760/741 587/715
f 755/654 591/697 491/566
f 587/1024 760/741 500/734
f 595/785 407/773 505/793
f 506/780 594/790 507/776
f 758/751 497/755 401/748
f 504/761 492/760 600/817
f 503/758 504/761 601/818
f 495/707 505/793 596/792
f 502/576 503/758 602/802
f 485/786 484/681 751/732
f 504/761 757/801 402/726
f 757/1025 504/761 503/758
f 405/759 503/758 502/576
f 592/788 483/725 590/766
f 448/762 593/742 424/789
f 593/742 764/763 403/777
f 796/515 647/514 155/460
f 764/763 593/742 448/762
f 512/565 598/778 513/562
f 594/790 506/780 404/772
f 762/784 763/779 408/812
f 508/796 509/803 514/797
f 495/707 596/792 494/720
f 449/787 448/762 725/807
f 690/512 796/515 648/513
f 598/778 406/1026 507/776
f 598/778 512/565 406/1026
f 516/774 607/835 515/814
f 599/783 518/809 604/808
f 408/812 516/774 762/784
f 515/814 511/775 516/774
f 600/817 601/1027 504/761
f 601/818 602/802 503/758
f 410/798 449/787 443/800
f 518/809 767/832 604/808
f 691/511 690/512 649/466
f 682/522 529/582 715/953
f 603/564 524/575 768/830
f 766/795 611/826 510/816
f 511/775 515/814 409/794
f 766/795 510/816 596/792
f 612/823 608/820 601/818
f 600/817 612/823 601/818
f 601/1028 605/819 509/803
f 444/839 450/829 410/798
f 521/577 610/581 614/838
f 768/830 519/1029 603/564
f 611/826 534/834 612/823
f 523/822 527/821 526/837
f 517/813 607/835 516/774
f 522/1030 613/825 412/815
f 771/584 451/850 413/585
f 609/806 522/1031 412/815
f 652/438 451/850 693/439
f 714/593 438/588 539/587
f 768/830 528/831 771/584
f 532/833 616/858 534/834
f 411/842 770/864 533/875
f 531/836 618/859 613/874
f 523/822 532/833 611/826
f 608/820 525/824 605/819
f 605/819 613/825 522/1032
f 771/584 770/864 768/830
f 606/828 770/848 767/832
f 616/858 542/855 535/854
f 767/832 770/864 411/842
f 533/875 414/871 776/876
f 534/834 541/856 617/879
f 548/852 452/882 622/909
f 612/823 534/834 525/824
f 778/1033 538/846 413/585
f 771/584 537/586 770/864
f 776/876 775/892 533/875
f 775/892 543/857 526/837
f 543/857 775/892 544/1034
f 541/856 554/1035 780/905
f 619/900 552/1036 540/1037
f 540/1038 627/914 620/901
f 535/854 541/856 534/834
f 539/587 779/590 550/915
f 780/905 617/879 541/856
f 561/597 453/908 628/940
f 534/834 617/879 531/836
f 545/873 546/872 624/888
f 544/878 545/877 558/893
f 781/853 547/881 777/851
f 546/872 536/870 615/863
f 555/869 556/868 631/1039
f 536/870 776/876 414/871
f 543/857 626/865 616/858
f 556/868 626/865 557/867
f 541/856 555/1040 782/895
f 785/604 549/849 550/1041
f 553/896 780/905 554/883
f 774/860 553/896 619/900
f 619/1042 540/1038 620/901
f 551/1043 540/1038 552/1036
f 549/849 539/587 550/915
f 426/907 622/909 452/882
f 546/872 547/881 623/913
f 558/893 559/890 629/917
f 623/913 624/888 546/872
f 558/893 625/1044 544/891
f 625/1044 783/866 543/857
f 541/856 782/895 554/936
f 782/895 564/894 786/884
f 540/1045 551/904 627/914
f 562/1046 551/1047 634/903
f 165/382 426/907 163/335
f 628/940 568/600 561/597
f 560/931 629/930 559/890
f 575/945 793/620 566/918
f 629/1048 630/920 558/893
f 573/921 783/866 630/920
f 574/941 573/622 565/942
f 630/920 783/866 625/1044
f 783/866 787/923 557/867
f 572/621 416/935 573/622
f 792/1009 636/1049 571/631
f 631/934 564/894 555/869
f 551/1047 562/948 550/928
f 627/914 551/1047 550/915
f 480/1012 588/753 752/754
f 577/1050 576/608 788/916
f 635/944 566/918 788/916
f 783/866 416/935 787/923
f 636/1051 792/1009 564/894
f 631/934 636/1049 564/894
f 432/546 676/938 711/547
f 130/447 679/606 643/448
f 569/538 435/529 419/927
f 682/522 440/579 716/583
f 501/569 686/518 687/709
f 687/709 421/517 720/561
f 720/561 421/517 688/516
f 721/554 794/16 418/952
f 642/549 795/695 434/550
f 447/770 442/769 423/955
f 647/514 796/515 423/955
f 796/515 690/512 424/789
f 691/511 443/800 725/807
f 444/839 410/798 651/426
f 769/840 693/439 451/850
f 451/850 652/438 778/844
f 778/844 652/438 415/957
f 653/861 426/907 452/882
f 453/908 655/950 726/612
f 456/1052 455/1053 695/956
f 657/388 797/1007 695/956
f 659/625 458/623 579/618
f 728/624 431/412 729/627
f 790/628 660/500 460/633
f 730/632 698/499 461/638
f 432/531 798/636 676/938
f 799/106 662/691 732/540
f 662/691 462/698 395/959
f 800/486 701/484 734/961
f 465/679 464/678 667/672
f 801/477 464/678 736/674
f 667/672 703/442 465/679
f 465/679 669/479 737/677
f 737/677 669/479 705/3
f 672/647 706/664 802/2
f 738/661 672/647 466/665
f 147/149 335/1054 228/963
f 543/857 544/1034 625/1044
f 408/812 527/821 517/813
f 604/808 411/842 527/821
f 788/916 567/599 577/1050
f 625/1044 558/893 630/920
f 324/101 323/528 205/113
f 152/1000 302/459 151/976
f 158/338 160/1055 326/322
f 168/482 307/386 167/73
f 230/121 19/120 322/527
f 204/114 205/113 323/528
