newmtl bin:lambert36SG
illum 4
Kd 0.81 0.81 0.81
Ka 0.00 0.00 0.00
Tf 1.00 1.00 1.00
Ni 1.00
newmtl initialShadingGroup
illum 4
Kd 1.00 1.00 1.00
Ka 0.00 0.00 0.00
Tf 1.00 1.00 1.00
Ni 1.00
newmtl lambert2SG
illum 4
Kd 1.00 0.00 0.00
Ka 0.00 0.00 0.00
Tf 0.34 0.34 0.34
Ni 1.00
newmtl lambert6SG
illum 4
Kd 0.50 0.50 0.50
Ka 0.00 0.00 0.00
Tf 1.00 1.00 1.00
Ni 1.00
