# Blender v2.68 (sub 0) OBJ File: 'clock.blend'
# www.blender.org
mtllib clock.mtl
o frame_Cylinder
v 0.000000 3.000000 -0.193776
v 0.585271 2.942356 -0.193776
v 1.148050 2.771638 -0.193776
v 1.666711 2.494409 -0.193776
v 2.121320 2.121320 -0.193776
v 2.494409 1.666711 -0.193776
v 2.771638 1.148050 -0.193776
v 2.942356 0.585271 -0.193776
v 3.000000 0.000000 -0.193776
v 2.942356 -0.585271 -0.193776
v 2.771639 -1.148050 -0.193776
v 2.494409 -1.666711 -0.193776
v 2.121320 -2.121320 -0.193776
v 1.666711 -2.494409 -0.193776
v 1.148050 -2.771639 -0.193776
v 0.585270 -2.942356 -0.193776
v -0.000001 -3.000000 -0.193776
v -0.585272 -2.942356 -0.193776
v -1.148052 -2.771638 -0.193776
v -1.666712 -2.494408 -0.193776
v -2.121322 -2.121319 -0.193776
v -2.494410 -1.666709 -0.193776
v -2.771640 -1.148048 -0.193776
v -2.942356 -0.585268 -0.193776
v -3.000000 0.000003 -0.193776
v -2.942355 0.585274 -0.193776
v -2.771637 1.148053 -0.193776
v -2.494407 1.666714 -0.193776
v -2.121318 2.121323 -0.193776
v -1.666707 2.494411 -0.193776
v -1.148046 2.771640 -0.193776
v -0.585266 2.942357 -0.193776
v 0.000005 3.000000 0.193776
v 0.585276 2.942355 0.193776
v 1.148055 2.771636 0.193776
v 1.666715 2.494406 0.193776
v 2.121325 2.121316 0.193776
v 2.494412 1.666706 0.193776
v 2.771641 1.148045 0.193776
v 2.942357 0.585265 0.193776
v 3.000000 -0.000007 0.193776
v 2.942355 -0.585276 0.193776
v 2.771637 -1.148054 0.193776
v 2.494407 -1.666713 0.193776
v 2.121319 -2.121322 0.193776
v 1.666710 -2.494409 0.193776
v 1.148051 -2.771638 0.193776
v 0.585273 -2.942356 0.193776
v 0.000003 -3.000000 0.193776
v -0.585267 -2.942357 0.193776
v -1.148046 -2.771641 0.193776
v -1.666705 -2.494412 0.193776
v -2.121315 -2.121326 0.193776
v -2.494404 -1.666718 0.193776
v -2.771635 -1.148059 0.193776
v -2.942354 -0.585282 0.193776
v -3.000000 -0.000012 0.193776
v -2.942358 0.585258 0.193776
v -2.771644 1.148037 0.193776
v -2.494418 1.666698 0.193776
v -2.121332 2.121308 0.193776
v -1.666726 2.494399 0.193776
v -1.148068 2.771631 0.193776
v -0.585291 2.942352 0.193776
v -0.656558 3.300623 0.193776
v -1.287861 3.109115 0.193776
v -1.869672 2.798126 0.193776
v -2.379633 2.379606 0.193776
v -2.798147 1.869641 0.193776
v -3.109129 1.287826 0.193776
v -3.300630 0.656521 0.193776
v -3.365290 -0.000014 0.193776
v -3.300624 -0.656548 0.193776
v -3.109118 -1.287851 0.193776
v -2.798131 -1.869663 0.193776
v -2.379614 -2.379625 0.193776
v -1.869649 -2.798140 0.193776
v -1.287836 -3.109125 0.193776
v -0.656531 -3.300628 0.193776
v 0.000003 -3.365290 0.193776
v 0.656537 -3.300627 0.193776
v 1.287841 -3.109122 0.193776
v 1.869654 -2.798137 0.193776
v 2.379618 -2.379621 0.193776
v 2.798135 -1.869658 0.193776
v 3.109121 -1.287845 0.193776
v 3.300626 -0.656541 0.193776
v 3.365290 -0.000007 0.193776
v 3.300629 0.656529 0.193776
v 3.109126 1.287835 0.193776
v 2.798141 1.869650 0.193776
v 2.379624 2.379615 0.193776
v 1.869660 2.798134 0.193776
v 1.287846 3.109121 0.193776
v 0.656541 3.300627 0.193776
v 0.000005 3.365291 0.193776
v -0.656530 3.300629 -0.193776
v -1.287836 3.109125 -0.193776
v -1.869651 2.798140 -0.193776
v -2.379617 2.379623 -0.193776
v -2.798134 1.869659 -0.193776
v -3.109121 1.287845 -0.193776
v -3.300626 0.656539 -0.193776
v -3.365290 0.000004 -0.193776
v -3.300628 -0.656532 -0.193776
v -3.109124 -1.287838 -0.193776
v -2.798138 -1.869653 -0.193776
v -2.379621 -2.379618 -0.193776
v -1.869657 -2.798135 -0.193776
v -1.287842 -3.109122 -0.193776
v -0.656537 -3.300627 -0.193776
v -0.000001 -3.365290 -0.193776
v 0.656535 -3.300627 -0.193776
v 1.287840 -3.109123 -0.193776
v 1.869655 -2.798137 -0.193776
v 2.379620 -2.379619 -0.193776
v 2.798137 -1.869655 -0.193776
v 3.109123 -1.287840 -0.193776
v 3.300628 -0.656535 -0.193776
v 3.365290 0.000001 -0.193776
v 3.300627 0.656536 -0.193776
v 3.109123 1.287841 -0.193776
v 2.798137 1.869655 -0.193776
v 2.379620 2.379620 -0.193776
v 1.869655 2.798137 -0.193776
v 1.287841 3.109123 -0.193776
v 0.656536 3.300628 -0.193776
v 0.000000 3.365291 -0.193776
v 0.012840 0.299096 0.093891
v 0.159918 0.255563 0.094207
v 0.015996 0.300198 0.143474
v 0.156461 0.254053 0.143790
v -0.502546 -1.749209 0.135560
v -0.579106 -1.725376 0.135560
v -0.502546 -1.749209 0.102121
v -0.579106 -1.725376 0.102121
v 0.271666 -0.127296 0.122902
v 0.177822 -0.243605 0.122701
v 0.274275 -0.125449 0.171979
v 0.179110 -0.240679 0.171777
v -2.182483 1.729837 0.164059
v -2.131776 1.791953 0.164059
v -2.182483 1.729837 0.130620
v -2.131776 1.791954 0.130620
v 0.012232 0.045492 -0.038100
v 0.009995 -0.043424 -0.038100
v -0.037543 -0.026831 -0.038100
v -0.037773 0.023638 -0.038100
v 0.026831 0.037543 0.186036
v -0.006108 -0.046710 0.186036
v -0.043943 -0.007384 0.186036
v -0.027640 0.035881 0.186036
v 0.045519 -0.007575 -0.038100
v 0.042916 -0.014478 0.186036
v 0.000005 3.000000 0.043532
v 0.585276 2.942355 0.043532
v 1.148055 2.771636 0.043532
v 1.666715 2.494406 0.043532
v 2.121325 2.121316 0.043532
v 2.494412 1.666706 0.043532
v 2.771641 1.148045 0.043532
v 2.942357 0.585265 0.043532
v 3.000000 -0.000007 0.043532
v 2.942355 -0.585276 0.043532
v 2.771637 -1.148054 0.043532
v 2.494407 -1.666713 0.043532
v 2.121319 -2.121322 0.043532
v 1.666710 -2.494409 0.043531
v 1.148051 -2.771638 0.043531
v 0.585273 -2.942356 0.043531
v 0.000003 -3.000000 0.043531
v -0.585267 -2.942357 0.043531
v -1.148046 -2.771641 0.043531
v -1.666705 -2.494412 0.043531
v -2.121311 -2.121334 0.043531
v -2.494404 -1.666718 0.043532
v -2.771635 -1.148059 0.043532
v -2.942354 -0.585282 0.043532
v -3.000000 -0.000012 0.043532
v -2.942358 0.585258 0.043532
v -2.771644 1.148037 0.043532
v -2.494418 1.666698 0.043532
v -2.121332 2.121308 0.043532
v -1.666726 2.494399 0.043532
v -1.148068 2.771631 0.043532
v -0.585291 2.942352 0.043532
v 0.023157 2.200909 0.091908
v 0.155228 2.367439 0.091908
v 0.208134 2.451988 0.091908
v 0.225120 2.491601 0.091908
v 0.230933 2.535751 0.091908
v 0.224399 2.573565 0.091908
v 0.202904 2.607204 0.091908
v 0.164539 2.627304 0.091908
v 0.118524 2.625735 0.091908
v 0.078318 2.606043 0.091908
v 0.034944 2.563545 0.091908
v 0.034687 2.650973 0.091908
v 0.074524 2.678158 0.091908
v 0.107185 2.691307 0.091908
v 0.131258 2.696632 0.091908
v 0.175066 2.696867 0.091908
v 0.229980 2.678704 0.091908
v 0.265984 2.648151 0.091908
v 0.286580 2.615742 0.091908
v 0.298646 2.576922 0.091908
v 0.301248 2.534424 0.091908
v 0.293575 2.485757 0.091908
v 0.263231 2.417627 0.091908
v 0.202698 2.332214 0.091906
v 0.148068 2.265770 0.091908
v 0.336583 2.265770 0.091908
v 0.336583 2.198598 0.091908
v -0.215240 2.198598 0.091908
v -0.215240 2.691194 0.091908
v -0.144456 2.691194 0.091908
v -0.144456 2.198598 0.091908
v 0.023138 2.200934 0.001908
v 0.141037 2.348282 0.001908
v 0.200100 2.437408 0.001908
v 0.222701 2.484040 0.001908
v 0.231128 2.530706 0.001908
v 0.222497 2.579355 0.001908
v 0.198498 2.610497 0.001908
v 0.160561 2.628485 0.001908
v 0.114338 2.624266 0.001908
v 0.078318 2.606043 0.001908
v 0.034944 2.563545 0.001908
v 0.034775 2.651476 0.001908
v 0.078976 2.680229 0.001908
v 0.107185 2.691307 0.001908
v 0.137486 2.697555 0.001908
v 0.193574 2.693355 0.001908
v 0.237757 2.673265 0.001908
v 0.265984 2.648151 0.001908
v 0.286580 2.615742 0.001908
v 0.298646 2.576922 0.001908
v 0.301248 2.534424 0.001908
v 0.293575 2.485757 0.001908
v 0.263231 2.417627 0.001908
v 0.202698 2.332214 0.001908
v 0.148068 2.265770 0.001908
v 0.336583 2.265770 0.001908
v 0.336583 2.198598 0.001908
v -0.215240 2.198598 0.001908
v -0.215240 2.691194 0.001908
v -0.144456 2.691194 0.001908
v -0.144456 2.198598 0.001908
v -0.215240 2.198598 0.001908
v -0.215240 2.198598 0.091908
v -0.215240 2.691194 0.001908
v -0.215240 2.691194 0.091908
v -0.144456 2.691194 0.001908
v -0.144456 2.691194 0.091908
v -0.144456 2.198598 0.001908
v -0.144456 2.198598 0.091908
v 0.023411 2.201430 0.001908
v 0.023037 2.200498 0.091908
v 0.218129 2.458740 0.001908
v 0.180010 2.402012 0.091908
v 0.230122 2.505712 0.091908
v 0.223760 2.583390 0.001908
v 0.203784 2.614824 0.091908
v 0.138005 2.634122 0.001908
v 0.101877 2.622017 0.091908
v 0.036302 2.567681 0.001908
v 0.035151 2.563931 0.091908
v 0.035341 2.652663 0.001908
v 0.034679 2.650914 0.091908
v 0.109759 2.695927 0.091908
v 0.123191 2.698147 0.001908
v 0.250953 2.669497 0.001908
v 0.228478 2.681487 0.091908
v 0.291093 2.610927 0.091908
v 0.302290 2.566080 0.001908
v 0.293069 2.463695 0.091908
v 0.277740 2.436510 0.001908
v 0.148267 2.265774 0.001908
v 0.148390 2.265782 0.091908
v 0.336583 2.265770 0.001908
v 0.336583 2.265770 0.091908
v 0.336583 2.198598 0.001908
v 0.336583 2.198598 0.091908
v -1.036274 1.853565 0.091908
v -1.036274 2.346160 0.091908
v -0.965491 2.346160 0.091908
v -0.965491 1.853565 0.091908
v -1.397415 1.853565 0.091908
v -1.397415 2.346160 0.091908
v -1.326632 2.346160 0.091908
v -1.326632 1.853565 0.091908
v -1.036274 1.853565 0.001908
v -1.036274 2.346160 0.001908
v -0.965491 2.346160 0.001908
v -0.965491 1.853565 0.001908
v -1.397415 1.853565 0.001908
v -1.397415 2.346160 0.001908
v -1.326632 2.346160 0.001908
v -1.326632 1.853565 0.001908
v -1.397415 1.853565 0.001908
v -1.397415 1.853565 0.091908
v -1.397415 2.346160 0.001908
v -1.397415 2.346160 0.091908
v -1.326632 2.346160 0.001908
v -1.326632 2.346160 0.091908
v -1.326632 1.853565 0.001908
v -1.326632 1.853565 0.091908
v -1.036274 1.853565 0.001908
v -1.036274 1.853565 0.091908
v -1.036274 2.346160 0.001908
v -1.036274 2.346160 0.091908
v -0.965491 2.346160 0.001908
v -0.965491 2.346160 0.091908
v -0.965491 1.853565 0.001908
v -0.965491 1.853565 0.091908
v -1.870776 1.039946 0.091908
v -1.910785 1.059602 0.091908
v -1.951524 1.102990 0.091908
v -1.980031 1.168985 0.091908
v -1.992716 1.233307 0.091908
v -1.994877 1.327043 0.091908
v -1.975619 1.423920 0.091908
v -1.944271 1.483589 0.091908
v -1.910786 1.517621 0.091908
v -1.881363 1.533216 0.091908
v -1.848448 1.541391 0.091908
v -1.802203 1.537275 0.091908
v -1.771438 1.523239 0.091908
v -1.736466 1.494579 0.091908
v -1.702765 1.436377 0.091908
v -1.682109 1.362019 0.091908
v -1.677598 1.269314 0.091908
v -1.688566 1.182896 0.091908
v -1.721452 1.102993 0.091908
v -1.762178 1.059606 0.091908
v -1.802196 1.039947 0.091908
v -1.836488 1.035812 0.091908
v -1.856043 1.471371 0.091908
v -1.883245 1.453546 0.091908
v -1.904606 1.417545 0.091908
v -1.918708 1.368616 0.091908
v -1.925105 1.288612 0.091908
v -1.918709 1.208599 0.091908
v -1.896731 1.141219 0.091908
v -1.867681 1.111369 0.091908
v -1.843397 1.103001 0.091908
v -1.816934 1.105850 0.091908
v -1.794571 1.119544 0.091908
v -1.768440 1.156975 0.091908
v -1.750809 1.232592 0.091908
v -1.749226 1.332985 0.091908
v -1.764997 1.409918 0.091908
v -1.784788 1.446864 0.091908
v -1.805299 1.465854 0.091908
v -1.829580 1.474220 0.091908
v -2.232298 1.042313 0.091908
v -2.232298 1.534908 0.091908
v -2.161515 1.534908 0.091908
v -2.161515 1.042313 0.091908
v -1.870776 1.039946 0.001908
v -1.910785 1.059602 0.001908
v -1.951524 1.102990 0.001908
v -1.980022 1.168968 0.001908
v -1.994877 1.250187 0.001908
v -1.990867 1.362019 0.001908
v -1.970209 1.436348 0.001908
v -1.944271 1.483589 0.001908
v -1.910786 1.517621 0.001908
v -1.881363 1.533216 0.001908
v -1.848448 1.541391 0.001908
v -1.802203 1.537275 0.001908
v -1.771438 1.523239 0.001908
v -1.736466 1.494579 0.001908
v -1.702765 1.436377 0.001908
v -1.682109 1.362019 0.001908
v -1.677598 1.269314 0.001908
v -1.688566 1.182896 0.001908
v -1.714725 1.115685 0.001908
v -1.744572 1.074886 0.001908
v -1.781430 1.047914 0.001908
v -1.824529 1.035830 0.001908
v -1.843396 1.474220 0.001908
v -1.867679 1.465854 0.001908
v -1.888195 1.446865 0.001908
v -1.904606 1.417545 0.001908
v -1.918708 1.368616 0.001908
v -1.925105 1.288612 0.001908
v -1.918706 1.208593 0.001908
v -1.896731 1.141219 0.001908
v -1.867681 1.111369 0.001908
v -1.843397 1.103001 0.001908
v -1.811007 1.107644 0.001908
v -1.780435 1.135649 0.001908
v -1.759016 1.186792 0.001908
v -1.748658 1.258916 0.001908
v -1.750809 1.344624 0.001908
v -1.764997 1.409918 0.001908
v -1.784788 1.446864 0.001908
v -1.811006 1.469575 0.001908
v -2.232298 1.042313 0.001908
v -2.232298 1.534908 0.001908
v -2.161515 1.534908 0.001908
v -2.161515 1.042313 0.001908
v -2.232298 1.042313 0.001908
v -2.232298 1.042313 0.091908
v -2.232298 1.534908 0.001908
v -2.232298 1.534908 0.091908
v -2.161515 1.534908 0.001908
v -2.161515 1.534908 0.091908
v -2.161515 1.042313 0.001908
v -2.161515 1.042313 0.091908
v -1.851794 1.034142 0.001908
v -1.821183 1.034142 0.091908
v -1.908123 1.055459 0.091908
v -1.962386 1.106779 0.001908
v -1.974973 1.145785 0.091908
v -1.996148 1.333926 0.001908
v -1.995598 1.362447 0.091908
v -1.926424 1.516245 0.001908
v -1.930781 1.502395 0.091908
v -1.840139 1.545502 0.091908
v -1.798786 1.538303 0.001908
v -1.738698 1.500565 0.091908
v -1.726491 1.483361 0.001908
v -1.670082 1.303218 0.001908
v -1.674070 1.336094 0.091908
v -1.718107 1.098172 0.091908
v -1.738403 1.071929 0.001908
v -1.854088 1.475732 0.091908
v -1.897997 1.441898 0.001908
v -1.917123 1.393998 0.091908
v -1.925243 1.217602 0.001908
v -1.917975 1.195415 0.091908
v -1.871340 1.111099 0.001908
v -1.874575 1.113467 0.091908
v -1.815052 1.105114 0.001908
v -1.807068 1.106453 0.091908
v -1.763535 1.162283 0.001908
v -1.756542 1.188762 0.091908
v -1.747990 1.324006 0.001908
v -1.748940 1.329178 0.091908
v -1.777632 1.441661 0.001908
v -1.779302 1.446274 0.091908
v -1.831627 1.475833 0.001908
v -2.037699 -1.416757 0.091908
v -2.097198 -1.398963 0.091908
v -2.135902 -1.370235 0.091908
v -2.163244 -1.332181 0.091908
v -2.174999 -1.282643 0.091908
v -2.167625 -1.228706 0.091908
v -2.140469 -1.186293 0.091908
v -2.104767 -1.159153 0.091908
v -2.126083 -1.141296 0.091908
v -2.147861 -1.111897 0.091908
v -2.160760 -1.078700 0.091908
v -2.162222 -1.031838 0.091908
v -2.151459 -0.996912 0.091908
v -2.133057 -0.965137 0.091908
v -2.097778 -0.934850 0.091908
v -2.062765 -0.918860 0.091908
v -2.022544 -0.911580 0.091908
v -1.981799 -0.914096 0.091908
v -1.945541 -0.925976 0.091908
v -1.914757 -0.946083 0.091908
v -1.890598 -0.973326 0.091908
v -1.871021 -1.015406 0.091908
v -1.868037 -1.077506 0.091908
v -1.887074 -1.119633 0.091908
v -1.908906 -1.144824 0.091908
v -1.928218 -1.159335 0.091908
v -1.902271 -1.176229 0.091908
v -1.873672 -1.213337 0.091908
v -1.861241 -1.253042 0.091908
v -1.859835 -1.289400 0.091908
v -1.867651 -1.324233 0.091908
v -1.885373 -1.356537 0.091908
v -1.911483 -1.383203 0.091908
v -1.944639 -1.402997 0.091908
v -1.983509 -1.414721 0.091908
v -2.041474 -0.981828 0.091908
v -2.077923 -1.004794 0.091908
v -2.092915 -1.046539 0.091908
v -2.086494 -1.080442 0.091908
v -2.066093 -1.108355 0.091908
v -2.035037 -1.124568 0.091908
v -1.999505 -1.126177 0.091908
v -1.971655 -1.114142 0.091908
v -1.946872 -1.090176 0.091908
v -1.937157 -1.053416 0.091908
v -1.942886 -1.023351 0.091908
v -1.961932 -0.996208 0.091908
v -1.996965 -0.979516 0.091908
v -2.052484 -1.199398 0.091908
v -2.080183 -1.215448 0.091908
v -2.097874 -1.240007 0.091908
v -2.103738 -1.266270 0.091908
v -2.100066 -1.298933 0.091908
v -2.076184 -1.331886 0.091908
v -2.046753 -1.346087 0.091908
v -2.016457 -1.350512 0.091908
v -1.984780 -1.345649 0.091908
v -1.959888 -1.333568 0.091908
v -1.939899 -1.310955 0.091908
v -1.929681 -1.276724 0.091908
v -1.938094 -1.235962 0.091908
v -1.961964 -1.209457 0.091908
v -1.986403 -1.198000 0.091908
v -2.015414 -1.193543 0.091908
v -2.048241 -1.414695 0.001908
v -2.087820 -1.402851 0.001908
v -2.129482 -1.377005 0.001908
v -2.163244 -1.332181 0.001908
v -2.174999 -1.282642 0.001908
v -2.167625 -1.228706 0.001908
v -2.140469 -1.186293 0.001908
v -2.104767 -1.159153 0.001908
v -2.126083 -1.141296 0.001908
v -2.147861 -1.111897 0.001908
v -2.160760 -1.078700 0.001908
v -2.162787 -1.041641 0.001908
v -2.155217 -1.005552 0.001908
v -2.133056 -0.965136 0.001908
v -2.097774 -0.934845 0.001908
v -2.062765 -0.918860 0.001908
v -2.022544 -0.911580 0.001908
v -1.972106 -0.915746 0.001908
v -1.921549 -0.939972 0.001908
v -1.890598 -0.973326 0.001908
v -1.874253 -1.006479 0.001908
v -1.865867 -1.060125 0.001908
v -1.878931 -1.106194 0.001908
v -1.904510 -1.141036 0.001908
v -1.928218 -1.159335 0.001908
v -1.897622 -1.179949 0.001908
v -1.868859 -1.224072 0.001908
v -1.858646 -1.277140 0.001908
v -1.867651 -1.324233 0.001908
v -1.885373 -1.356537 0.001908
v -1.918750 -1.389168 0.001908
v -1.963457 -1.409946 0.001908
v -2.004622 -1.417182 0.001908
v -2.064206 -0.992065 0.001908
v -2.088871 -1.025697 0.001908
v -2.092139 -1.056973 0.001908
v -2.086494 -1.080442 0.001908
v -2.066093 -1.108355 0.001908
v -2.030105 -1.126141 0.001908
v -1.994436 -1.124601 0.001908
v -1.963378 -1.108722 0.001908
v -1.943203 -1.081387 0.001908
v -1.937157 -1.053416 0.001908
v -1.942886 -1.023351 0.001908
v -1.958694 -0.999699 0.001908
v -1.982780 -0.984029 0.001908
v -2.018911 -0.978078 0.001908
v -2.052487 -1.199399 0.001908
v -2.080183 -1.215448 0.001908
v -2.097874 -1.240007 0.001908
v -2.103738 -1.266270 0.001908
v -2.101275 -1.293792 0.001908
v -2.080610 -1.328814 0.001908
v -2.046753 -1.346090 0.001908
v -2.016457 -1.350512 0.001908
v -1.984780 -1.345649 0.001908
v -1.959888 -1.333568 0.001908
v -1.939899 -1.310955 0.001908
v -1.930577 -1.282252 0.001908
v -1.933976 -1.245400 0.001908
v -1.961271 -1.208837 0.001908
v -2.008931 -1.193358 0.001908
v -2.062380 -1.413810 0.001908
v -2.146329 -1.361913 0.001908
v -2.168368 -1.327539 0.091908
v -2.177366 -1.269553 0.001908
v -2.169055 -1.229673 0.091908
v -2.115123 -1.156481 0.001908
v -2.110345 -1.158952 0.091908
v -2.158739 -1.095981 0.001908
v -2.162934 -1.077830 0.091908
v -2.145913 -0.976010 0.001908
v -2.146686 -0.982013 0.091908
v -2.047510 -0.908563 0.091908
v -2.060563 -0.916951 0.001908
v -1.958897 -0.916959 0.001908
v -1.922816 -0.937085 0.091908
v -1.888149 -0.974908 0.001908
v -1.870494 -1.011485 0.091908
v -1.864780 -1.075417 0.001908
v -1.873977 -1.100968 0.091908
v -1.924213 -1.159721 0.001908
v -1.916501 -1.156667 0.091908
v -1.875903 -1.201721 0.001908
v -1.854378 -1.290599 0.091908
v -1.860789 -1.312999 0.001908
v -1.935767 -1.403784 0.001908
v -1.915128 -1.388547 0.091908
v -2.057342 -1.420951 0.091908
v -2.067855 -0.991141 0.001908
v -2.067303 -0.993640 0.091908
v -2.094910 -1.049870 0.091908
v -2.092486 -1.078325 0.001908
v -2.067949 -1.108073 0.091908
v -2.018438 -1.130203 0.001908
v -2.006340 -1.129041 0.091908
v -1.946746 -1.093718 0.001908
v -1.940164 -1.083720 0.091908
v -1.940330 -1.026031 0.001908
v -1.945704 -1.015536 0.091908
v -1.983096 -0.981677 0.001908
v -1.994244 -0.977543 0.091908
v -2.065032 -1.203848 0.001908
v -2.084084 -1.216972 0.091908
v -2.104058 -1.250711 0.001908
v -2.105857 -1.293234 0.091908
v -2.075138 -1.339867 0.001908
v -2.024364 -1.355898 0.091908
v -1.965903 -1.340382 0.001908
v -1.929907 -1.301000 0.091908
v -1.925217 -1.263019 0.001908
v -1.947876 -1.219907 0.091908
v -1.986068 -1.194619 0.001908
v -2.013356 -1.191233 0.091908
v -1.221778 -2.296480 0.091908
v -1.041208 -1.892002 0.091908
v -1.254281 -1.892002 0.091908
v -1.254281 -1.824830 0.091908
v -0.935755 -1.824830 0.091908
v -1.158940 -2.323927 0.091908
v -1.221778 -2.296480 0.001908
v -1.041208 -1.892002 0.001908
v -1.254281 -1.892002 0.001908
v -1.254281 -1.824830 0.001908
v -0.935755 -1.824830 0.001908
v -1.158940 -2.323927 0.001908
v -1.221778 -2.296480 0.001908
v -1.221778 -2.296480 0.091908
v -1.041208 -1.892002 0.001908
v -1.041208 -1.892002 0.091908
v -1.254281 -1.892002 0.001908
v -1.254281 -1.892002 0.091908
v -1.254281 -1.824830 0.001908
v -1.254281 -1.824830 0.091908
v -0.935755 -1.824830 0.001908
v -0.935755 -1.824830 0.091908
v -1.158940 -2.323927 0.001908
v -1.158940 -2.323927 0.091908
v 1.143975 -1.888391 0.091908
v 1.143975 -2.011901 0.091908
v 1.184086 -2.012613 0.091908
v 1.230000 -2.024107 0.091908
v 1.275928 -2.051877 0.091908
v 1.301379 -2.084504 0.091908
v 1.314751 -2.112492 0.091908
v 1.323090 -2.154962 0.091908
v 1.320319 -2.199546 0.091908
v 1.307124 -2.238974 0.091908
v 1.284679 -2.272305 0.091908
v 1.254192 -2.298346 0.091908
v 1.216810 -2.315938 0.091908
v 1.172364 -2.324093 0.091908
v 1.111816 -2.319918 0.091908
v 1.043056 -2.294530 0.091908
v 1.042870 -2.220821 0.091908
v 1.088041 -2.245600 0.091908
v 1.138787 -2.256698 0.091908
v 1.170776 -2.255133 0.091908
v 1.207758 -2.242138 0.091908
v 1.235029 -2.217270 0.091908
v 1.249315 -2.191077 0.091908
v 1.251769 -2.151929 0.091908
v 1.236731 -2.117673 0.091908
v 1.214147 -2.095616 0.091908
v 1.182392 -2.080462 0.091908
v 1.142026 -2.073981 0.091908
v 1.079885 -2.080265 0.091908
v 1.079692 -1.824830 0.091908
v 1.298543 -1.824830 0.091908
v 1.298543 -1.888391 0.091908
v 1.143975 -1.888391 0.001908
v 1.143975 -2.011901 0.001908
v 1.184086 -2.012613 0.001908
v 1.229997 -2.024099 0.001908
v 1.267513 -2.045586 0.001908
v 1.295998 -2.075558 0.001908
v 1.314751 -2.112491 0.001908
v 1.323090 -2.154962 0.001908
v 1.318481 -2.210149 0.001908
v 1.296988 -2.256472 0.001908
v 1.262878 -2.292995 0.001908
v 1.216810 -2.315938 0.001908
v 1.156638 -2.324991 0.001908
v 1.097935 -2.315961 0.001908
v 1.043056 -2.294530 0.001908
v 1.042870 -2.220821 0.001908
v 1.088041 -2.245600 0.001908
v 1.153860 -2.257993 0.001908
v 1.201859 -2.244907 0.001908
v 1.231527 -2.222002 0.001908
v 1.249315 -2.191077 0.001908
v 1.251769 -2.151929 0.001908
v 1.236731 -2.117673 0.001908
v 1.214149 -2.095616 0.001908
v 1.173653 -2.077521 0.001908
v 1.118780 -2.074543 0.001908
v 1.079692 -2.081240 0.001908
v 1.079692 -1.824830 0.001908
v 1.298543 -1.824830 0.001908
v 1.298543 -1.888391 0.001908
v 1.143975 -1.888391 0.001908
v 1.143975 -1.888391 0.091908
v 1.163664 -2.004745 0.001908
v 1.144117 -2.011109 0.091908
v 1.238901 -2.025090 0.091908
v 1.307383 -2.083367 0.001908
v 1.311730 -2.098112 0.091908
v 1.320983 -2.203002 0.001908
v 1.314437 -2.239170 0.091908
v 1.263163 -2.298228 0.001908
v 1.206476 -2.321937 0.091908
v 1.141598 -2.324716 0.001908
v 1.062342 -2.307867 0.091908
v 1.043702 -2.296035 0.001908
v 1.044140 -2.223214 0.001908
v 1.043983 -2.223710 0.091908
v 1.138480 -2.259161 0.001908
v 1.175143 -2.262423 0.091908
v 1.220952 -2.234460 0.001908
v 1.252755 -2.186251 0.091908
v 1.256596 -2.161176 0.001908
v 1.226871 -2.099454 0.091908
v 1.213338 -2.093493 0.001908
v 1.087010 -2.072239 0.001908
v 1.086687 -2.074636 0.091908
v 1.079692 -1.824830 0.001908
v 1.079692 -1.824830 0.091908
v 1.298543 -1.824830 0.001908
v 1.298543 -1.824830 0.091908
v 1.298543 -1.888391 0.001908
v 1.298543 -1.888391 0.091908
v 2.193224 -1.185338 0.091908
v 2.193224 -1.248898 0.091908
v 2.140498 -1.248898 0.091908
v 2.140498 -1.410689 0.091908
v 2.069714 -1.410689 0.091908
v 2.069714 -1.248898 0.091908
v 1.860975 -1.248898 0.091908
v 1.860975 -1.216396 0.091908
v 2.110162 -0.911593 0.091908
v 2.140498 -0.911593 0.091908
v 2.140498 -1.185338 0.091908
v 2.069714 -1.185338 0.091908
v 2.069228 -1.045019 0.091908
v 1.955594 -1.185338 0.091908
v 2.193224 -1.185338 0.001908
v 2.193224 -1.248898 0.001908
v 2.140498 -1.248898 0.001908
v 2.140498 -1.410689 0.001908
v 2.069714 -1.410689 0.001908
v 2.069714 -1.248898 0.001908
v 1.860975 -1.248898 0.001908
v 1.860975 -1.216396 0.001908
v 2.110162 -0.911593 0.001908
v 2.140498 -0.911593 0.001908
v 2.140498 -1.185338 0.001908
v 2.069714 -1.185338 0.001908
v 2.069228 -1.045019 0.001908
v 1.955594 -1.185338 0.001908
v 2.175649 -1.185338 0.001908
v 2.158073 -1.185337 0.091908
v 2.158073 -1.248898 0.001908
v 2.175649 -1.248898 0.091908
v 2.140498 -1.410689 0.001908
v 2.140498 -1.410689 0.091908
v 2.069714 -1.410689 0.001908
v 2.069714 -1.410689 0.091908
v 2.069714 -1.248898 0.001908
v 2.069714 -1.248898 0.091908
v 1.856150 -1.237065 0.001908
v 1.857183 -1.244248 0.091908
v 2.134154 -0.908136 0.001908
v 2.125750 -0.907574 0.091908
v 2.069714 -1.185338 0.001908
v 2.069714 -1.185338 0.091908
v 2.069005 -1.045025 0.001908
v 2.069408 -1.045051 0.091908
v 1.955594 -1.185338 0.001908
v 1.955594 -1.185338 0.091908
v 1.839898 1.033792 0.091908
v 1.957832 1.181168 0.091908
v 2.006287 1.252808 0.091907
v 2.034705 1.304083 0.091908
v 2.046871 1.350264 0.091908
v 2.044697 1.394754 0.091908
v 2.033300 1.421986 0.091908
v 2.015270 1.443349 0.091908
v 1.985910 1.458612 0.091908
v 1.954529 1.461210 0.091908
v 1.917718 1.452453 0.091908
v 1.880938 1.427163 0.091908
v 1.851474 1.395258 0.091908
v 1.851821 1.485209 0.091908
v 1.910136 1.519876 0.091908
v 1.954247 1.530414 0.091908
v 1.999981 1.527951 0.091908
v 2.037855 1.515618 0.091908
v 2.076714 1.488424 0.091908
v 2.098744 1.457040 0.091908
v 2.110502 1.429928 0.091908
v 2.119158 1.369047 0.091908
v 2.100788 1.290733 0.091908
v 2.050449 1.205910 0.091909
v 1.965094 1.098636 0.091908
v 2.153343 1.098628 0.091908
v 2.153343 1.031456 0.091908
v 1.839899 1.033792 0.001908
v 1.976429 1.205612 0.001908
v 2.034702 1.304077 0.001908
v 2.046871 1.350264 0.001908
v 2.045685 1.388432 0.001908
v 2.036367 1.417208 0.001908
v 2.015270 1.443349 0.001908
v 1.985910 1.458612 0.001908
v 1.954529 1.461210 0.001908
v 1.917718 1.452453 0.001908
v 1.880938 1.427163 0.001908
v 1.851475 1.395259 0.001908
v 1.851821 1.485209 0.001908
v 1.910136 1.519876 0.001908
v 1.954246 1.530413 0.001908
v 2.010338 1.526212 0.001908
v 2.054512 1.506117 0.001908
v 2.089005 1.473976 0.001908
v 2.113697 1.420424 0.001908
v 2.117737 1.357328 0.001908
v 2.103833 1.299471 0.001908
v 2.061104 1.220364 0.001908
v 1.965094 1.098636 0.001908
v 2.153343 1.098628 0.001908
v 2.153343 1.031456 0.001908
v 1.844090 1.032824 0.001908
v 1.839710 1.033443 0.091908
v 2.022390 1.272227 0.091908
v 2.043657 1.321393 0.001908
v 2.048863 1.390072 0.091908
v 2.029337 1.437261 0.001908
v 2.003723 1.453170 0.091908
v 1.930157 1.459855 0.001908
v 1.932334 1.459160 0.091908
v 1.855314 1.403330 0.091908
v 1.852038 1.397825 0.001908
v 1.852101 1.485522 0.001908
v 1.851493 1.484209 0.091908
v 1.923972 1.526726 0.091908
v 1.931808 1.528413 0.001908
v 2.033051 1.520276 0.001908
v 2.055917 1.512807 0.091908
v 2.102028 1.456291 0.001908
v 2.122246 1.386419 0.091908
v 2.114426 1.308016 0.001908
v 2.085503 1.257849 0.091908
v 1.965605 1.098666 0.001908
v 1.965933 1.098746 0.091908
v 2.153343 1.098628 0.001908
v 2.153343 1.098628 0.091908
v 2.153343 1.031456 0.001908
v 2.153343 1.031456 0.091908
v 1.104283 1.853565 0.091908
v 1.104283 2.346160 0.091908
v 1.175067 2.346160 0.091908
v 1.175067 1.853565 0.091908
v 1.104283 1.853565 0.001908
v 1.104283 2.346160 0.001908
v 1.175067 2.346160 0.001908
v 1.175067 1.853565 0.001908
v 1.104283 1.853565 0.001908
v 1.104283 1.853565 0.091908
v 1.104283 2.346160 0.001908
v 1.104283 2.346160 0.091908
v 1.175067 2.346160 0.001908
v 1.175067 2.346160 0.091908
v 1.175067 1.853565 0.001908
v 1.175067 1.853565 0.091908
v -2.549370 -0.156486 0.088908
v -2.492409 -0.113159 0.088908
v -2.447731 -0.066376 0.088908
v -2.411631 -0.009705 0.088908
v -2.399479 0.028548 0.088908
v -2.422709 0.017329 0.088908
v -2.461752 0.007999 0.088908
v -2.504348 0.010317 0.088908
v -2.538932 0.022499 0.088908
v -2.568626 0.043047 0.088908
v -2.597280 0.078255 0.088908
v -2.612904 0.122280 0.088908
v -2.615366 0.160638 0.088908
v -2.605461 0.205256 0.088908
v -2.580837 0.245075 0.088908
v -2.552696 0.270836 0.088908
v -2.517626 0.288926 0.088908
v -2.476205 0.297407 0.088908
v -2.421706 0.292235 0.088908
v -2.367210 0.262156 0.088908
v -2.333839 0.220224 0.088908
v -2.312927 0.167376 0.088908
v -2.308429 0.102921 0.088908
v -2.321697 0.027592 0.088908
v -2.363045 -0.063503 0.088908
v -2.414841 -0.132133 0.088908
v -2.464863 -0.179409 0.088908
v -2.506320 -0.208207 0.088908
v -2.451091 0.075097 0.088908
v -2.418320 0.083320 0.088908
v -2.383877 0.102077 0.088908
v -2.381595 0.157284 0.088908
v -2.404741 0.204912 0.088908
v -2.446895 0.229288 0.088908
v -2.496979 0.225536 0.088908
v -2.528810 0.201164 0.088908
v -2.543941 0.168706 0.088908
v -2.543099 0.136711 0.088908
v -2.533659 0.113202 0.088908
v -2.512304 0.090737 0.088908
v -2.483083 0.077230 0.088908
v -2.549370 -0.156486 0.004908
v -2.483608 -0.105560 0.004908
v -2.423753 -0.033600 0.004908
v -2.399228 0.028072 0.004908
v -2.432676 0.014138 0.004908
v -2.465120 0.007830 0.004908
v -2.504348 0.010317 0.004908
v -2.538932 0.022499 0.004908
v -2.568626 0.043047 0.004908
v -2.597280 0.078255 0.004908
v -2.612904 0.122280 0.004908
v -2.615366 0.160638 0.004908
v -2.605461 0.205256 0.004908
v -2.574723 0.252617 0.004908
v -2.535965 0.280967 0.004908
v -2.487101 0.296921 0.004908
v -2.432182 0.294272 0.004908
v -2.392922 0.279485 0.004908
v -2.352296 0.247218 0.004908
v -2.323966 0.200214 0.004908
v -2.311119 0.155199 0.004908
v -2.308429 0.102924 0.004908
v -2.321697 0.027592 0.004908
v -2.363045 -0.063503 0.004908
v -2.414841 -0.132133 0.004908
v -2.464863 -0.179409 0.004908
v -2.506320 -0.208207 0.004908
v -2.424873 0.080600 0.004908
v -2.384334 0.101663 0.004908
v -2.381119 0.150524 0.004908
v -2.392184 0.185772 0.004908
v -2.413279 0.211810 0.004908
v -2.436740 0.225409 0.004908
v -2.468455 0.231048 0.004908
v -2.505876 0.220436 0.004908
v -2.532095 0.197353 0.004908
v -2.544412 0.163168 0.004908
v -2.543099 0.136711 0.004908
v -2.533659 0.113202 0.004908
v -2.508111 0.087483 0.004908
v -2.467422 0.074348 0.004908
v -2.453339 -0.078876 0.004908
v -2.549448 -0.156420 0.088908
v -2.468857 -0.092388 0.088908
v -2.399030 0.022759 0.088908
v -2.398426 0.028330 0.004908
v -2.470826 0.005041 0.004908
v -2.491122 0.007583 0.088908
v -2.564896 0.037162 0.004908
v -2.568232 0.038584 0.088908
v -2.613606 0.115627 0.004908
v -2.620124 0.147605 0.088908
v -2.599018 0.226984 0.004908
v -2.583249 0.243982 0.088908
v -2.514999 0.291243 0.004908
v -2.511000 0.293608 0.088908
v -2.418041 0.293154 0.004908
v -2.394666 0.284826 0.088908
v -2.317222 0.201641 0.004908
v -2.309659 0.173234 0.088908
v -2.317416 0.039496 0.004908
v -2.328537 0.002346 0.088908
v -2.404324 -0.127768 0.004908
v -2.422354 -0.143580 0.088908
v -2.506320 -0.208207 0.004908
v -2.506320 -0.208207 0.088908
v -2.549657 -0.156203 0.004908
v -2.386503 0.094901 0.004908
v -2.384585 0.101401 0.088908
v -2.380990 0.155428 0.004908
v -2.381129 0.163646 0.088908
v -2.422614 0.223661 0.004908
v -2.425190 0.222084 0.088908
v -2.506600 0.224539 0.088908
v -2.508735 0.221337 0.004908
v -2.543620 0.172531 0.004908
v -2.547482 0.153613 0.088908
v -2.535034 0.111208 0.004908
v -2.518868 0.094025 0.088908
v -2.476584 0.074307 0.004908
v -2.448527 0.073155 0.088908
v 2.298417 0.276555 0.091908
v 2.335412 0.291122 0.091908
v 2.393688 0.298050 0.091908
v 2.444309 0.291172 0.091908
v 2.478109 0.277382 0.091908
v 2.511094 0.250763 0.091908
v 2.531233 0.214085 0.091908
v 2.537959 0.180862 0.091908
v 2.535159 0.129556 0.091908
v 2.518478 0.093613 0.091908
v 2.496597 0.071606 0.091908
v 2.476239 0.058609 0.091908
v 2.502497 0.044752 0.091908
v 2.522816 0.024084 0.091908
v 2.542655 -0.019509 0.091908
v 2.545946 -0.071609 0.091908
v 2.538394 -0.110212 0.091908
v 2.521282 -0.144917 0.091908
v 2.495825 -0.173052 0.091908
v 2.454201 -0.197891 0.091908
v 2.399750 -0.208465 0.091908
v 2.344725 -0.203341 0.091908
v 2.286174 -0.180404 0.091908
v 2.286213 -0.104054 0.091908
v 2.337582 -0.131070 0.091908
v 2.377893 -0.140184 0.091908
v 2.414907 -0.140090 0.091908
v 2.446767 -0.126197 0.091908
v 2.468366 -0.100184 0.091908
v 2.475847 -0.061690 0.091908
v 2.469097 -0.027969 0.091908
v 2.449388 -0.001273 0.091908
v 2.410604 0.017977 0.091908
v 2.369915 0.020034 0.091908
v 2.369915 0.085039 0.091908
v 2.408361 0.088062 0.091908
v 2.439177 0.101057 0.091908
v 2.457006 0.117794 0.091908
v 2.466011 0.140242 0.091908
v 2.467158 0.167996 0.091908
v 2.459435 0.191809 0.091908
v 2.444818 0.210620 0.091908
v 2.418141 0.225332 0.091908
v 2.369669 0.230684 0.091908
v 2.299026 0.210816 0.091908
v 2.320902 0.286278 0.001908
v 2.367466 0.296884 0.001908
v 2.425065 0.295262 0.001908
v 2.470805 0.281772 0.001908
v 2.505054 0.256680 0.001908
v 2.524524 0.229712 0.001908
v 2.537385 0.190350 0.001908
v 2.535159 0.129556 0.001908
v 2.513094 0.085839 0.001908
v 2.476425 0.058542 0.001908
v 2.511440 0.038077 0.001908
v 2.539214 -0.007278 0.001908
v 2.546628 -0.064836 0.001908
v 2.538394 -0.110212 0.001908
v 2.516095 -0.152927 0.001908
v 2.480284 -0.184333 0.001908
v 2.444221 -0.200769 0.001908
v 2.399750 -0.208465 0.001908
v 2.344725 -0.203341 0.001908
v 2.286174 -0.180404 0.001908
v 2.286213 -0.104054 0.001908
v 2.328197 -0.126935 0.001908
v 2.368979 -0.139262 0.001908
v 2.414907 -0.140090 0.001908
v 2.446767 -0.126197 0.001908
v 2.463089 -0.108330 0.001908
v 2.473177 -0.085204 0.001908
v 2.475334 -0.055866 0.001908
v 2.469097 -0.027969 0.001908
v 2.449388 -0.001273 0.001908
v 2.410604 0.017977 0.001908
v 2.369915 0.020034 0.001908
v 2.369915 0.085039 0.001908
v 2.408361 0.088062 0.001908
v 2.443769 0.103917 0.001908
v 2.461664 0.125988 0.001908
v 2.468152 0.162331 0.001908
v 2.459435 0.191809 0.001908
v 2.444818 0.210620 0.001908
v 2.418141 0.225332 0.001908
v 2.387226 0.230349 0.001908
v 2.353141 0.228035 0.001908
v 2.298666 0.210210 0.001908
v 2.298409 0.276444 0.001908
v 2.319836 0.289671 0.001908
v 2.310997 0.287455 0.091908
v 2.467670 0.286005 0.001908
v 2.489846 0.278605 0.091908
v 2.526575 0.228275 0.001908
v 2.539377 0.180691 0.091908
v 2.536379 0.121493 0.001908
v 2.522301 0.093920 0.091908
v 2.478275 0.058131 0.001908
v 2.480351 0.059118 0.091908
v 2.520640 0.029507 0.001908
v 2.543625 -0.008898 0.091908
v 2.549146 -0.057159 0.001908
v 2.529701 -0.135545 0.091908
v 2.504350 -0.171891 0.001908
v 2.427112 -0.212226 0.091908
v 2.389995 -0.210255 0.001908
v 2.287365 -0.182935 0.001908
v 2.289007 -0.183818 0.091908
v 2.286154 -0.103699 0.001908
v 2.286179 -0.103957 0.091908
v 2.354272 -0.138139 0.001908
v 2.378062 -0.144612 0.091908
v 2.455300 -0.125562 0.001908
v 2.457490 -0.118540 0.091908
v 2.477592 -0.050066 0.091908
v 2.470079 -0.016998 0.001908
v 2.437991 0.009001 0.091908
v 2.371695 0.023075 0.001908
v 2.370131 0.020724 0.091908
v 2.369915 0.085039 0.001908
v 2.370990 0.082792 0.091908
v 2.430283 0.093278 0.001908
v 2.459601 0.114152 0.091908
v 2.473317 0.163823 0.001908
v 2.451433 0.212729 0.091908
v 2.403661 0.233672 0.001908
v 2.319934 0.222191 0.091908
v 2.298814 0.210648 0.001908
v 0.057335 -2.219444 0.091908
v 0.002964 -2.269272 0.091908
v -0.043905 -2.336391 0.091908
v -0.059691 -2.377518 0.091908
v -0.031998 -2.365849 0.091909
v 0.000426 -2.358099 0.091908
v 0.045934 -2.360295 0.091908
v 0.088383 -2.376145 0.091908
v 0.121977 -2.405439 0.091908
v 0.141409 -2.435966 0.091908
v 0.152877 -2.471793 0.091908
v 0.155239 -2.511793 0.091908
v 0.147490 -2.549340 0.091908
v 0.130417 -2.583441 0.091908
v 0.098528 -2.618531 0.091908
v 0.057117 -2.640967 0.091908
v 0.020167 -2.648806 0.091908
v -0.024199 -2.645921 0.091908
v -0.073660 -2.627475 0.091908
v -0.111700 -2.592905 0.091908
v -0.137890 -2.546249 0.091908
v -0.148733 -2.487730 0.091908
v -0.144056 -2.412812 0.091908
v -0.120523 -2.337690 0.091908
v -0.089928 -2.280327 0.091908
v -0.048695 -2.226334 0.091908
v 0.002792 -2.176804 0.091908
v 0.048393 -2.143255 0.091908
v 0.091007 -2.197426 0.091908
v 0.022596 -2.581111 0.091908
v 0.059748 -2.563439 0.091908
v 0.079130 -2.534267 0.091908
v 0.084542 -2.506476 0.091908
v 0.081021 -2.475065 0.091908
v 0.061689 -2.446372 0.091908
v 0.035711 -2.430333 0.091908
v 0.007692 -2.424829 0.091908
v -0.037079 -2.429365 0.091908
v -0.076142 -2.451910 0.091908
v -0.078962 -2.497517 0.091908
v -0.068893 -2.534894 0.091908
v -0.042598 -2.566286 0.091908
v -0.013215 -2.579634 0.091908
v 0.040850 -2.231649 0.001908
v -0.022980 -2.302025 0.001908
v -0.061451 -2.378226 0.001908
v -0.009521 -2.358971 0.001908
v 0.045934 -2.360295 0.001908
v 0.080338 -2.372266 0.001908
v 0.109617 -2.392548 0.001908
v 0.132617 -2.419968 0.001908
v 0.148207 -2.453289 0.001908
v 0.156140 -2.502181 0.001908
v 0.144585 -2.558310 0.001908
v 0.118870 -2.598513 0.001908
v 0.090717 -2.623695 0.001908
v 0.057117 -2.640967 0.001908
v 0.020164 -2.648805 0.001908
v -0.024204 -2.645919 0.001908
v -0.064316 -2.632021 0.001908
v -0.097773 -2.608200 0.001908
v -0.123625 -2.575493 0.001908
v -0.140952 -2.534858 0.001908
v -0.148733 -2.487730 0.001908
v -0.144056 -2.412812 0.001908
v -0.120523 -2.337690 0.001908
v -0.089928 -2.280327 0.001908
v -0.048695 -2.226334 0.001908
v 0.002792 -2.176804 0.001908
v 0.048393 -2.143255 0.001908
v 0.091007 -2.197426 0.001908
v 0.022596 -2.581111 0.001908
v 0.051453 -2.568970 0.001908
v 0.069451 -2.552178 0.001908
v 0.083869 -2.518468 0.001908
v 0.081020 -2.475065 0.001908
v 0.061689 -2.446372 0.001908
v 0.030856 -2.428254 0.001908
v -0.007030 -2.424932 0.001908
v -0.040335 -2.431253 0.001908
v -0.076097 -2.451571 0.001908
v -0.078962 -2.497518 0.001908
v -0.068893 -2.534894 0.001908
v -0.042598 -2.566286 0.001908
v -0.013215 -2.579634 0.001908
v 0.068680 -2.203020 0.001908
v 0.087602 -2.195518 0.091908
v -0.022731 -2.299911 0.091908
v -0.055688 -2.368758 0.001908
v -0.057901 -2.374465 0.091908
v 0.024456 -2.356431 0.091908
v 0.084051 -2.370643 0.001908
v 0.124028 -2.398953 0.091908
v 0.162804 -2.485265 0.001908
v 0.155677 -2.537955 0.091908
v 0.097951 -2.623956 0.001908
v 0.077708 -2.635353 0.091908
v -0.005056 -2.650086 0.001908
v -0.064728 -2.639797 0.091908
v -0.102174 -2.609169 0.001908
v -0.141055 -2.539159 0.091908
v -0.147729 -2.509961 0.001908
v -0.146914 -2.418232 0.091908
v -0.134069 -2.362814 0.001908
v -0.068693 -2.242348 0.091908
v -0.035482 -2.208910 0.001908
v 0.048393 -2.143255 0.001908
v 0.048393 -2.143255 0.091908
v 0.065976 -2.565378 0.091908
v 0.062701 -2.564344 0.001908
v 0.083448 -2.466266 0.001908
v 0.076694 -2.456473 0.091908
v -0.007959 -2.421918 0.001908
v -0.020456 -2.423142 0.091908
v -0.084394 -2.458222 0.001908
v -0.086889 -2.482188 0.091908
v -0.033387 -2.578664 0.001908
v -0.028626 -2.577047 0.091908
usemtl black
s off
f 2 34 35 3
f 3 35 36 4
f 4 36 37 5
f 5 37 38 6
f 6 38 39 7
f 7 39 40 8
f 8 40 41 9
f 9 41 42 10
f 10 42 43 11
f 11 43 44 12
f 12 44 45 13
f 13 45 46 14
f 14 46 47 15
f 16 15 47 48
f 17 16 48 49
f 18 17 49 50
f 19 18 50 51
f 20 19 51 52
f 21 20 52 53
f 22 21 53 54
f 23 22 54 55
f 24 23 55 56
f 25 24 56 57
f 26 25 57 58
f 27 26 58 59
f 28 27 59 60
f 29 28 60 61
f 30 29 61 62
f 31 30 62 63
f 32 31 63 64
f 64 33 1 32
f 33 64 65 96
f 65 64 63 66
f 66 63 62 67
f 67 62 61 68
f 68 61 60 69
f 69 60 59 70
f 70 59 58 71
f 71 58 57 72
f 72 57 56 73
f 73 56 55 74
f 74 55 54 75
f 75 54 53 76
f 76 53 52 77
f 77 52 51 78
f 78 51 50 79
f 79 50 49 80
f 49 48 81 80
f 48 47 82 81
f 47 46 83 82
f 46 45 84 83
f 45 44 85 84
f 44 43 86 85
f 43 42 87 86
f 42 41 88 87
f 41 40 89 88
f 40 39 90 89
f 39 38 91 90
f 38 37 92 91
f 37 36 93 92
f 36 35 94 93
f 35 34 95 94
f 34 33 96 95
f 95 96 128 127
f 94 95 127 126
f 93 94 126 125
f 92 93 125 124
f 91 92 124 123
f 90 91 123 122
f 89 90 122 121
f 88 89 121 120
f 87 88 120 119
f 86 87 119 118
f 85 86 118 117
f 84 85 117 116
f 83 84 116 115
f 114 82 83 115
f 113 81 82 114
f 112 80 81 113
f 111 79 80 112
f 110 78 79 111
f 109 77 78 110
f 108 76 77 109
f 107 75 76 108
f 106 74 75 107
f 105 73 74 106
f 104 72 73 105
f 103 71 72 104
f 102 70 71 103
f 101 69 70 102
f 100 68 69 101
f 99 67 68 100
f 98 66 67 99
f 97 65 66 98
f 65 97 128 96
f 129 131 132 130
f 130 132 133 135
f 134 131 129 136
f 133 132 131 134
f 136 129 130 135
f 133 134 136 135
f 137 139 140 138
f 138 140 141 143
f 139 137 144 142
f 140 139 142 141
f 137 138 143 144
f 141 142 144 143
f 153 154 150 146
f 153 146 147
f 154 151 150
f 153 147 148
f 154 152 151
f 153 148 145
f 154 149 152
f 149 154 153
f 150 151 147
f 151 152 148
f 200 202 201
f 200 203 202
f 199 203 200
f 199 204 203
f 198 204 199
f 197 196 198
f 196 195 198
f 195 204 198
f 195 194 204
f 194 205 204
f 193 205 194
f 193 206 205
f 192 206 193
f 192 207 206
f 191 207 192
f 191 208 207
f 190 208 191
f 189 208 190
f 189 209 208
f 188 209 189
f 188 210 209
f 188 211 210
f 187 211 188
f 187 212 211
f 187 213 212
f 214 216 215
f 214 217 216
f 233 231 232
f 233 230 231
f 234 230 233
f 234 229 230
f 235 229 234
f 227 228 229
f 226 227 229
f 225 226 229
f 235 225 229
f 236 225 235
f 236 224 225
f 237 224 236
f 237 223 224
f 238 223 237
f 238 222 223
f 239 222 238
f 239 221 222
f 239 220 221
f 240 220 239
f 240 219 220
f 241 219 240
f 242 219 241
f 242 218 219
f 243 218 242
f 244 218 243
f 247 245 246
f 248 245 247
f 284 286 285
f 284 287 286
f 288 290 289
f 288 291 290
f 294 292 293
f 295 292 294
f 298 296 297
f 299 296 298
f 325 327 326
f 325 328 327
f 324 328 325
f 324 329 328
f 323 329 324
f 355 329 323
f 323 338 355
f 354 329 355
f 354 330 329
f 322 338 323
f 322 339 338
f 353 330 354
f 352 330 353
f 322 340 339
f 352 331 330
f 322 341 340
f 321 341 322
f 351 331 352
f 321 342 341
f 351 332 331
f 320 342 321
f 350 332 351
f 320 343 342
f 350 333 332
f 319 343 320
f 349 333 350
f 319 344 343
f 349 334 333
f 318 344 319
f 348 334 349
f 318 345 344
f 347 334 348
f 318 346 345
f 346 334 347
f 318 334 346
f 318 335 334
f 317 335 318
f 317 336 335
f 316 336 317
f 316 337 336
f 356 358 357
f 356 359 358
f 371 369 370
f 372 369 371
f 372 368 369
f 373 368 372
f 373 367 368
f 373 382 367
f 373 399 382
f 383 367 382
f 374 399 373
f 383 366 367
f 374 398 399
f 384 366 383
f 374 397 398
f 385 366 384
f 375 397 374
f 385 365 366
f 386 365 385
f 375 396 397
f 387 365 386
f 376 396 375
f 387 364 365
f 376 395 396
f 388 364 387
f 377 395 376
f 377 394 395
f 388 363 364
f 389 363 388
f 377 393 394
f 378 393 377
f 389 362 363
f 378 392 393
f 390 362 389
f 391 362 390
f 379 392 378
f 379 391 392
f 379 362 391
f 379 361 362
f 380 361 379
f 380 360 361
f 381 360 380
f 402 400 401
f 403 400 402
f 460 462 461
f 460 463 462
f 459 463 460
f 459 464 463
f 458 464 459
f 458 465 464
f 458 492 465
f 458 480 492
f 457 480 458
f 492 466 465
f 491 466 492
f 457 481 480
f 456 481 457
f 490 466 491
f 456 482 481
f 489 466 490
f 489 467 466
f 455 482 456
f 455 483 482
f 488 467 489
f 455 484 483
f 454 484 455
f 488 468 467
f 487 468 488
f 454 485 484
f 486 468 487
f 453 485 454
f 453 486 485
f 453 468 486
f 453 469 468
f 453 470 469
f 452 470 453
f 452 471 470
f 451 471 452
f 451 508 471
f 508 472 471
f 451 493 508
f 507 472 508
f 450 493 451
f 506 472 507
f 450 494 493
f 505 472 506
f 450 495 494
f 505 473 472
f 450 496 495
f 504 473 505
f 449 496 450
f 504 474 473
f 449 497 496
f 503 474 504
f 448 497 449
f 503 475 474
f 448 498 497
f 502 475 503
f 502 476 475
f 501 476 502
f 448 499 498
f 500 476 501
f 448 500 499
f 447 500 448
f 447 476 500
f 447 477 476
f 446 477 447
f 446 478 477
f 445 478 446
f 445 479 478
f 526 524 525
f 526 523 524
f 527 523 526
f 527 522 523
f 528 522 527
f 555 522 528
f 528 554 555
f 555 521 522
f 542 521 555
f 529 554 528
f 529 553 554
f 543 521 542
f 529 552 553
f 543 520 521
f 530 552 529
f 530 551 552
f 544 520 543
f 544 519 520
f 545 519 544
f 530 550 551
f 531 550 530
f 546 519 545
f 531 549 550
f 546 518 519
f 547 518 546
f 531 548 549
f 532 548 531
f 547 517 518
f 532 547 548
f 532 517 547
f 533 517 532
f 533 516 517
f 534 516 533
f 534 515 516
f 570 515 534
f 556 515 570
f 534 569 570
f 535 569 534
f 556 514 515
f 557 514 556
f 558 514 557
f 535 568 569
f 536 568 535
f 559 514 558
f 559 513 514
f 536 567 568
f 560 513 559
f 536 566 567
f 560 512 513
f 537 566 536
f 561 512 560
f 537 565 566
f 538 565 537
f 538 564 565
f 562 512 561
f 538 563 564
f 563 512 562
f 563 511 512
f 538 511 563
f 539 511 538
f 539 510 511
f 540 510 539
f 540 509 510
f 541 509 540
f 625 627 626
f 625 624 627
f 624 628 627
f 623 628 624
f 633 631 632
f 630 631 633
f 634 630 633
f 634 629 630
f 675 647 676
f 647 677 676
f 647 678 677
f 675 648 647
f 675 649 648
f 675 650 649
f 675 651 650
f 675 674 651
f 674 652 651
f 673 652 674
f 672 652 673
f 672 653 652
f 671 653 672
f 671 654 653
f 670 654 671
f 670 655 654
f 669 655 670
f 668 655 669
f 668 656 655
f 667 656 668
f 662 664 663
f 667 657 656
f 666 657 667
f 662 665 664
f 665 657 666
f 662 657 665
f 662 658 657
f 662 659 658
f 661 659 662
f 661 660 659
f 679 705 706
f 707 679 706
f 708 679 707
f 680 705 679
f 681 705 680
f 682 705 681
f 683 705 682
f 704 705 683
f 684 704 683
f 703 704 684
f 684 702 703
f 685 702 684
f 685 701 702
f 686 701 685
f 686 700 701
f 687 700 686
f 687 699 700
f 687 698 699
f 695 693 694
f 688 698 687
f 688 697 698
f 688 696 697
f 696 693 695
f 688 693 696
f 689 693 688
f 690 693 689
f 690 692 693
f 691 692 690
f 747 749 748
f 747 752 749
f 752 750 749
f 747 753 752
f 751 750 752
f 747 751 753
f 747 750 751
f 747 740 750
f 747 741 740
f 746 741 747
f 745 741 746
f 744 742 745
f 742 741 745
f 744 743 742
f 763 761 762
f 766 761 763
f 764 766 763
f 767 761 766
f 764 765 766
f 765 761 767
f 764 761 765
f 754 761 764
f 755 761 754
f 755 760 761
f 755 759 760
f 756 758 759
f 755 756 759
f 757 758 756
f 802 804 803
f 802 805 804
f 802 806 805
f 801 806 802
f 800 799 801
f 799 798 801
f 798 797 801
f 797 806 801
f 797 807 806
f 796 807 797
f 796 808 807
f 795 808 796
f 794 808 795
f 794 809 808
f 793 809 794
f 792 809 793
f 792 810 809
f 791 810 792
f 790 810 791
f 790 811 810
f 789 811 790
f 789 812 811
f 788 812 789
f 788 813 812
f 788 814 813
f 830 828 829
f 831 828 830
f 831 827 828
f 832 827 831
f 825 826 827
f 824 825 827
f 823 824 827
f 832 823 827
f 832 822 823
f 833 822 832
f 833 821 822
f 833 820 821
f 833 819 820
f 834 819 833
f 834 818 819
f 835 818 834
f 835 817 818
f 836 817 835
f 836 816 817
f 837 816 836
f 837 815 816
f 838 815 837
f 839 815 838
f 867 869 868
f 867 870 869
f 873 871 872
f 874 871 873
f 899 901 900
f 898 901 899
f 898 902 901
f 897 902 898
f 897 903 902
f 896 917 897
f 917 916 897
f 916 903 897
f 915 903 916
f 896 918 917
f 915 904 903
f 896 919 918
f 895 919 896
f 914 904 915
f 895 920 919
f 894 920 895
f 914 905 904
f 913 905 914
f 894 921 920
f 893 921 894
f 893 922 921
f 912 905 913
f 912 906 905
f 893 923 922
f 911 906 912
f 893 911 923
f 893 906 911
f 892 906 893
f 891 887 892
f 887 906 892
f 886 906 887
f 891 888 887
f 890 888 891
f 890 889 888
f 886 907 906
f 885 907 886
f 884 907 885
f 884 908 907
f 883 908 884
f 883 909 908
f 910 909 883
f 940 938 939
f 941 938 940
f 941 937 938
f 942 937 941
f 957 936 937
f 942 957 937
f 942 956 957
f 943 956 942
f 958 936 957
f 943 955 956
f 959 936 958
f 943 954 955
f 944 954 943
f 959 935 936
f 960 935 959
f 944 953 954
f 961 935 960
f 961 934 935
f 945 953 944
f 962 934 961
f 945 952 953
f 962 933 934
f 963 933 962
f 945 951 952
f 946 951 945
f 964 933 963
f 946 964 951
f 946 933 964
f 946 932 933
f 927 931 932
f 946 927 932
f 928 931 927
f 928 930 931
f 946 926 927
f 929 930 928
f 947 926 946
f 947 925 926
f 948 925 947
f 948 924 925
f 949 924 948
f 949 950 924
f 1006 1008 1007
f 1006 1009 1008
f 1005 1009 1006
f 1049 1009 1005
f 1049 1048 1009
f 1048 1010 1009
f 1048 1011 1010
f 1047 1011 1048
f 1046 1011 1047
f 1046 1012 1011
f 1045 1012 1046
f 1044 1012 1045
f 1044 1013 1012
f 1043 1013 1044
f 1042 1013 1043
f 1042 1014 1013
f 1041 1014 1042
f 1040 1014 1041
f 1040 1015 1014
f 1039 1015 1040
f 1038 1015 1039
f 1038 1016 1015
f 1038 1017 1016
f 1038 1018 1017
f 1038 1037 1018
f 1037 1019 1018
f 1036 1019 1037
f 1035 1019 1036
f 1034 1019 1035
f 1034 1020 1019
f 1033 1020 1034
f 1033 1021 1020
f 1032 1021 1033
f 1027 1029 1028
f 1032 1022 1021
f 1031 1022 1032
f 1027 1030 1029
f 1027 1031 1030
f 1027 1022 1031
f 1027 1023 1022
f 1027 1024 1023
f 1026 1024 1027
f 1026 1025 1024
f 1053 1051 1052
f 1053 1050 1051
f 1053 1093 1050
f 1053 1092 1093
f 1091 1092 1053
f 1054 1091 1053
f 1090 1091 1054
f 1055 1090 1054
f 1055 1089 1090
f 1056 1089 1055
f 1056 1088 1089
f 1056 1087 1088
f 1056 1086 1087
f 1057 1086 1056
f 1057 1085 1086
f 1057 1084 1085
f 1058 1084 1057
f 1058 1083 1084
f 1058 1082 1083
f 1058 1081 1082
f 1059 1081 1058
f 1060 1081 1059
f 1080 1081 1060
f 1061 1080 1060
f 1061 1079 1080
f 1 33 34 2
f 1061 1078 1079
f 1062 1078 1061
f 1062 1077 1078
f 1062 1076 1077
f 1063 1076 1062
f 1063 1075 1076
f 1063 1074 1075
f 1071 1069 1070
f 1064 1074 1063
f 1064 1073 1074
f 1072 1069 1071
f 1073 1069 1072
f 1064 1069 1073
f 1065 1069 1064
f 1065 1068 1069
f 1066 1068 1065
f 1067 1068 1066
f 1159 1161 1160
f 1158 1161 1159
f 1158 1133 1161
f 1158 1134 1133
f 1157 1134 1158
f 1157 1135 1134
f 1156 1135 1157
f 1155 1135 1156
f 1155 1136 1135
f 1137 1139 1138
f 1137 1140 1139
f 1136 1140 1137
f 1155 1140 1136
f 1155 1141 1140
f 1170 1141 1155
f 1170 1169 1141
f 1169 1142 1141
f 1168 1142 1169
f 1167 1142 1168
f 1154 1170 1155
f 1167 1143 1142
f 1154 1171 1170
f 1166 1143 1167
f 1154 1172 1171
f 1166 1144 1143
f 1165 1144 1166
f 1153 1172 1154
f 1153 1173 1172
f 1164 1144 1165
f 1164 1145 1144
f 1163 1145 1164
f 1153 1174 1173
f 1163 1146 1145
f 1152 1174 1153
f 1162 1146 1163
f 1152 1175 1174
f 1152 1162 1175
f 1152 1146 1162
f 1152 1147 1146
f 1151 1147 1152
f 1151 1148 1147
f 1150 1148 1151
f 1150 1149 1148
f 1203 1201 1202
f 1203 1200 1201
f 1176 1200 1203
f 1176 1199 1200
f 1177 1199 1176
f 1177 1198 1199
f 1178 1198 1177
f 1178 1197 1198
f 1181 1179 1180
f 1181 1178 1179
f 1182 1178 1181
f 1182 1197 1178
f 1183 1197 1182
f 1183 1211 1197
f 1183 1210 1211
f 1212 1197 1211
f 1184 1210 1183
f 1184 1209 1210
f 1213 1197 1212
f 1213 1196 1197
f 1184 1208 1209
f 1185 1208 1184
f 1214 1196 1213
f 1185 1207 1208
f 1214 1195 1196
f 1215 1195 1214
f 1186 1207 1185
f 1186 1206 1207
f 1215 1194 1195
f 1216 1194 1215
f 1186 1205 1206
f 1186 1204 1205
f 1217 1194 1216
f 1187 1204 1186
f 1204 1194 1217
f 1187 1194 1204
f 1187 1193 1194
f 1188 1193 1187
f 1188 1192 1193
f 1189 1192 1188
f 1189 1191 1192
f 1190 1191 1189
f 145 149 153
f 146 150 147
f 147 151 148
f 148 152 145
f 149 145 152
s 1
f 250 252 251 249
f 252 254 253 251
f 254 256 255 253
f 256 250 249 255
f 267 269 268 266
f 258 259 257
f 261 262 259
f 263 264 262
f 265 266 264
f 270 273 272 271
f 270 271 268
f 276 279 278 277
f 274 275 272
f 276 277 275
f 279 281 280 278
f 281 283 282 280
f 283 258 257 282
f 301 303 302 300
f 303 305 304 302
f 305 307 306 304
f 307 301 300 306
f 309 311 310 308
f 311 313 312 310
f 313 315 314 312
f 315 309 308 314
f 405 407 406 404
f 407 409 408 406
f 409 411 410 408
f 411 405 404 410
f 416 418 417 415
f 414 415 412
f 423 426 425 424
f 418 419 417
f 421 422 419
f 423 424 422
f 433 435 434 432
f 427 428 425
f 413 412 428
f 429 430 444
f 431 432 430
f 435 437 436 434
f 441 443 442 440
f 437 438 436
f 439 440 438
f 593 596 595 594
f 443 444 442
f 597 572 571
f 573 574 572
f 575 576 574
f 577 578 576
f 579 580 578
f 582 583 580
f 582 584 583
f 585 586 584
f 587 588 586
f 589 590 588
f 591 592 590
f 593 594 592
f 636 638 637 635
f 597 571 595
f 600 601 598
f 602 603 601
f 604 605 603
f 606 607 605
f 608 609 607
f 610 598 609
f 622 611 621
f 612 613 611
f 614 615 613
f 616 617 615
f 618 619 617
f 620 621 619
f 638 640 639 637
f 640 642 641 639
f 642 644 643 641
f 644 646 645 643
f 646 636 635 645
f 710 712 711 709
f 715 717 716 714
f 713 714 711
f 721 724 723 722
f 717 718 716
f 719 720 718
f 721 722 720
f 733 735 734 732
f 724 725 723
f 726 727 725
f 728 729 727
f 730 731 729
f 730 732 731
f 735 737 736 734
f 737 739 738 736
f 739 710 709 738
f 769 771 770 768
f 771 773 772 770
f 773 775 774 772
f 775 777 776 774
f 777 779 778 776
f 779 781 780 778
f 781 769 768 780
f 783 785 784 782
f 785 787 786 784
f 787 783 782 786
f 849 852 851 850
f 842 843 840
f 844 845 843
f 846 847 845
f 849 850 847
f 853 856 855 854
f 853 854 851
f 860 862 861 859
f 856 857 855
f 858 859 857
f 862 864 863 861
f 864 866 865 863
f 866 841 840 865
f 876 878 877 875
f 878 880 879 877
f 880 882 881 879
f 882 876 875 881
f 971 973 972 970
f 968 969 965
f 968 970 969
f 977 979 978 976
f 973 974 972
f 975 976 974
f 987 989 988 986
f 979 980 978
f 981 982 980
f 983 984 982
f 985 986 984
f 989 966 990 988
f 992 994 993 991
f 966 965 990
f 1004 991 1003
f 1095 1097 1096 1094
f 994 995 993
f 997 998 995
f 997 999 998
f 1000 1001 999
f 1002 1003 1001
f 1109 1112 1111 1110
f 1097 1098 1096
f 1099 1100 1098
f 1101 1102 1100
f 1103 1104 1102
f 1105 1106 1104
f 1107 1108 1106
f 1109 1110 1108
f 1112 1114 1113 1111
f 1123 1125 1124 1122
f 1114 1115 1113
f 1116 1117 1115
f 1119 1120 1117
f 1121 1122 1120
f 1131 1095 1094 1132
f 1125 1126 1124
f 1127 1128 1126
f 1129 1130 1128
f 1131 1132 1130
f 1237 1240 1239 1238
f 1220 1221 1218
f 1223 1224 1221
f 1225 1226 1224
f 1227 1228 1226
f 1229 1230 1228
f 1231 1232 1230
f 1233 1234 1232
f 1235 1236 1234
f 1237 1238 1236
f 1240 1219 1218 1239
f 1241 1242 1249
f 1241 1243 1242
f 1244 1245 1243
f 1246 1247 1245
f 1248 1249 1247
f 258 260 259
f 260 261 259
f 261 263 262
f 263 265 264
f 265 267 266
f 269 270 268
f 273 274 272
f 274 276 275
f 413 414 412
f 414 416 415
f 418 420 419
f 420 421 419
f 421 423 422
f 426 427 425
f 427 413 428
f 429 431 430
f 431 433 432
f 437 439 438
f 439 441 440
f 443 429 444
f 597 573 572
f 573 575 574
f 575 577 576
f 577 579 578
f 579 581 580
f 581 582 580
f 582 585 584
f 585 587 586
f 587 589 588
f 589 591 590
f 591 593 592
f 596 597 595
f 610 599 598
f 599 600 598
f 600 602 601
f 602 604 603
f 604 606 605
f 606 608 607
f 608 610 609
f 622 612 611
f 612 614 613
f 614 616 615
f 616 618 617
f 618 620 619
f 620 622 621
f 712 713 711
f 713 715 714
f 717 719 718
f 719 721 720
f 724 726 725
f 726 728 727
f 728 730 729
f 730 733 732
f 841 842 840
f 842 844 843
f 844 846 845
f 846 848 847
f 848 849 847
f 852 853 851
f 856 858 857
f 858 860 859
f 966 967 965
f 967 968 965
f 968 971 970
f 973 975 974
f 975 977 976
f 979 981 980
f 981 983 982
f 983 985 984
f 985 987 986
f 1004 992 991
f 994 996 995
f 996 997 995
f 997 1000 999
f 1000 1002 1001
f 1002 1004 1003
f 1097 1099 1098
f 1099 1101 1100
f 1101 1103 1102
f 1103 1105 1104
f 1105 1107 1106
f 1107 1109 1108
f 1114 1116 1115
f 1116 1118 1117
f 1118 1119 1117
f 1119 1121 1120
f 1121 1123 1122
f 1125 1127 1126
f 1127 1129 1128
f 1129 1131 1130
f 1219 1220 1218
f 1220 1222 1221
f 1222 1223 1221
f 1223 1225 1224
f 1225 1227 1226
f 1227 1229 1228
f 1229 1231 1230
f 1231 1233 1232
f 1233 1235 1234
f 1235 1237 1236
f 1241 1244 1243
f 1244 1246 1245
f 1246 1248 1247
f 1248 1250 1249
f 1250 1241 1249
usemtl Material
s off
f 156 155 175
f 175 157 156
f 175 158 157
f 175 159 158
f 175 160 159
f 175 161 160
f 175 162 161
f 175 163 162
f 175 164 163
f 175 165 164
f 175 166 165
f 175 167 166
f 175 168 167
f 175 169 168
f 175 170 169
f 175 171 170
f 175 172 171
f 175 173 172
f 175 174 173
f 175 177 176
f 175 178 177
f 175 179 178
f 175 180 179
f 175 181 180
f 175 182 181
f 175 183 182
f 175 184 183
f 175 185 184
f 175 186 185
f 175 155 186
