# This file uses centimeters as units for non-parametric coordinates.

mtllib cabinet.mtl
g default
v 46.765088 18.052232 27.896630
v 46.765088 18.052232 20.284686
v 35.938482 18.052232 27.896630
v 35.938482 18.052232 20.284686
v 25.826014 18.052232 27.896630
v 25.826014 18.052232 20.284686
v 25.826014 0.000000 27.896630
v 25.826014 0.000000 20.284686
v 35.938482 0.000000 27.896630
v 35.938482 0.000000 20.284686
v 46.765088 0.000000 27.896630
v 46.765088 0.000000 20.284686
v 26.469476 0.500124 20.284686
v 36.260214 0.500124 20.284686
v 26.469476 17.552108 20.284686
v 36.260214 17.552108 20.284686
v 46.050951 0.500124 20.284686
v 46.050951 17.552108 20.284686
v 27.001430 1.092874 19.607051
v 35.728264 1.092874 19.607051
v 27.001430 16.959358 19.607051
v 35.728264 16.959358 19.607051
v 36.811583 1.119062 19.607051
v 45.499581 1.119062 19.607051
v 36.811583 16.933169 19.607051
v 45.499581 16.933169 19.607051
v 34.080528 14.273065 19.820884
v 34.080528 14.886423 19.820884
v 34.611714 15.193101 19.820884
v 35.142897 14.886423 19.820884
v 35.142897 14.273065 19.820884
v 34.611714 13.966384 19.820884
v 34.080528 14.273065 18.953463
v 34.080528 14.886423 18.953463
v 34.611714 15.193101 18.953463
v 35.142897 14.886423 18.953463
v 35.142897 14.273065 18.953463
v 34.611714 13.966384 18.953463
v 34.611714 14.579744 19.820884
v 34.611714 14.579744 18.953463
v 37.813872 14.273065 19.820884
v 37.813872 14.886423 19.820884
v 38.345058 15.193101 19.820884
v 38.876242 14.886423 19.820884
v 38.876242 14.273065 19.820884
v 38.345058 13.966384 19.820884
v 37.813872 14.273065 18.953463
v 37.813872 14.886423 18.953463
v 38.345058 15.193101 18.953463
v 38.876242 14.886423 18.953463
v 38.876242 14.273065 18.953463
v 38.345058 13.966384 18.953463
v 38.345058 14.579744 19.820884
v 38.345058 14.579744 18.953463
vt 0.625000 0.375000
vt 0.375000 0.375000
vt 0.625000 0.437500
vt 0.375000 0.437500
vt 0.625000 0.500000
vt 0.375000 0.500000
vt 0.625000 0.750000
vt 0.375000 0.750000
vt 0.625000 0.812500
vt 0.375000 0.812500
vt 0.625000 0.875000
vt 0.375000 0.875000
vt 0.812500 0.000000
vt 0.875000 0.000000
vt 0.875000 0.250000
vt 0.812500 0.250000
vt 0.750000 0.000000
vt 0.812500 0.000000
vt 0.812500 0.250000
vt 0.750000 0.250000
vt 0.125000 0.000000
vt 0.187500 0.000000
vt 0.187500 0.250000
vt 0.125000 0.250000
vt 0.250000 0.000000
vt 0.250000 0.250000
vt 0.812500 0.000000
vt 0.875000 0.000000
vt 0.875000 0.000000
vt 0.812500 0.000000
vt 0.875000 0.250000
vt 0.875000 0.250000
vt 0.812500 0.250000
vt 0.812500 0.250000
vt 0.750000 0.000000
vt 0.750000 0.000000
vt 0.750000 0.250000
vt 0.750000 0.250000
vt 0.375000 0.312500
vt 0.416667 0.312500
vt 0.416667 0.688440
vt 0.375000 0.688440
vt 0.458333 0.312500
vt 0.458333 0.688440
vt 0.500000 0.312500
vt 0.500000 0.688440
vt 0.541667 0.312500
vt 0.541667 0.688440
vt 0.583333 0.312500
vt 0.583333 0.688440
vt 0.625000 0.312500
vt 0.625000 0.688440
vt 0.421875 0.020934
vt 0.578125 0.020934
vt 0.500000 0.150000
vt 0.343750 0.156250
vt 0.421875 0.291566
vt 0.578125 0.291566
vt 0.656250 0.156250
vt 0.578125 0.979066
vt 0.421875 0.979066
vt 0.500000 0.837500
vt 0.343750 0.843750
vt 0.421875 0.708434
vt 0.578125 0.708434
vt 0.656250 0.843750
vt 0.375000 0.312500
vt 0.416667 0.312500
vt 0.416667 0.688440
vt 0.375000 0.688440
vt 0.458333 0.312500
vt 0.458333 0.688440
vt 0.500000 0.312500
vt 0.500000 0.688440
vt 0.541667 0.312500
vt 0.541667 0.688440
vt 0.583333 0.312500
vt 0.583333 0.688440
vt 0.625000 0.312500
vt 0.625000 0.688440
vt 0.421875 0.020934
vt 0.578125 0.020934
vt 0.500000 0.150000
vt 0.343750 0.156250
vt 0.421875 0.291566
vt 0.578125 0.291566
vt 0.656250 0.156250
vt 0.578125 0.979066
vt 0.421875 0.979066
vt 0.500000 0.837500
vt 0.343750 0.843750
vt 0.421875 0.708434
vt 0.578125 0.708434
vt 0.656250 0.843750
vt 0.000000 1.000000
vt 0.168512 1.000000
vt 0.168512 0.000000
vt 0.000000 0.000000
vn 0.000000 1.000000 -0.000000
vn 0.000000 1.000000 -0.000000
vn 0.000000 1.000000 -0.000000
vn 0.000000 1.000000 -0.000000
vn 0.000000 1.000000 -0.000000
vn 0.000000 1.000000 -0.000000
vn 0.000000 1.000000 -0.000000
vn 0.000000 1.000000 -0.000000
vn -1.000000 0.000000 -0.000000
vn -1.000000 0.000000 -0.000000
vn -1.000000 0.000000 -0.000000
vn -1.000000 0.000000 -0.000000
vn 0.000000 -1.000000 0.000000
vn 0.000000 -1.000000 0.000000
vn 0.000000 -1.000000 0.000000
vn 0.000000 -1.000000 0.000000
vn 0.000000 -1.000000 0.000000
vn 0.000000 -1.000000 0.000000
vn 0.000000 -1.000000 0.000000
vn 0.000000 -1.000000 0.000000
vn 0.000000 0.000000 -1.000000
vn 0.000000 0.000000 -1.000000
vn 0.000000 0.000000 -1.000000
vn 0.000000 0.000000 -1.000000
vn 0.000000 0.000000 -1.000000
vn 0.000000 0.000000 -1.000000
vn 0.000000 0.000000 -1.000000
vn 0.000000 0.000000 -1.000000
vn -0.000000 0.000000 1.000000
vn -0.000000 0.000000 1.000000
vn -0.000000 0.000000 1.000000
vn -0.000000 0.000000 1.000000
vn -0.000000 0.000000 1.000000
vn -0.000000 0.000000 1.000000
vn -0.000000 0.000000 1.000000
vn -0.000000 0.000000 1.000000
vn 0.000000 0.000002 -1.000000
vn 0.000000 0.000002 -1.000000
vn 0.000000 0.000002 -1.000000
vn 0.000000 0.000002 -1.000000
vn 0.000000 0.000000 -1.000000
vn 0.000000 0.000000 -1.000000
vn 0.000000 0.000000 -1.000000
vn 0.000000 0.000000 -1.000000
vn 0.000000 -0.000001 -1.000000
vn 0.000000 -0.000001 -1.000000
vn 0.000000 -0.000001 -1.000000
vn 0.000000 -0.000001 -1.000000
vn 0.000000 0.000000 -1.000000
vn 0.000000 0.000000 -1.000000
vn 0.000000 0.000000 -1.000000
vn 0.000000 0.000000 -1.000000
vn 0.000000 -0.000001 -1.000000
vn 0.000000 -0.000001 -1.000000
vn 0.000000 -0.000001 -1.000000
vn 0.000000 -0.000001 -1.000000
vn 0.000000 -0.752675 -0.658393
vn 0.000000 -0.752675 -0.658393
vn 0.000000 -0.752675 -0.658393
vn 0.000000 -0.752675 -0.658393
vn -0.786587 0.000000 -0.617480
vn -0.786587 0.000000 -0.617479
vn -0.786587 0.000000 -0.617479
vn -0.786587 0.000000 -0.617479
vn 0.000000 0.752675 -0.658392
vn 0.000000 0.752675 -0.658392
vn 0.000000 0.752676 -0.658392
vn 0.000000 0.752675 -0.658392
vn 0.786587 0.000000 -0.617480
vn 0.786587 0.000000 -0.617480
vn 0.786587 0.000000 -0.617480
vn 0.786587 0.000000 -0.617480
vn 0.000000 -0.738362 -0.674405
vn 0.000000 -0.738362 -0.674405
vn 0.000000 -0.738362 -0.674405
vn 0.000000 -0.738362 -0.674405
vn -0.775670 0.000000 -0.631139
vn -0.775670 0.000000 -0.631139
vn -0.775670 0.000000 -0.631139
vn -0.775670 0.000000 -0.631139
vn 0.000000 0.738361 -0.674405
vn 0.000000 0.738361 -0.674405
vn 0.000000 0.738361 -0.674405
vn 0.000000 0.738361 -0.674405
vn 0.775670 0.000000 -0.631139
vn 0.775670 0.000000 -0.631139
vn 0.775670 0.000000 -0.631139
vn 0.775670 0.000000 -0.631139
vn -1.000000 0.000000 -0.000000
vn -1.000000 0.000000 -0.000000
vn -1.000000 0.000000 -0.000000
vn -1.000000 0.000000 -0.000000
vn -0.500000 0.866025 -0.000000
vn -0.500000 0.866025 -0.000000
vn -0.500000 0.866025 -0.000000
vn -0.500000 0.866025 -0.000000
vn 0.500000 0.866025 0.000000
vn 0.500000 0.866025 0.000000
vn 0.500000 0.866025 0.000000
vn 0.500000 0.866025 0.000000
vn 1.000000 0.000000 0.000000
vn 1.000000 0.000000 0.000000
vn 1.000000 0.000000 0.000000
vn 1.000000 0.000000 0.000000
vn 0.499999 -0.866026 0.000000
vn 0.499999 -0.866026 0.000000
vn 0.499999 -0.866026 0.000000
vn 0.499999 -0.866026 0.000000
vn -0.499999 -0.866026 -0.000000
vn -0.499999 -0.866026 -0.000000
vn -0.499999 -0.866026 -0.000000
vn -0.499999 -0.866026 -0.000000
vn -0.000000 0.000000 1.000000
vn -0.000000 0.000000 1.000000
vn -0.000000 0.000000 1.000000
vn -0.000000 0.000000 1.000000
vn -0.000000 0.000000 1.000000
vn -0.000000 0.000000 1.000000
vn -0.000000 0.000000 1.000000
vn -0.000000 0.000000 1.000000
vn -0.000000 0.000000 1.000000
vn -0.000000 0.000000 1.000000
vn -0.000000 0.000000 1.000000
vn -0.000000 0.000000 1.000000
vn -0.000000 0.000000 1.000000
vn -0.000000 0.000000 1.000000
vn -0.000000 0.000000 1.000000
vn -0.000000 0.000000 1.000000
vn -0.000000 0.000000 1.000000
vn -0.000000 0.000000 1.000000
vn 0.000000 0.000000 -1.000000
vn 0.000000 0.000000 -1.000000
vn 0.000000 0.000000 -1.000000
vn 0.000000 0.000000 -1.000000
vn 0.000000 0.000000 -1.000000
vn 0.000000 0.000000 -1.000000
vn 0.000000 0.000000 -1.000000
vn 0.000000 0.000000 -1.000000
vn 0.000000 0.000000 -1.000000
vn 0.000000 0.000000 -1.000000
vn 0.000000 0.000000 -1.000000
vn 0.000000 0.000000 -1.000000
vn 0.000000 0.000000 -1.000000
vn 0.000000 0.000000 -1.000000
vn 0.000000 0.000000 -1.000000
vn 0.000000 0.000000 -1.000000
vn 0.000000 0.000000 -1.000000
vn 0.000000 0.000000 -1.000000
vn -1.000000 0.000000 -0.000000
vn -1.000000 0.000000 -0.000000
vn -1.000000 0.000000 -0.000000
vn -1.000000 0.000000 -0.000000
vn -0.500000 0.866025 -0.000000
vn -0.500000 0.866025 -0.000000
vn -0.500000 0.866025 -0.000000
vn -0.500000 0.866025 -0.000000
vn 0.500000 0.866025 0.000000
vn 0.500000 0.866025 0.000000
vn 0.500000 0.866025 0.000000
vn 0.500000 0.866025 0.000000
vn 1.000000 0.000000 0.000000
vn 1.000000 0.000000 0.000000
vn 1.000000 0.000000 0.000000
vn 1.000000 0.000000 0.000000
vn 0.499999 -0.866026 0.000000
vn 0.499999 -0.866026 0.000000
vn 0.499999 -0.866026 0.000000
vn 0.499999 -0.866026 0.000000
vn -0.499999 -0.866026 -0.000000
vn -0.499999 -0.866026 -0.000000
vn -0.499999 -0.866026 -0.000000
vn -0.499999 -0.866026 -0.000000
vn -0.000000 0.000000 1.000000
vn -0.000000 0.000000 1.000000
vn -0.000000 0.000000 1.000000
vn -0.000000 0.000000 1.000000
vn -0.000000 0.000000 1.000000
vn -0.000000 0.000000 1.000000
vn -0.000000 0.000000 1.000000
vn -0.000000 0.000000 1.000000
vn -0.000000 0.000000 1.000000
vn -0.000000 0.000000 1.000000
vn -0.000000 0.000000 1.000000
vn -0.000000 0.000000 1.000000
vn -0.000000 0.000000 1.000000
vn -0.000000 0.000000 1.000000
vn -0.000000 0.000000 1.000000
vn -0.000000 0.000000 1.000000
vn -0.000000 0.000000 1.000000
vn -0.000000 0.000000 1.000000
vn 0.000000 0.000000 -1.000000
vn 0.000000 0.000000 -1.000000
vn 0.000000 0.000000 -1.000000
vn 0.000000 0.000000 -1.000000
vn 0.000000 0.000000 -1.000000
vn 0.000000 0.000000 -1.000000
vn 0.000000 0.000000 -1.000000
vn 0.000000 0.000000 -1.000000
vn 0.000000 0.000000 -1.000000
vn 0.000000 0.000000 -1.000000
vn 0.000000 0.000000 -1.000000
vn 0.000000 0.000000 -1.000000
vn 0.000000 0.000000 -1.000000
vn 0.000000 0.000000 -1.000000
vn 0.000000 0.000000 -1.000000
vn 0.000000 0.000000 -1.000000
vn 0.000000 0.000000 -1.000000
vn 0.000000 0.000000 -1.000000
vn 1.000000 0.000000 0.000000
vn 1.000000 0.000000 0.000000
vn 1.000000 0.000000 0.000000
vn 1.000000 0.000000 0.000000
vn 0.000001 0.000000 -1.000000
vn 0.000001 0.000000 -1.000000
vn 0.000001 0.000000 -1.000000
vn 0.000001 0.000000 -1.000000
s off
g polySurface191
usemtl cupboards:initialShadingGroup
f 1/2/1 2/1/2 4/3/3 3/4/4
f 3/4/5 4/3/6 6/5/7 5/6/8
f 5/6/9 6/5/10 8/7/11 7/8/12
f 7/8/13 8/7/14 10/9/15 9/10/16
f 9/10/17 10/9/18 12/11/19 11/12/20
f 20/13/21 19/14/22 21/15/23 22/16/24
f 24/17/25 23/18/26 25/19/27 26/20/28
f 7/21/29 9/22/30 3/23/31 5/24/32
f 9/22/33 11/25/34 1/26/35 3/23/36
f 10/27/37 8/28/38 13/29/39 14/30/40
f 8/28/41 6/31/42 15/32/43 13/29/44
f 6/31/45 4/33/46 16/34/47 15/32/48
f 12/35/49 10/27/50 14/30/51 17/36/52
f 4/33/53 2/37/54 18/38/55 16/34/56
f 14/30/57 13/29/58 19/14/59 20/13/60
f 13/29/61 15/32/62 21/15/63 19/14/64
f 15/32/65 16/34/66 22/16/67 21/15/68
f 16/34/69 14/30/70 20/13/71 22/16/72
f 17/36/73 14/30/74 23/18/75 24/17/76
f 14/30/77 16/34/78 25/19/79 23/18/80
f 16/34/81 18/38/82 26/20/83 25/19/84
f 18/38/85 17/36/86 24/17/87 26/20/88
f 27/39/89 28/40/90 34/41/91 33/42/92
f 28/40/93 29/43/94 35/44/95 34/41/96
f 29/43/97 30/45/98 36/46/99 35/44/100
f 30/45/101 31/47/102 37/48/103 36/46/104
f 31/47/105 32/49/106 38/50/107 37/48/108
f 32/49/109 27/51/110 33/52/111 38/50/112
f 28/53/113 27/54/114 39/55/115
f 29/56/116 28/53/117 39/55/118
f 30/57/119 29/56/120 39/55/121
f 31/58/122 30/57/123 39/55/124
f 32/59/125 31/58/126 39/55/127
f 27/54/128 32/59/129 39/55/130
f 33/60/131 34/61/132 40/62/133
f 34/61/134 35/63/135 40/62/136
f 35/63/137 36/64/138 40/62/139
f 36/64/140 37/65/141 40/62/142
f 37/65/143 38/66/144 40/62/145
f 38/66/146 33/60/147 40/62/148
f 41/67/149 42/68/150 48/69/151 47/70/152
f 42/68/153 43/71/154 49/72/155 48/69/156
f 43/71/157 44/73/158 50/74/159 49/72/160
f 44/73/161 45/75/162 51/76/163 50/74/164
f 45/75/165 46/77/166 52/78/167 51/76/168
f 46/77/169 41/79/170 47/80/171 52/78/172
f 42/81/173 41/82/174 53/83/175
f 43/84/176 42/81/177 53/83/178
f 44/85/179 43/84/180 53/83/181
f 45/86/182 44/85/183 53/83/184
f 46/87/185 45/86/186 53/83/187
f 41/82/188 46/87/189 53/83/190
f 47/88/191 48/89/192 54/90/193
f 48/89/194 49/91/195 54/90/196
f 49/91/197 50/92/198 54/90/199
f 50/92/200 51/93/201 54/90/202
f 51/93/203 52/94/204 54/90/205
f 52/94/206 47/88/207 54/90/208
f 2/95/209 1/96/210 11/97/211 12/98/212
f 12/35/213 17/36/214 18/38/215 2/95/216
